%!PS-Adobe-3.0 EPSF-3.0
%%Creator: inkscape 0.46
%%Pages: 1
%%Orientation: Portrait
%%BoundingBox: 0 0 339 406
%%HiResBoundingBox: -5.5511151e-18 0 338.5 405.95
%%EndComments
%%Page: 1 1
0 406 translate
0.8 -0.8 scale
0 0 0 setrgbcolor
[] 0 setdash
1 setlinewidth
0 setlinejoin
0 setlinecap
gsave [1 0 0 1 0 0] concat
gsave [1 0 0 1 0.02447 -1.60039] concat
gsave
0.58039218 0.80000001 1 setrgbcolor
newpath
111.69428 1.60039 moveto
111.69428 386.69414 lineto
-0.02447 386.47539 lineto
212.25678 509.03789 lineto
423.10053 387.31914 lineto
311.69428 387.10039 lineto
311.69428 1.60039 lineto
111.69428 1.60039 lineto
closepath
fill
grestore
gsave [1 0 0 1 -145.46197 -105.05586] concat
gsave
0 0 0 setrgbcolor
newpath
275.29297 143.08481 moveto
279.23828 143.08481 lineto
279.23828 172.24497 lineto
275.29297 172.24497 lineto
275.29297 143.08481 lineto
fill
grestore
gsave
0 0 0 setrgbcolor
newpath
305.11719 159.04184 moveto
305.11719 172.24497 lineto
301.52344 172.24497 lineto
301.52344 159.15903 lineto
301.52342 157.08873 301.11977 155.53925 300.3125 154.51059 curveto
299.50519 153.48196 298.29426 152.96764 296.67969 152.96762 curveto
294.73957 152.96764 293.20963 153.58613 292.08984 154.82309 curveto
290.97004 156.06009 290.41015 157.74628 290.41016 159.88169 curveto
290.41016 172.24497 lineto
286.79688 172.24497 lineto
286.79688 150.36997 lineto
290.41016 150.36997 lineto
290.41016 153.7684 lineto
291.26952 152.45332 292.27864 151.47025 293.4375 150.81919 curveto
294.60936 150.16817 295.95702 149.84265 297.48047 149.84262 curveto
299.99347 149.84265 301.89451 150.62389 303.18359 152.18637 curveto
304.47263 153.73587 305.11717 156.02102 305.11719 159.04184 curveto
fill
grestore
gsave
0 0 0 setrgbcolor
newpath
315.80078 168.96372 moveto
315.80078 180.56528 lineto
312.1875 180.56528 lineto
312.1875 150.36997 lineto
315.80078 150.36997 lineto
315.80078 153.69028 lineto
316.55598 152.38822 317.5065 151.42467 318.65234 150.79965 curveto
319.81119 150.16166 321.19139 149.84265 322.79297 149.84262 curveto
325.4492 149.84265 327.60415 150.89733 329.25781 153.00669 curveto
330.92446 155.11608 331.75779 157.88951 331.75781 161.327 curveto
331.75779 164.76451 330.92446 167.53794 329.25781 169.64731 curveto
327.60415 171.75669 325.4492 172.81137 322.79297 172.81137 curveto
321.19139 172.81137 319.81119 172.49887 318.65234 171.87387 curveto
317.5065 171.23585 316.55598 170.2658 315.80078 168.96372 curveto
328.02734 161.327 moveto
328.02732 158.68378 327.48045 156.61347 326.38672 155.11606 curveto
325.30597 153.60566 323.81509 152.85045 321.91406 152.85044 curveto
320.01301 152.85045 318.51562 153.60566 317.42188 155.11606 curveto
316.34114 156.61347 315.80077 158.68378 315.80078 161.327 curveto
315.80077 163.97024 316.34114 166.04706 317.42188 167.55747 curveto
318.51562 169.05487 320.01301 169.80356 321.91406 169.80356 curveto
323.81509 169.80356 325.30597 169.05487 326.38672 167.55747 curveto
327.48045 166.04706 328.02732 163.97024 328.02734 161.327 curveto
fill
grestore
gsave
0 0 0 setrgbcolor
newpath
337.34375 163.61215 moveto
337.34375 150.36997 lineto
340.9375 150.36997 lineto
340.9375 163.47544 lineto
340.93749 165.54575 341.34114 167.10174 342.14844 168.1434 curveto
342.95572 169.17205 344.16666 169.68638 345.78125 169.68637 curveto
347.72134 169.68638 349.25129 169.06789 350.37109 167.8309 curveto
351.50389 166.59393 352.07029 164.90773 352.07031 162.77231 curveto
352.07031 150.36997 lineto
355.66406 150.36997 lineto
355.66406 172.24497 lineto
352.07031 172.24497 lineto
352.07031 168.88559 lineto
351.1979 170.21372 350.18228 171.2033 349.02344 171.85434 curveto
347.87759 172.49236 346.54296 172.81137 345.01953 172.81137 curveto
342.5065 172.81137 340.59895 172.03012 339.29688 170.46762 curveto
337.99479 168.90513 337.34375 166.61997 337.34375 163.61215 curveto
fill
grestore
gsave
0 0 0 setrgbcolor
newpath
366.66016 144.15903 moveto
366.66016 150.36997 lineto
374.0625 150.36997 lineto
374.0625 153.16294 lineto
366.66016 153.16294 lineto
366.66016 165.03794 lineto
366.66015 166.82179 366.90103 167.96763 367.38281 168.47544 curveto
367.8776 168.98325 368.87369 169.23716 370.37109 169.23715 curveto
374.0625 169.23715 lineto
374.0625 172.24497 lineto
370.37109 172.24497 lineto
367.59765 172.24497 365.68359 171.73064 364.62891 170.702 curveto
363.57421 169.66033 363.04687 167.77231 363.04688 165.03794 curveto
363.04688 153.16294 lineto
360.41016 153.16294 lineto
360.41016 150.36997 lineto
363.04688 150.36997 lineto
363.04688 144.15903 lineto
366.66016 144.15903 lineto
fill
grestore
gsave
0 0 0 setrgbcolor
newpath
fill
grestore
gsave
0 0 0 setrgbcolor
newpath
402.61719 141.85434 moveto
402.61719 144.84262 lineto
399.17969 144.84262 lineto
397.89061 144.84265 396.99218 145.10307 396.48438 145.62387 curveto
395.98958 146.14473 395.74218 147.08223 395.74219 148.43637 curveto
395.74219 150.36997 lineto
401.66016 150.36997 lineto
401.66016 153.16294 lineto
395.74219 153.16294 lineto
395.74219 172.24497 lineto
392.12891 172.24497 lineto
392.12891 153.16294 lineto
388.69141 153.16294 lineto
388.69141 150.36997 lineto
392.12891 150.36997 lineto
392.12891 148.84653 lineto
392.1289 146.41166 392.69531 144.64083 393.82812 143.53403 curveto
394.96093 142.41427 396.7578 141.85437 399.21875 141.85434 curveto
402.61719 141.85434 lineto
fill
grestore
gsave
0 0 0 setrgbcolor
newpath
405.68359 150.36997 moveto
409.27734 150.36997 lineto
409.27734 172.24497 lineto
405.68359 172.24497 lineto
405.68359 150.36997 lineto
405.68359 141.85434 moveto
409.27734 141.85434 lineto
409.27734 146.40512 lineto
405.68359 146.40512 lineto
405.68359 141.85434 lineto
fill
grestore
gsave
0 0 0 setrgbcolor
newpath
416.77734 141.85434 moveto
420.37109 141.85434 lineto
420.37109 172.24497 lineto
416.77734 172.24497 lineto
416.77734 141.85434 lineto
fill
grestore
gsave
0 0 0 setrgbcolor
newpath
446.58203 160.40903 moveto
446.58203 162.16684 lineto
430.05859 162.16684 lineto
430.21484 164.64081 430.95702 166.52883 432.28516 167.8309 curveto
433.62629 169.11997 435.48827 169.7645 437.87109 169.7645 curveto
439.25129 169.7645 440.58592 169.59523 441.875 169.25669 curveto
443.17706 168.91815 444.46613 168.41033 445.74219 167.73325 curveto
445.74219 171.13169 lineto
444.4531 171.67856 443.13149 172.09523 441.77734 172.38169 curveto
440.42316 172.66814 439.04946 172.81137 437.65625 172.81137 curveto
434.16666 172.81137 431.39973 171.79575 429.35547 169.7645 curveto
427.32422 167.73325 426.30859 164.98586 426.30859 161.52231 curveto
426.30859 157.9416 427.27213 155.10306 429.19922 153.00669 curveto
431.13932 150.89733 433.74999 149.84265 437.03125 149.84262 curveto
439.97394 149.84265 442.29816 150.79316 444.00391 152.69419 curveto
445.72263 154.58222 446.58201 157.15384 446.58203 160.40903 curveto
442.98828 159.35434 moveto
442.96222 157.38821 442.40884 155.8192 441.32812 154.64731 curveto
440.2604 153.47545 438.84113 152.88952 437.07031 152.8895 curveto
435.06509 152.88952 433.45702 153.45592 432.24609 154.58872 curveto
431.04817 155.72155 430.35807 157.3166 430.17578 159.37387 curveto
442.98828 159.35434 lineto
fill
grestore
gsave
0 0 0 setrgbcolor
newpath
294.78516 196.327 moveto
294.78516 207.28403 lineto
299.74609 207.28403 lineto
301.58202 207.28404 303.00129 206.80878 304.00391 205.85825 curveto
305.00649 204.90774 305.50779 203.55358 305.50781 201.79575 curveto
305.50779 200.05098 305.00649 198.70332 304.00391 197.75278 curveto
303.00129 196.80228 301.58202 196.32702 299.74609 196.327 curveto
294.78516 196.327 lineto
290.83984 193.08481 moveto
299.74609 193.08481 lineto
303.01431 193.08484 305.48175 193.82703 307.14844 195.31137 curveto
308.8281 196.78275 309.66795 198.94421 309.66797 201.79575 curveto
309.66795 204.67337 308.8281 206.84785 307.14844 208.31919 curveto
305.48175 209.79055 303.01431 210.52623 299.74609 210.52622 curveto
294.78516 210.52622 lineto
294.78516 222.24497 lineto
290.83984 222.24497 lineto
290.83984 193.08481 lineto
fill
grestore
gsave
0 0 0 setrgbcolor
newpath
322.96875 211.24887 moveto
320.06509 211.24888 318.05338 211.58091 316.93359 212.24497 curveto
315.8138 212.90904 315.2539 214.04185 315.25391 215.6434 curveto
315.2539 216.91945 315.67057 217.93507 316.50391 218.69028 curveto
317.35025 219.43247 318.49608 219.80356 319.94141 219.80356 curveto
321.93358 219.80356 323.52863 219.10044 324.72656 217.69419 curveto
325.93748 216.27492 326.54295 214.39341 326.54297 212.04965 curveto
326.54297 211.24887 lineto
322.96875 211.24887 lineto
330.13672 209.7645 moveto
330.13672 222.24497 lineto
326.54297 222.24497 lineto
326.54297 218.92465 lineto
325.72264 220.25278 324.70051 221.23585 323.47656 221.87387 curveto
322.25259 222.49887 320.7552 222.81137 318.98438 222.81137 curveto
316.74478 222.81137 314.96093 222.18637 313.63281 220.93637 curveto
312.31771 219.67335 311.66015 217.98716 311.66016 215.87778 curveto
311.66015 213.41685 312.48047 211.56138 314.12109 210.31137 curveto
315.77473 209.06139 318.23567 208.43639 321.50391 208.43637 curveto
326.54297 208.43637 lineto
326.54297 208.08481 lineto
326.54295 206.43118 325.99608 205.15514 324.90234 204.25669 curveto
323.8216 203.34525 322.29816 202.88952 320.33203 202.8895 curveto
319.08202 202.88952 317.86457 203.03926 316.67969 203.33872 curveto
315.49479 203.63821 314.35546 204.08743 313.26172 204.68637 curveto
313.26172 201.36606 lineto
314.57682 200.85827 315.85286 200.48067 317.08984 200.23325 curveto
318.32681 199.97285 319.53124 199.84265 320.70312 199.84262 curveto
323.86717 199.84265 326.23045 200.66296 327.79297 202.30356 curveto
329.35545 203.9442 330.1367 206.43118 330.13672 209.7645 curveto
fill
grestore
gsave
0 0 0 setrgbcolor
newpath
350.3125 203.72934 moveto
349.90884 203.49499 349.46613 203.32571 348.98438 203.22153 curveto
348.51561 203.10436 347.99478 203.04577 347.42188 203.04575 curveto
345.39061 203.04577 343.82812 203.70983 342.73438 205.03794 curveto
341.65364 206.35306 341.11327 208.24758 341.11328 210.72153 curveto
341.11328 222.24497 lineto
337.5 222.24497 lineto
337.5 200.36997 lineto
341.11328 200.36997 lineto
341.11328 203.7684 lineto
341.86848 202.4403 342.85155 201.45723 344.0625 200.81919 curveto
345.27343 200.16817 346.74478 199.84265 348.47656 199.84262 curveto
348.72394 199.84265 348.99738 199.86218 349.29688 199.90122 curveto
349.59634 199.92728 349.92837 199.97285 350.29297 200.03794 curveto
350.3125 203.72934 lineto
fill
grestore
gsave
0 0 0 setrgbcolor
newpath
368.06641 201.0145 moveto
368.06641 204.41294 lineto
367.05076 203.89212 365.99608 203.5015 364.90234 203.24106 curveto
363.80858 202.98066 362.67577 202.85045 361.50391 202.85044 curveto
359.72004 202.85045 358.3789 203.12389 357.48047 203.67075 curveto
356.59505 204.21764 356.15234 205.03795 356.15234 206.13169 curveto
356.15234 206.96503 356.47135 207.62259 357.10938 208.10434 curveto
357.74739 208.57311 359.02994 209.02232 360.95703 209.452 curveto
362.1875 209.72544 lineto
364.73957 210.27232 366.54946 211.04706 367.61719 212.04965 curveto
368.6979 213.03925 369.23826 214.42596 369.23828 216.20981 curveto
369.23826 218.24106 368.43097 219.84914 366.81641 221.03403 curveto
365.21483 222.21892 363.0078 222.81137 360.19531 222.81137 curveto
359.02343 222.81137 357.79947 222.69418 356.52344 222.45981 curveto
355.26041 222.23846 353.92578 221.89991 352.51953 221.44419 curveto
352.51953 217.73325 lineto
353.84765 218.42336 355.15625 218.94419 356.44531 219.29575 curveto
357.73437 219.63429 359.01041 219.80356 360.27344 219.80356 curveto
361.96613 219.80356 363.26822 219.5171 364.17969 218.94419 curveto
365.09113 218.35825 365.54686 217.53794 365.54688 216.48325 curveto
365.54686 215.50669 365.21483 214.75799 364.55078 214.23715 curveto
363.89973 213.71633 362.46093 213.21503 360.23438 212.73325 curveto
358.98438 212.44028 lineto
356.75781 211.97154 355.14973 211.25539 354.16016 210.29184 curveto
353.17057 209.31529 352.67578 207.98066 352.67578 206.28794 curveto
352.67578 204.23066 353.40494 202.64212 354.86328 201.52231 curveto
356.32161 200.40254 358.39192 199.84265 361.07422 199.84262 curveto
362.40233 199.84265 363.65233 199.9403 364.82422 200.13559 curveto
365.99608 200.33093 367.07681 200.62389 368.06641 201.0145 curveto
fill
grestore
gsave
0 0 0 setrgbcolor
newpath
374.98047 200.36997 moveto
378.57422 200.36997 lineto
378.57422 222.24497 lineto
374.98047 222.24497 lineto
374.98047 200.36997 lineto
374.98047 191.85434 moveto
378.57422 191.85434 lineto
378.57422 196.40512 lineto
374.98047 196.40512 lineto
374.98047 191.85434 lineto
fill
grestore
gsave
0 0 0 setrgbcolor
newpath
404.25781 209.04184 moveto
404.25781 222.24497 lineto
400.66406 222.24497 lineto
400.66406 209.15903 lineto
400.66404 207.08873 400.2604 205.53925 399.45312 204.51059 curveto
398.64582 203.48196 397.43488 202.96764 395.82031 202.96762 curveto
393.8802 202.96764 392.35025 203.58613 391.23047 204.82309 curveto
390.11067 206.06009 389.55077 207.74628 389.55078 209.88169 curveto
389.55078 222.24497 lineto
385.9375 222.24497 lineto
385.9375 200.36997 lineto
389.55078 200.36997 lineto
389.55078 203.7684 lineto
390.41015 202.45332 391.41926 201.47025 392.57812 200.81919 curveto
393.74999 200.16817 395.09764 199.84265 396.62109 199.84262 curveto
399.1341 199.84265 401.03514 200.62389 402.32422 202.18637 curveto
403.61326 203.73587 404.25779 206.02102 404.25781 209.04184 curveto
fill
grestore
gsave
0 0 0 setrgbcolor
newpath
425.85938 211.05356 moveto
425.85936 208.44941 425.31899 206.43118 424.23828 204.99887 curveto
423.17056 203.5666 421.66665 202.85045 419.72656 202.85044 curveto
417.79947 202.85045 416.29556 203.5666 415.21484 204.99887 curveto
414.14713 206.43118 413.61328 208.44941 413.61328 211.05356 curveto
413.61328 213.64471 414.14713 215.65643 415.21484 217.08872 curveto
416.29556 218.52101 417.79947 219.23716 419.72656 219.23715 curveto
421.66665 219.23716 423.17056 218.52101 424.23828 217.08872 curveto
425.31899 215.65643 425.85936 213.64471 425.85938 211.05356 curveto
429.45312 219.53012 moveto
429.4531 223.25408 428.62628 226.021 426.97266 227.8309 curveto
425.31899 229.65381 422.78644 230.56527 419.375 230.56528 curveto
418.11197 230.56527 416.92056 230.46761 415.80078 230.27231 curveto
414.68098 230.09001 413.59374 229.80355 412.53906 229.41294 curveto
412.53906 225.91684 lineto
413.59374 226.48975 414.63541 226.91293 415.66406 227.18637 curveto
416.6927 227.4598 417.74088 227.59652 418.80859 227.59653 curveto
421.16535 227.59652 422.92967 226.97803 424.10156 225.74106 curveto
425.27342 224.5171 425.85936 222.66163 425.85938 220.17465 curveto
425.85938 218.39731 lineto
425.11717 219.68638 424.16665 220.64992 423.00781 221.28794 curveto
421.84894 221.92596 420.46223 222.24497 418.84766 222.24497 curveto
416.16536 222.24497 414.0039 221.22283 412.36328 219.17856 curveto
410.72265 217.13429 409.90234 214.42596 409.90234 211.05356 curveto
409.90234 207.66816 410.72265 204.95332 412.36328 202.90903 curveto
414.0039 200.86478 416.16536 199.84265 418.84766 199.84262 curveto
420.46223 199.84265 421.84894 200.16166 423.00781 200.79965 curveto
424.16665 201.4377 425.11717 202.40124 425.85938 203.69028 curveto
425.85938 200.36997 lineto
429.45312 200.36997 lineto
429.45312 219.53012 lineto
fill
grestore
gsave
0 0 0 setrgbcolor
newpath
202.55859 258.31919 moveto
202.55859 269.00278 lineto
208.88672 269.00278 lineto
211.0091 269.00278 212.57811 268.56658 213.59375 267.69419 curveto
214.62238 266.80877 215.1367 265.46112 215.13672 263.65122 curveto
215.1367 261.82831 214.62238 260.48717 213.59375 259.62778 curveto
212.57811 258.7554 211.0091 258.3192 208.88672 258.31919 curveto
202.55859 258.31919 lineto
202.55859 246.327 moveto
202.55859 255.11606 lineto
208.39844 255.11606 lineto
210.32551 255.11608 211.7578 254.758 212.69531 254.04184 curveto
213.64581 253.31269 214.12107 252.20592 214.12109 250.72153 curveto
214.12107 249.2502 213.64581 248.14994 212.69531 247.42075 curveto
211.7578 246.69161 210.32551 246.32702 208.39844 246.327 curveto
202.55859 246.327 lineto
198.61328 243.08481 moveto
208.69141 243.08481 lineto
211.6992 243.08484 214.01691 243.70984 215.64453 244.95981 curveto
217.27211 246.20984 218.08591 247.98718 218.08594 250.29184 curveto
218.08591 252.07572 217.66925 253.49499 216.83594 254.54965 curveto
216.00258 255.60436 214.77863 256.26191 213.16406 256.52231 curveto
215.10415 256.93899 216.60805 257.81139 217.67578 259.1395 curveto
218.75649 260.45461 219.29685 262.10175 219.29688 264.0809 curveto
219.29685 266.68508 218.41143 268.69679 216.64062 270.11606 curveto
214.86977 271.53533 212.35024 272.24497 209.08203 272.24497 curveto
198.61328 272.24497 lineto
198.61328 243.08481 lineto
fill
grestore
gsave
0 0 0 setrgbcolor
newpath
234.35547 252.8895 moveto
232.42838 252.88952 230.90494 253.64472 229.78516 255.15512 curveto
228.66536 256.65253 228.10546 258.70982 228.10547 261.327 curveto
228.10546 263.94419 228.65885 266.00799 229.76562 267.5184 curveto
230.88541 269.0158 232.41535 269.7645 234.35547 269.7645 curveto
236.26952 269.7645 237.78644 269.00929 238.90625 267.49887 curveto
240.02602 265.98846 240.58592 263.93117 240.58594 261.327 curveto
240.58592 258.73587 240.02602 256.68509 238.90625 255.17465 curveto
237.78644 253.65124 236.26952 252.88952 234.35547 252.8895 curveto
234.35547 249.84262 moveto
237.48045 249.84265 239.93488 250.85827 241.71875 252.8895 curveto
243.50258 254.92077 244.39451 257.73326 244.39453 261.327 curveto
244.39451 264.90773 243.50258 267.72023 241.71875 269.7645 curveto
239.93488 271.79575 237.48045 272.81137 234.35547 272.81137 curveto
231.21744 272.81137 228.7565 271.79575 226.97266 269.7645 curveto
225.20182 267.72023 224.3164 264.90773 224.31641 261.327 curveto
224.3164 257.73326 225.20182 254.92077 226.97266 252.8895 curveto
228.7565 250.85827 231.21744 249.84265 234.35547 249.84262 curveto
fill
grestore
gsave
0 0 0 setrgbcolor
newpath
258.80859 252.8895 moveto
256.8815 252.88952 255.35806 253.64472 254.23828 255.15512 curveto
253.11848 256.65253 252.55859 258.70982 252.55859 261.327 curveto
252.55859 263.94419 253.11197 266.00799 254.21875 267.5184 curveto
255.33853 269.0158 256.86848 269.7645 258.80859 269.7645 curveto
260.72264 269.7645 262.23957 269.00929 263.35938 267.49887 curveto
264.47915 265.98846 265.03904 263.93117 265.03906 261.327 curveto
265.03904 258.73587 264.47915 256.68509 263.35938 255.17465 curveto
262.23957 253.65124 260.72264 252.88952 258.80859 252.8895 curveto
258.80859 249.84262 moveto
261.93358 249.84265 264.388 250.85827 266.17188 252.8895 curveto
267.95571 254.92077 268.84763 257.73326 268.84766 261.327 curveto
268.84763 264.90773 267.95571 267.72023 266.17188 269.7645 curveto
264.388 271.79575 261.93358 272.81137 258.80859 272.81137 curveto
255.67056 272.81137 253.20963 271.79575 251.42578 269.7645 curveto
249.65494 267.72023 248.76953 264.90773 248.76953 261.327 curveto
248.76953 257.73326 249.65494 254.92077 251.42578 252.8895 curveto
253.20963 250.85827 255.67056 249.84265 258.80859 249.84262 curveto
fill
grestore
gsave
0 0 0 setrgbcolor
newpath
288.73047 251.0145 moveto
288.73047 254.41294 lineto
287.71483 253.89212 286.66014 253.5015 285.56641 253.24106 curveto
284.47264 252.98066 283.33983 252.85045 282.16797 252.85044 curveto
280.38411 252.85045 279.04296 253.12389 278.14453 253.67075 curveto
277.25911 254.21764 276.8164 255.03795 276.81641 256.13169 curveto
276.8164 256.96503 277.13541 257.62259 277.77344 258.10434 curveto
278.41145 258.57311 279.694 259.02232 281.62109 259.452 curveto
282.85156 259.72544 lineto
285.40363 260.27232 287.21353 261.04706 288.28125 262.04965 curveto
289.36196 263.03925 289.90232 264.42596 289.90234 266.20981 curveto
289.90232 268.24106 289.09503 269.84914 287.48047 271.03403 curveto
285.87889 272.21892 283.67186 272.81137 280.85938 272.81137 curveto
279.68749 272.81137 278.46353 272.69418 277.1875 272.45981 curveto
275.92447 272.23846 274.58984 271.89991 273.18359 271.44419 curveto
273.18359 267.73325 lineto
274.51172 268.42336 275.82031 268.94419 277.10938 269.29575 curveto
278.39843 269.63429 279.67447 269.80356 280.9375 269.80356 curveto
282.6302 269.80356 283.93228 269.5171 284.84375 268.94419 curveto
285.75519 268.35825 286.21092 267.53794 286.21094 266.48325 curveto
286.21092 265.50669 285.87889 264.75799 285.21484 264.23715 curveto
284.56379 263.71633 283.12499 263.21503 280.89844 262.73325 curveto
279.64844 262.44028 lineto
277.42187 261.97154 275.8138 261.25539 274.82422 260.29184 curveto
273.83463 259.31529 273.33984 257.98066 273.33984 256.28794 curveto
273.33984 254.23066 274.06901 252.64212 275.52734 251.52231 curveto
276.98567 250.40254 279.05598 249.84265 281.73828 249.84262 curveto
283.06639 249.84265 284.31639 249.9403 285.48828 250.13559 curveto
286.66014 250.33093 287.74087 250.62389 288.73047 251.0145 curveto
fill
grestore
gsave
0 0 0 setrgbcolor
newpath
299.19922 244.15903 moveto
299.19922 250.36997 lineto
306.60156 250.36997 lineto
306.60156 253.16294 lineto
299.19922 253.16294 lineto
299.19922 265.03794 lineto
299.19921 266.82179 299.4401 267.96763 299.92188 268.47544 curveto
300.41666 268.98325 301.41275 269.23716 302.91016 269.23715 curveto
306.60156 269.23715 lineto
306.60156 272.24497 lineto
302.91016 272.24497 lineto
300.13671 272.24497 298.22265 271.73064 297.16797 270.702 curveto
296.11328 269.66033 295.58593 267.77231 295.58594 265.03794 curveto
295.58594 253.16294 lineto
292.94922 253.16294 lineto
292.94922 250.36997 lineto
295.58594 250.36997 lineto
295.58594 244.15903 lineto
299.19922 244.15903 lineto
fill
grestore
gsave
0 0 0 setrgbcolor
newpath
312.26562 267.28403 moveto
316.38672 267.28403 lineto
316.38672 272.24497 lineto
312.26562 272.24497 lineto
312.26562 267.28403 lineto
312.26562 251.56137 moveto
316.38672 251.56137 lineto
316.38672 256.52231 lineto
312.26562 256.52231 lineto
312.26562 251.56137 lineto
fill
grestore
gsave
0 0 0 setrgbcolor
newpath
325.78125 267.28403 moveto
329.90234 267.28403 lineto
329.90234 272.24497 lineto
325.78125 272.24497 lineto
325.78125 267.28403 lineto
325.78125 251.56137 moveto
329.90234 251.56137 lineto
329.90234 256.52231 lineto
325.78125 256.52231 lineto
325.78125 251.56137 lineto
fill
grestore
gsave
0 0 0 setrgbcolor
newpath
352.32422 251.0145 moveto
352.32422 254.41294 lineto
351.30858 253.89212 350.25389 253.5015 349.16016 253.24106 curveto
348.06639 252.98066 346.93358 252.85045 345.76172 252.85044 curveto
343.97786 252.85045 342.63671 253.12389 341.73828 253.67075 curveto
340.85286 254.21764 340.41015 255.03795 340.41016 256.13169 curveto
340.41015 256.96503 340.72916 257.62259 341.36719 258.10434 curveto
342.0052 258.57311 343.28775 259.02232 345.21484 259.452 curveto
346.44531 259.72544 lineto
348.99738 260.27232 350.80728 261.04706 351.875 262.04965 curveto
352.95571 263.03925 353.49607 264.42596 353.49609 266.20981 curveto
353.49607 268.24106 352.68878 269.84914 351.07422 271.03403 curveto
349.47264 272.21892 347.26561 272.81137 344.45312 272.81137 curveto
343.28124 272.81137 342.05728 272.69418 340.78125 272.45981 curveto
339.51822 272.23846 338.18359 271.89991 336.77734 271.44419 curveto
336.77734 267.73325 lineto
338.10547 268.42336 339.41406 268.94419 340.70312 269.29575 curveto
341.99218 269.63429 343.26822 269.80356 344.53125 269.80356 curveto
346.22395 269.80356 347.52603 269.5171 348.4375 268.94419 curveto
349.34894 268.35825 349.80467 267.53794 349.80469 266.48325 curveto
349.80467 265.50669 349.47264 264.75799 348.80859 264.23715 curveto
348.15754 263.71633 346.71874 263.21503 344.49219 262.73325 curveto
343.24219 262.44028 lineto
341.01562 261.97154 339.40755 261.25539 338.41797 260.29184 curveto
337.42838 259.31529 336.93359 257.98066 336.93359 256.28794 curveto
336.93359 254.23066 337.66276 252.64212 339.12109 251.52231 curveto
340.57942 250.40254 342.64973 249.84265 345.33203 249.84262 curveto
346.66014 249.84265 347.91014 249.9403 349.08203 250.13559 curveto
350.25389 250.33093 351.33462 250.62389 352.32422 251.0145 curveto
fill
grestore
gsave
0 0 0 setrgbcolor
newpath
362.71484 268.96372 moveto
362.71484 280.56528 lineto
359.10156 280.56528 lineto
359.10156 250.36997 lineto
362.71484 250.36997 lineto
362.71484 253.69028 lineto
363.47004 252.38822 364.42056 251.42467 365.56641 250.79965 curveto
366.72525 250.16166 368.10546 249.84265 369.70703 249.84262 curveto
372.36326 249.84265 374.51821 250.89733 376.17188 253.00669 curveto
377.83852 255.11608 378.67185 257.88951 378.67188 261.327 curveto
378.67185 264.76451 377.83852 267.53794 376.17188 269.64731 curveto
374.51821 271.75669 372.36326 272.81137 369.70703 272.81137 curveto
368.10546 272.81137 366.72525 272.49887 365.56641 271.87387 curveto
364.42056 271.23585 363.47004 270.2658 362.71484 268.96372 curveto
374.94141 261.327 moveto
374.94139 258.68378 374.39451 256.61347 373.30078 255.11606 curveto
372.22004 253.60566 370.72915 252.85045 368.82812 252.85044 curveto
366.92707 252.85045 365.42968 253.60566 364.33594 255.11606 curveto
363.2552 256.61347 362.71484 258.68378 362.71484 261.327 curveto
362.71484 263.97024 363.2552 266.04706 364.33594 267.55747 curveto
365.42968 269.05487 366.92707 269.80356 368.82812 269.80356 curveto
370.72915 269.80356 372.22004 269.05487 373.30078 267.55747 curveto
374.39451 266.04706 374.94139 263.97024 374.94141 261.327 curveto
fill
grestore
gsave
0 0 0 setrgbcolor
newpath
384.62891 250.36997 moveto
388.22266 250.36997 lineto
388.22266 272.24497 lineto
384.62891 272.24497 lineto
384.62891 250.36997 lineto
384.62891 241.85434 moveto
388.22266 241.85434 lineto
388.22266 246.40512 lineto
384.62891 246.40512 lineto
384.62891 241.85434 lineto
fill
grestore
gsave
0 0 0 setrgbcolor
newpath
408.39844 253.72934 moveto
407.99478 253.49499 407.55207 253.32571 407.07031 253.22153 curveto
406.60155 253.10436 406.08072 253.04577 405.50781 253.04575 curveto
403.47655 253.04577 401.91405 253.70983 400.82031 255.03794 curveto
399.73958 256.35306 399.19921 258.24758 399.19922 260.72153 curveto
399.19922 272.24497 lineto
395.58594 272.24497 lineto
395.58594 250.36997 lineto
399.19922 250.36997 lineto
399.19922 253.7684 lineto
399.95442 252.4403 400.93749 251.45723 402.14844 250.81919 curveto
403.35936 250.16817 404.83072 249.84265 406.5625 249.84262 curveto
406.80988 249.84265 407.08332 249.86218 407.38281 249.90122 curveto
407.68228 249.92728 408.01431 249.97285 408.37891 250.03794 curveto
408.39844 253.72934 lineto
fill
grestore
gsave
0 0 0 setrgbcolor
newpath
412.20703 250.36997 moveto
415.80078 250.36997 lineto
415.80078 272.24497 lineto
412.20703 272.24497 lineto
412.20703 250.36997 lineto
412.20703 241.85434 moveto
415.80078 241.85434 lineto
415.80078 246.40512 lineto
412.20703 246.40512 lineto
412.20703 241.85434 lineto
fill
grestore
gsave
0 0 0 setrgbcolor
newpath
426.85547 244.15903 moveto
426.85547 250.36997 lineto
434.25781 250.36997 lineto
434.25781 253.16294 lineto
426.85547 253.16294 lineto
426.85547 265.03794 lineto
426.85546 266.82179 427.09635 267.96763 427.57812 268.47544 curveto
428.07291 268.98325 429.069 269.23716 430.56641 269.23715 curveto
434.25781 269.23715 lineto
434.25781 272.24497 lineto
430.56641 272.24497 lineto
427.79296 272.24497 425.8789 271.73064 424.82422 270.702 curveto
423.76953 269.66033 423.24218 267.77231 423.24219 265.03794 curveto
423.24219 253.16294 lineto
420.60547 253.16294 lineto
420.60547 250.36997 lineto
423.24219 250.36997 lineto
423.24219 244.15903 lineto
426.85547 244.15903 lineto
fill
grestore
gsave
0 0 0 setrgbcolor
newpath
fill
grestore
gsave
0 0 0 setrgbcolor
newpath
461.64062 246.97153 moveto
456.28906 261.48325 lineto
467.01172 261.48325 lineto
461.64062 246.97153 lineto
459.41406 243.08481 moveto
463.88672 243.08481 lineto
475 272.24497 lineto
470.89844 272.24497 lineto
468.24219 264.7645 lineto
455.09766 264.7645 lineto
452.44141 272.24497 lineto
448.28125 272.24497 lineto
459.41406 243.08481 lineto
fill
grestore
gsave
0 0 0 setrgbcolor
newpath
496.71875 244.04184 moveto
496.71875 247.8895 lineto
495.22133 247.17338 493.80858 246.63952 492.48047 246.28794 curveto
491.15233 245.9364 489.86978 245.76062 488.63281 245.76059 curveto
486.48436 245.76062 484.82421 246.17728 483.65234 247.01059 curveto
482.49348 247.84395 481.91406 249.02884 481.91406 250.56528 curveto
481.91406 251.85436 482.29817 252.83092 483.06641 253.49497 curveto
483.84765 254.14603 485.319 254.67337 487.48047 255.077 curveto
489.86328 255.56528 lineto
492.80597 256.12519 494.97394 257.11477 496.36719 258.53403 curveto
497.77342 259.94029 498.47654 261.82831 498.47656 264.19809 curveto
498.47654 267.02362 497.52602 269.16554 495.625 270.62387 curveto
493.73696 272.08221 490.96353 272.81137 487.30469 272.81137 curveto
485.92447 272.81137 484.45312 272.65512 482.89062 272.34262 curveto
481.34114 272.03012 479.73307 271.56788 478.06641 270.9559 curveto
478.06641 266.8934 lineto
479.66796 267.79185 481.23697 268.46893 482.77344 268.92465 curveto
484.30989 269.38039 485.8203 269.60825 487.30469 269.60825 curveto
489.55728 269.60825 491.29556 269.16554 492.51953 268.28012 curveto
493.74347 267.39471 494.35545 266.13169 494.35547 264.49106 curveto
494.35545 263.05878 493.91274 261.93899 493.02734 261.13169 curveto
492.15493 260.32441 490.71613 259.71894 488.71094 259.31528 curveto
486.30859 258.84653 lineto
483.36588 258.26061 481.23697 257.34264 479.92188 256.09262 curveto
478.60677 254.84264 477.94922 253.10436 477.94922 250.87778 curveto
477.94922 248.29968 478.85416 246.26843 480.66406 244.78403 curveto
482.48697 243.29968 484.99348 242.5575 488.18359 242.55747 curveto
489.55077 242.5575 490.94399 242.68119 492.36328 242.92856 curveto
493.78253 243.17599 495.23436 243.54708 496.71875 244.04184 curveto
fill
grestore
gsave
0 0 0 setrgbcolor
newpath
500.66406 243.08481 moveto
525.33203 243.08481 lineto
525.33203 246.40512 lineto
514.98047 246.40512 lineto
514.98047 272.24497 lineto
511.01562 272.24497 lineto
511.01562 246.40512 lineto
500.66406 246.40512 lineto
500.66406 243.08481 lineto
fill
grestore
gsave
0 0 0 setrgbcolor
newpath
163.96484 293.08481 moveto
167.91016 293.08481 lineto
167.91016 320.21372 lineto
167.91015 323.72934 167.23958 326.28142 165.89844 327.86997 curveto
164.57031 329.4585 162.42838 330.25277 159.47266 330.25278 curveto
157.96875 330.25278 lineto
157.96875 326.93247 lineto
159.19922 326.93247 lineto
160.94401 326.93246 162.17448 326.44418 162.89062 325.46762 curveto
163.60677 324.49106 163.96484 322.73976 163.96484 320.21372 curveto
163.96484 293.08481 lineto
fill
grestore
gsave
0 0 0 setrgbcolor
newpath
184.08203 302.8895 moveto
182.15494 302.88952 180.6315 303.64472 179.51172 305.15512 curveto
178.39192 306.65253 177.83203 308.70982 177.83203 311.327 curveto
177.83203 313.94419 178.38541 316.00799 179.49219 317.5184 curveto
180.61197 319.0158 182.14192 319.7645 184.08203 319.7645 curveto
185.99608 319.7645 187.51301 319.00929 188.63281 317.49887 curveto
189.75259 315.98846 190.31248 313.93117 190.3125 311.327 curveto
190.31248 308.73587 189.75259 306.68509 188.63281 305.17465 curveto
187.51301 303.65124 185.99608 302.88952 184.08203 302.8895 curveto
184.08203 299.84262 moveto
187.20702 299.84265 189.66144 300.85827 191.44531 302.8895 curveto
193.22915 304.92077 194.12107 307.73326 194.12109 311.327 curveto
194.12107 314.90773 193.22915 317.72023 191.44531 319.7645 curveto
189.66144 321.79575 187.20702 322.81137 184.08203 322.81137 curveto
180.944 322.81137 178.48307 321.79575 176.69922 319.7645 curveto
174.92838 317.72023 174.04297 314.90773 174.04297 311.327 curveto
174.04297 307.73326 174.92838 304.92077 176.69922 302.8895 curveto
178.48307 300.85827 180.944 299.84265 184.08203 299.84262 curveto
fill
grestore
gsave
0 0 0 setrgbcolor
newpath
200.05859 291.85434 moveto
203.65234 291.85434 lineto
203.65234 322.24497 lineto
200.05859 322.24497 lineto
200.05859 291.85434 lineto
fill
grestore
gsave
0 0 0 setrgbcolor
newpath
219.62891 302.8895 moveto
217.70181 302.88952 216.17838 303.64472 215.05859 305.15512 curveto
213.9388 306.65253 213.3789 308.70982 213.37891 311.327 curveto
213.3789 313.94419 213.93229 316.00799 215.03906 317.5184 curveto
216.15885 319.0158 217.68879 319.7645 219.62891 319.7645 curveto
221.54295 319.7645 223.05988 319.00929 224.17969 317.49887 curveto
225.29946 315.98846 225.85936 313.93117 225.85938 311.327 curveto
225.85936 308.73587 225.29946 306.68509 224.17969 305.17465 curveto
223.05988 303.65124 221.54295 302.88952 219.62891 302.8895 curveto
219.62891 299.84262 moveto
222.75389 299.84265 225.20832 300.85827 226.99219 302.8895 curveto
228.77602 304.92077 229.66795 307.73326 229.66797 311.327 curveto
229.66795 314.90773 228.77602 317.72023 226.99219 319.7645 curveto
225.20832 321.79575 222.75389 322.81137 219.62891 322.81137 curveto
216.49088 322.81137 214.02994 321.79575 212.24609 319.7645 curveto
210.47526 317.72023 209.58984 314.90773 209.58984 311.327 curveto
209.58984 307.73326 210.47526 304.92077 212.24609 302.8895 curveto
214.02994 300.85827 216.49088 299.84265 219.62891 299.84262 curveto
fill
grestore
gsave
0 0 0 setrgbcolor
newpath
250 311.05356 moveto
249.99998 308.44941 249.45962 306.43118 248.37891 304.99887 curveto
247.31118 303.5666 245.80728 302.85045 243.86719 302.85044 curveto
241.94009 302.85045 240.43619 303.5666 239.35547 304.99887 curveto
238.28775 306.43118 237.7539 308.44941 237.75391 311.05356 curveto
237.7539 313.64471 238.28775 315.65643 239.35547 317.08872 curveto
240.43619 318.52101 241.94009 319.23716 243.86719 319.23715 curveto
245.80728 319.23716 247.31118 318.52101 248.37891 317.08872 curveto
249.45962 315.65643 249.99998 313.64471 250 311.05356 curveto
253.59375 319.53012 moveto
253.59373 323.25408 252.76691 326.021 251.11328 327.8309 curveto
249.45962 329.65381 246.92707 330.56527 243.51562 330.56528 curveto
242.25259 330.56527 241.06119 330.46761 239.94141 330.27231 curveto
238.82161 330.09001 237.73437 329.80355 236.67969 329.41294 curveto
236.67969 325.91684 lineto
237.73437 326.48975 238.77603 326.91293 239.80469 327.18637 curveto
240.83332 327.4598 241.8815 327.59652 242.94922 327.59653 curveto
245.30598 327.59652 247.0703 326.97803 248.24219 325.74106 curveto
249.41404 324.5171 249.99998 322.66163 250 320.17465 curveto
250 318.39731 lineto
249.2578 319.68638 248.30728 320.64992 247.14844 321.28794 curveto
245.98957 321.92596 244.60285 322.24497 242.98828 322.24497 curveto
240.30598 322.24497 238.14452 321.22283 236.50391 319.17856 curveto
234.86328 317.13429 234.04297 314.42596 234.04297 311.05356 curveto
234.04297 307.66816 234.86328 304.95332 236.50391 302.90903 curveto
238.14452 300.86478 240.30598 299.84265 242.98828 299.84262 curveto
244.60285 299.84265 245.98957 300.16166 247.14844 300.79965 curveto
248.30728 301.4377 249.2578 302.40124 250 303.69028 curveto
250 300.36997 lineto
253.59375 300.36997 lineto
253.59375 319.53012 lineto
fill
grestore
gsave
0 0 0 setrgbcolor
newpath
fill
grestore
gsave
0 0 0 setrgbcolor
newpath
295.72266 295.3309 moveto
295.72266 299.49106 lineto
294.39451 298.25411 292.97524 297.32963 291.46484 296.71762 curveto
289.96743 296.10567 288.37238 295.79968 286.67969 295.79965 curveto
283.34634 295.79968 280.79426 296.82181 279.02344 298.86606 curveto
277.2526 300.89733 276.36718 303.84004 276.36719 307.69419 curveto
276.36718 311.53534 277.2526 314.47805 279.02344 316.52231 curveto
280.79426 318.55356 283.34634 319.56919 286.67969 319.56919 curveto
288.37238 319.56919 289.96743 319.2632 291.46484 318.65122 curveto
292.97524 318.03924 294.39451 317.11476 295.72266 315.87778 curveto
295.72266 319.99887 lineto
294.34242 320.93637 292.87758 321.6395 291.32812 322.10825 curveto
289.79165 322.577 288.16404 322.81137 286.44531 322.81137 curveto
282.03124 322.81137 278.55468 321.46372 276.01562 318.7684 curveto
273.47656 316.06008 272.20703 312.36867 272.20703 307.69419 curveto
272.20703 303.0067 273.47656 299.3153 276.01562 296.61997 curveto
278.55468 293.91166 282.03124 292.5575 286.44531 292.55747 curveto
288.19009 292.5575 289.83071 292.79187 291.36719 293.26059 curveto
292.91664 293.71635 294.36847 294.40645 295.72266 295.3309 curveto
fill
grestore
gsave
0 0 0 setrgbcolor
newpath
310.17578 302.8895 moveto
308.24869 302.88952 306.72525 303.64472 305.60547 305.15512 curveto
304.48567 306.65253 303.92578 308.70982 303.92578 311.327 curveto
303.92578 313.94419 304.47916 316.00799 305.58594 317.5184 curveto
306.70572 319.0158 308.23567 319.7645 310.17578 319.7645 curveto
312.08983 319.7645 313.60676 319.00929 314.72656 317.49887 curveto
315.84634 315.98846 316.40623 313.93117 316.40625 311.327 curveto
316.40623 308.73587 315.84634 306.68509 314.72656 305.17465 curveto
313.60676 303.65124 312.08983 302.88952 310.17578 302.8895 curveto
310.17578 299.84262 moveto
313.30077 299.84265 315.75519 300.85827 317.53906 302.8895 curveto
319.3229 304.92077 320.21482 307.73326 320.21484 311.327 curveto
320.21482 314.90773 319.3229 317.72023 317.53906 319.7645 curveto
315.75519 321.79575 313.30077 322.81137 310.17578 322.81137 curveto
307.03775 322.81137 304.57682 321.79575 302.79297 319.7645 curveto
301.02213 317.72023 300.13672 314.90773 300.13672 311.327 curveto
300.13672 307.73326 301.02213 304.92077 302.79297 302.8895 curveto
304.57682 300.85827 307.03775 299.84265 310.17578 299.84262 curveto
fill
grestore
gsave
0 0 0 setrgbcolor
newpath
344.33594 309.04184 moveto
344.33594 322.24497 lineto
340.74219 322.24497 lineto
340.74219 309.15903 lineto
340.74217 307.08873 340.33852 305.53925 339.53125 304.51059 curveto
338.72394 303.48196 337.51301 302.96764 335.89844 302.96762 curveto
333.95832 302.96764 332.42838 303.58613 331.30859 304.82309 curveto
330.18879 306.06009 329.6289 307.74628 329.62891 309.88169 curveto
329.62891 322.24497 lineto
326.01562 322.24497 lineto
326.01562 300.36997 lineto
329.62891 300.36997 lineto
329.62891 303.7684 lineto
330.48827 302.45332 331.49739 301.47025 332.65625 300.81919 curveto
333.82811 300.16817 335.17577 299.84265 336.69922 299.84262 curveto
339.21222 299.84265 341.11326 300.62389 342.40234 302.18637 curveto
343.69138 303.73587 344.33592 306.02102 344.33594 309.04184 curveto
fill
grestore
gsave
0 0 0 setrgbcolor
newpath
365.48828 301.0145 moveto
365.48828 304.41294 lineto
364.47264 303.89212 363.41795 303.5015 362.32422 303.24106 curveto
361.23046 302.98066 360.09764 302.85045 358.92578 302.85044 curveto
357.14192 302.85045 355.80077 303.12389 354.90234 303.67075 curveto
354.01692 304.21764 353.57421 305.03795 353.57422 306.13169 curveto
353.57421 306.96503 353.89322 307.62259 354.53125 308.10434 curveto
355.16926 308.57311 356.45181 309.02232 358.37891 309.452 curveto
359.60938 309.72544 lineto
362.16144 310.27232 363.97134 311.04706 365.03906 312.04965 curveto
366.11977 313.03925 366.66014 314.42596 366.66016 316.20981 curveto
366.66014 318.24106 365.85285 319.84914 364.23828 321.03403 curveto
362.6367 322.21892 360.42967 322.81137 357.61719 322.81137 curveto
356.4453 322.81137 355.22135 322.69418 353.94531 322.45981 curveto
352.68229 322.23846 351.34765 321.89991 349.94141 321.44419 curveto
349.94141 317.73325 lineto
351.26953 318.42336 352.57812 318.94419 353.86719 319.29575 curveto
355.15624 319.63429 356.43228 319.80356 357.69531 319.80356 curveto
359.38801 319.80356 360.69009 319.5171 361.60156 318.94419 curveto
362.51301 318.35825 362.96873 317.53794 362.96875 316.48325 curveto
362.96873 315.50669 362.6367 314.75799 361.97266 314.23715 curveto
361.3216 313.71633 359.8828 313.21503 357.65625 312.73325 curveto
356.40625 312.44028 lineto
354.17968 311.97154 352.57161 311.25539 351.58203 310.29184 curveto
350.59245 309.31529 350.09765 307.98066 350.09766 306.28794 curveto
350.09765 304.23066 350.82682 302.64212 352.28516 301.52231 curveto
353.74348 300.40254 355.81379 299.84265 358.49609 299.84262 curveto
359.82421 299.84265 361.07421 299.9403 362.24609 300.13559 curveto
363.41795 300.33093 364.49868 300.62389 365.48828 301.0145 curveto
fill
grestore
gsave
0 0 0 setrgbcolor
newpath
375.95703 294.15903 moveto
375.95703 300.36997 lineto
383.35938 300.36997 lineto
383.35938 303.16294 lineto
375.95703 303.16294 lineto
375.95703 315.03794 lineto
375.95702 316.82179 376.19791 317.96763 376.67969 318.47544 curveto
377.17447 318.98325 378.17056 319.23716 379.66797 319.23715 curveto
383.35938 319.23715 lineto
383.35938 322.24497 lineto
379.66797 322.24497 lineto
376.89452 322.24497 374.98046 321.73064 373.92578 320.702 curveto
372.87109 319.66033 372.34375 317.77231 372.34375 315.03794 curveto
372.34375 303.16294 lineto
369.70703 303.16294 lineto
369.70703 300.36997 lineto
372.34375 300.36997 lineto
372.34375 294.15903 lineto
375.95703 294.15903 lineto
fill
grestore
gsave
0 0 0 setrgbcolor
newpath
400.78125 303.72934 moveto
400.37759 303.49499 399.93488 303.32571 399.45312 303.22153 curveto
398.98436 303.10436 398.46353 303.04577 397.89062 303.04575 curveto
395.85936 303.04577 394.29687 303.70983 393.20312 305.03794 curveto
392.12239 306.35306 391.58202 308.24758 391.58203 310.72153 curveto
391.58203 322.24497 lineto
387.96875 322.24497 lineto
387.96875 300.36997 lineto
391.58203 300.36997 lineto
391.58203 303.7684 lineto
392.33723 302.4403 393.3203 301.45723 394.53125 300.81919 curveto
395.74218 300.16817 397.21353 299.84265 398.94531 299.84262 curveto
399.19269 299.84265 399.46613 299.86218 399.76562 299.90122 curveto
400.06509 299.92728 400.39712 299.97285 400.76172 300.03794 curveto
400.78125 303.72934 lineto
fill
grestore
gsave
0 0 0 setrgbcolor
newpath
404.21875 313.61215 moveto
404.21875 300.36997 lineto
407.8125 300.36997 lineto
407.8125 313.47544 lineto
407.81249 315.54575 408.21614 317.10174 409.02344 318.1434 curveto
409.83072 319.17205 411.04166 319.68638 412.65625 319.68637 curveto
414.59634 319.68638 416.12629 319.06789 417.24609 317.8309 curveto
418.37889 316.59393 418.94529 314.90773 418.94531 312.77231 curveto
418.94531 300.36997 lineto
422.53906 300.36997 lineto
422.53906 322.24497 lineto
418.94531 322.24497 lineto
418.94531 318.88559 lineto
418.0729 320.21372 417.05728 321.2033 415.89844 321.85434 curveto
414.75259 322.49236 413.41796 322.81137 411.89453 322.81137 curveto
409.3815 322.81137 407.47395 322.03012 406.17188 320.46762 curveto
404.86979 318.90513 404.21875 316.61997 404.21875 313.61215 curveto
fill
grestore
gsave
0 0 0 setrgbcolor
newpath
445.72266 301.20981 moveto
445.72266 304.56919 lineto
444.70701 304.00931 443.68488 303.59264 442.65625 303.31919 curveto
441.64061 303.03275 440.61196 302.88952 439.57031 302.8895 curveto
437.23957 302.88952 435.42968 303.6317 434.14062 305.11606 curveto
432.85156 306.58743 432.20703 308.65774 432.20703 311.327 curveto
432.20703 313.99628 432.85156 316.0731 434.14062 317.55747 curveto
435.42968 319.02882 437.23957 319.7645 439.57031 319.7645 curveto
440.61196 319.7645 441.64061 319.62778 442.65625 319.35434 curveto
443.68488 319.06789 444.70701 318.64471 445.72266 318.08481 curveto
445.72266 321.40512 lineto
444.72003 321.87387 443.67837 322.22544 442.59766 322.45981 curveto
441.52993 322.69418 440.39061 322.81137 439.17969 322.81137 curveto
435.88541 322.81137 433.26822 321.77622 431.32812 319.7059 curveto
429.38802 317.6356 428.41797 314.84263 428.41797 311.327 curveto
428.41797 307.7593 429.39453 304.95332 431.34766 302.90903 curveto
433.31379 300.86478 436.00259 299.84265 439.41406 299.84262 curveto
440.52082 299.84265 441.60155 299.95983 442.65625 300.19419 curveto
443.71092 300.41556 444.73305 300.7541 445.72266 301.20981 curveto
fill
grestore
gsave
0 0 0 setrgbcolor
newpath
455.48828 294.15903 moveto
455.48828 300.36997 lineto
462.89062 300.36997 lineto
462.89062 303.16294 lineto
455.48828 303.16294 lineto
455.48828 315.03794 lineto
455.48827 316.82179 455.72916 317.96763 456.21094 318.47544 curveto
456.70572 318.98325 457.70181 319.23716 459.19922 319.23715 curveto
462.89062 319.23715 lineto
462.89062 322.24497 lineto
459.19922 322.24497 lineto
456.42577 322.24497 454.51171 321.73064 453.45703 320.702 curveto
452.40234 319.66033 451.875 317.77231 451.875 315.03794 curveto
451.875 303.16294 lineto
449.23828 303.16294 lineto
449.23828 300.36997 lineto
451.875 300.36997 lineto
451.875 294.15903 lineto
455.48828 294.15903 lineto
fill
grestore
gsave
0 0 0 setrgbcolor
newpath
fill
grestore
gsave
0 0 0 setrgbcolor
newpath
476.48438 293.08481 moveto
501.15234 293.08481 lineto
501.15234 296.40512 lineto
490.80078 296.40512 lineto
490.80078 322.24497 lineto
486.83594 322.24497 lineto
486.83594 296.40512 lineto
476.48438 296.40512 lineto
476.48438 293.08481 lineto
fill
grestore
gsave
0 0 0 setrgbcolor
newpath
511.71875 303.72934 moveto
511.31509 303.49499 510.87238 303.32571 510.39062 303.22153 curveto
509.92186 303.10436 509.40103 303.04577 508.82812 303.04575 curveto
506.79686 303.04577 505.23437 303.70983 504.14062 305.03794 curveto
503.05989 306.35306 502.51952 308.24758 502.51953 310.72153 curveto
502.51953 322.24497 lineto
498.90625 322.24497 lineto
498.90625 300.36997 lineto
502.51953 300.36997 lineto
502.51953 303.7684 lineto
503.27473 302.4403 504.2578 301.45723 505.46875 300.81919 curveto
506.67968 300.16817 508.15103 299.84265 509.88281 299.84262 curveto
510.13019 299.84265 510.40363 299.86218 510.70312 299.90122 curveto
511.00259 299.92728 511.33462 299.97285 511.69922 300.03794 curveto
511.71875 303.72934 lineto
fill
grestore
gsave
0 0 0 setrgbcolor
newpath
533.37891 310.40903 moveto
533.37891 312.16684 lineto
516.85547 312.16684 lineto
517.01171 314.64081 517.7539 316.52883 519.08203 317.8309 curveto
520.42317 319.11997 522.28514 319.7645 524.66797 319.7645 curveto
526.04816 319.7645 527.3828 319.59523 528.67188 319.25669 curveto
529.97394 318.91815 531.263 318.41033 532.53906 317.73325 curveto
532.53906 321.13169 lineto
531.24998 321.67856 529.92837 322.09523 528.57422 322.38169 curveto
527.22004 322.66814 525.84634 322.81137 524.45312 322.81137 curveto
520.96353 322.81137 518.19661 321.79575 516.15234 319.7645 curveto
514.12109 317.73325 513.10547 314.98586 513.10547 311.52231 curveto
513.10547 307.9416 514.06901 305.10306 515.99609 303.00669 curveto
517.93619 300.89733 520.54687 299.84265 523.82812 299.84262 curveto
526.77082 299.84265 529.09503 300.79316 530.80078 302.69419 curveto
532.51951 304.58222 533.37888 307.15384 533.37891 310.40903 curveto
529.78516 309.35434 moveto
529.7591 307.38821 529.20571 305.8192 528.125 304.64731 curveto
527.05728 303.47545 525.63801 302.88952 523.86719 302.8895 curveto
521.86197 302.88952 520.2539 303.45592 519.04297 304.58872 curveto
517.84505 305.72155 517.15494 307.3166 516.97266 309.37387 curveto
529.78516 309.35434 lineto
fill
grestore
gsave
0 0 0 setrgbcolor
newpath
557.91016 310.40903 moveto
557.91016 312.16684 lineto
541.38672 312.16684 lineto
541.54296 314.64081 542.28515 316.52883 543.61328 317.8309 curveto
544.95442 319.11997 546.81639 319.7645 549.19922 319.7645 curveto
550.57941 319.7645 551.91405 319.59523 553.20312 319.25669 curveto
554.50519 318.91815 555.79425 318.41033 557.07031 317.73325 curveto
557.07031 321.13169 lineto
555.78123 321.67856 554.45962 322.09523 553.10547 322.38169 curveto
551.75129 322.66814 550.37759 322.81137 548.98438 322.81137 curveto
545.49478 322.81137 542.72786 321.79575 540.68359 319.7645 curveto
538.65234 317.73325 537.63672 314.98586 537.63672 311.52231 curveto
537.63672 307.9416 538.60026 305.10306 540.52734 303.00669 curveto
542.46744 300.89733 545.07812 299.84265 548.35938 299.84262 curveto
551.30207 299.84265 553.62628 300.79316 555.33203 302.69419 curveto
557.05076 304.58222 557.91013 307.15384 557.91016 310.40903 curveto
554.31641 309.35434 moveto
554.29035 307.38821 553.73696 305.8192 552.65625 304.64731 curveto
551.58853 303.47545 550.16926 302.88952 548.39844 302.8895 curveto
546.39322 302.88952 544.78515 303.45592 543.57422 304.58872 curveto
542.3763 305.72155 541.68619 307.3166 541.50391 309.37387 curveto
554.31641 309.35434 lineto
fill
grestore
gsave
0 0 0 setrgbcolor
newpath
318.45703 343.08481 moveto
336.89453 343.08481 lineto
336.89453 346.40512 lineto
322.40234 346.40512 lineto
322.40234 355.03794 lineto
336.28906 355.03794 lineto
336.28906 358.35825 lineto
322.40234 358.35825 lineto
322.40234 368.92465 lineto
337.24609 368.92465 lineto
337.24609 372.24497 lineto
318.45703 372.24497 lineto
318.45703 343.08481 lineto
fill
grestore
gsave
0 0 0 setrgbcolor
newpath
360.56641 354.56919 moveto
361.46482 352.95462 362.53904 351.76322 363.78906 350.99497 curveto
365.03904 350.22676 366.51039 349.84265 368.20312 349.84262 curveto
370.48174 349.84265 372.23955 350.64343 373.47656 352.24497 curveto
374.71351 353.83353 375.332 356.09915 375.33203 359.04184 curveto
375.33203 372.24497 lineto
371.71875 372.24497 lineto
371.71875 359.15903 lineto
371.71872 357.06269 371.34762 355.5067 370.60547 354.49106 curveto
369.86325 353.47545 368.73044 352.96764 367.20703 352.96762 curveto
365.34503 352.96764 363.87367 353.58613 362.79297 354.82309 curveto
361.71222 356.06009 361.17185 357.74628 361.17188 359.88169 curveto
361.17188 372.24497 lineto
357.55859 372.24497 lineto
357.55859 359.15903 lineto
357.55858 357.04967 357.18748 355.49368 356.44531 354.49106 curveto
355.70311 353.47545 354.55728 352.96764 353.00781 352.96762 curveto
351.17186 352.96764 349.71353 353.59264 348.63281 354.84262 curveto
347.55208 356.07962 347.01171 357.7593 347.01172 359.88169 curveto
347.01172 372.24497 lineto
343.39844 372.24497 lineto
343.39844 350.36997 lineto
347.01172 350.36997 lineto
347.01172 353.7684 lineto
347.83202 352.42728 348.8151 351.4377 349.96094 350.79965 curveto
351.10676 350.16166 352.46744 349.84265 354.04297 349.84262 curveto
355.63149 349.84265 356.97915 350.24629 358.08594 351.05356 curveto
359.20571 351.86087 360.03253 353.03275 360.56641 354.56919 curveto
fill
grestore
gsave
0 0 0 setrgbcolor
newpath
382.44141 350.36997 moveto
386.03516 350.36997 lineto
386.03516 372.24497 lineto
382.44141 372.24497 lineto
382.44141 350.36997 lineto
382.44141 341.85434 moveto
386.03516 341.85434 lineto
386.03516 346.40512 lineto
382.44141 346.40512 lineto
382.44141 341.85434 lineto
fill
grestore
gsave
0 0 0 setrgbcolor
newpath
397.08984 344.15903 moveto
397.08984 350.36997 lineto
404.49219 350.36997 lineto
404.49219 353.16294 lineto
397.08984 353.16294 lineto
397.08984 365.03794 lineto
397.08984 366.82179 397.33072 367.96763 397.8125 368.47544 curveto
398.30728 368.98325 399.30338 369.23716 400.80078 369.23715 curveto
404.49219 369.23715 lineto
404.49219 372.24497 lineto
400.80078 372.24497 lineto
398.02734 372.24497 396.11327 371.73064 395.05859 370.702 curveto
394.0039 369.66033 393.47656 367.77231 393.47656 365.03794 curveto
393.47656 353.16294 lineto
390.83984 353.16294 lineto
390.83984 350.36997 lineto
393.47656 350.36997 lineto
393.47656 344.15903 lineto
397.08984 344.15903 lineto
fill
grestore
gsave
0 0 0 setrgbcolor
newpath
297.59766 393.08481 moveto
301.54297 393.08481 lineto
301.54297 420.21372 lineto
301.54296 423.72934 300.87239 426.28142 299.53125 427.86997 curveto
298.20312 429.4585 296.0612 430.25277 293.10547 430.25278 curveto
291.60156 430.25278 lineto
291.60156 426.93247 lineto
292.83203 426.93247 lineto
294.57682 426.93246 295.80729 426.44418 296.52344 425.46762 curveto
297.23958 424.49106 297.59765 422.73976 297.59766 420.21372 curveto
297.59766 393.08481 lineto
fill
grestore
gsave
0 0 0 setrgbcolor
newpath
319.17969 411.24887 moveto
316.27603 411.24888 314.26431 411.58091 313.14453 412.24497 curveto
312.02473 412.90904 311.46484 414.04185 311.46484 415.6434 curveto
311.46484 416.91945 311.8815 417.93507 312.71484 418.69028 curveto
313.56119 419.43247 314.70702 419.80356 316.15234 419.80356 curveto
318.14452 419.80356 319.73957 419.10044 320.9375 417.69419 curveto
322.14842 416.27492 322.75389 414.39341 322.75391 412.04965 curveto
322.75391 411.24887 lineto
319.17969 411.24887 lineto
326.34766 409.7645 moveto
326.34766 422.24497 lineto
322.75391 422.24497 lineto
322.75391 418.92465 lineto
321.93358 420.25278 320.91144 421.23585 319.6875 421.87387 curveto
318.46353 422.49887 316.96613 422.81137 315.19531 422.81137 curveto
312.95572 422.81137 311.17187 422.18637 309.84375 420.93637 curveto
308.52864 419.67335 307.87109 417.98716 307.87109 415.87778 curveto
307.87109 413.41685 308.6914 411.56138 310.33203 410.31137 curveto
311.98567 409.06139 314.44661 408.43639 317.71484 408.43637 curveto
322.75391 408.43637 lineto
322.75391 408.08481 lineto
322.75389 406.43118 322.20701 405.15514 321.11328 404.25669 curveto
320.03254 403.34525 318.5091 402.88952 316.54297 402.8895 curveto
315.29296 402.88952 314.07551 403.03926 312.89062 403.33872 curveto
311.70572 403.63821 310.5664 404.08743 309.47266 404.68637 curveto
309.47266 401.36606 lineto
310.78776 400.85827 312.0638 400.48067 313.30078 400.23325 curveto
314.53775 399.97285 315.74218 399.84265 316.91406 399.84262 curveto
320.07811 399.84265 322.44139 400.66296 324.00391 402.30356 curveto
325.56639 403.9442 326.34764 406.43118 326.34766 409.7645 curveto
fill
grestore
gsave
0 0 0 setrgbcolor
newpath
347.79297 401.0145 moveto
347.79297 404.41294 lineto
346.77733 403.89212 345.72264 403.5015 344.62891 403.24106 curveto
343.53514 402.98066 342.40233 402.85045 341.23047 402.85044 curveto
339.44661 402.85045 338.10546 403.12389 337.20703 403.67075 curveto
336.32161 404.21764 335.8789 405.03795 335.87891 406.13169 curveto
335.8789 406.96503 336.19791 407.62259 336.83594 408.10434 curveto
337.47395 408.57311 338.7565 409.02232 340.68359 409.452 curveto
341.91406 409.72544 lineto
344.46613 410.27232 346.27603 411.04706 347.34375 412.04965 curveto
348.42446 413.03925 348.96482 414.42596 348.96484 416.20981 curveto
348.96482 418.24106 348.15753 419.84914 346.54297 421.03403 curveto
344.94139 422.21892 342.73436 422.81137 339.92188 422.81137 curveto
338.74999 422.81137 337.52603 422.69418 336.25 422.45981 curveto
334.98697 422.23846 333.65234 421.89991 332.24609 421.44419 curveto
332.24609 417.73325 lineto
333.57422 418.42336 334.88281 418.94419 336.17188 419.29575 curveto
337.46093 419.63429 338.73697 419.80356 340 419.80356 curveto
341.6927 419.80356 342.99478 419.5171 343.90625 418.94419 curveto
344.81769 418.35825 345.27342 417.53794 345.27344 416.48325 curveto
345.27342 415.50669 344.94139 414.75799 344.27734 414.23715 curveto
343.62629 413.71633 342.18749 413.21503 339.96094 412.73325 curveto
338.71094 412.44028 lineto
336.48437 411.97154 334.8763 411.25539 333.88672 410.29184 curveto
332.89713 409.31529 332.40234 407.98066 332.40234 406.28794 curveto
332.40234 404.23066 333.13151 402.64212 334.58984 401.52231 curveto
336.04817 400.40254 338.11848 399.84265 340.80078 399.84262 curveto
342.12889 399.84265 343.37889 399.9403 344.55078 400.13559 curveto
345.72264 400.33093 346.80337 400.62389 347.79297 401.0145 curveto
fill
grestore
gsave
0 0 0 setrgbcolor
newpath
371.73828 404.56919 moveto
372.6367 402.95462 373.71091 401.76322 374.96094 400.99497 curveto
376.21091 400.22676 377.68226 399.84265 379.375 399.84262 curveto
381.65362 399.84265 383.41143 400.64343 384.64844 402.24497 curveto
385.88538 403.83353 386.50387 406.09915 386.50391 409.04184 curveto
386.50391 422.24497 lineto
382.89062 422.24497 lineto
382.89062 409.15903 lineto
382.89059 407.06269 382.5195 405.5067 381.77734 404.49106 curveto
381.03513 403.47545 379.90231 402.96764 378.37891 402.96762 curveto
376.5169 402.96764 375.04555 403.58613 373.96484 404.82309 curveto
372.88409 406.06009 372.34373 407.74628 372.34375 409.88169 curveto
372.34375 422.24497 lineto
368.73047 422.24497 lineto
368.73047 409.15903 lineto
368.73045 407.04967 368.35936 405.49368 367.61719 404.49106 curveto
366.87498 403.47545 365.72915 402.96764 364.17969 402.96762 curveto
362.34374 402.96764 360.88541 403.59264 359.80469 404.84262 curveto
358.72395 406.07962 358.18359 407.7593 358.18359 409.88169 curveto
358.18359 422.24497 lineto
354.57031 422.24497 lineto
354.57031 400.36997 lineto
358.18359 400.36997 lineto
358.18359 403.7684 lineto
359.0039 402.42728 359.98697 401.4377 361.13281 400.79965 curveto
362.27863 400.16166 363.63931 399.84265 365.21484 399.84262 curveto
366.80337 399.84265 368.15102 400.24629 369.25781 401.05356 curveto
370.37758 401.86087 371.20441 403.03275 371.73828 404.56919 curveto
fill
grestore
gsave
0 0 0 setrgbcolor
newpath
393.61328 400.36997 moveto
397.20703 400.36997 lineto
397.20703 422.24497 lineto
393.61328 422.24497 lineto
393.61328 400.36997 lineto
393.61328 391.85434 moveto
397.20703 391.85434 lineto
397.20703 396.40512 lineto
393.61328 396.40512 lineto
393.61328 391.85434 lineto
fill
grestore
gsave
0 0 0 setrgbcolor
newpath
422.89062 409.04184 moveto
422.89062 422.24497 lineto
419.29688 422.24497 lineto
419.29688 409.15903 lineto
419.29686 407.08873 418.89321 405.53925 418.08594 404.51059 curveto
417.27863 403.48196 416.06769 402.96764 414.45312 402.96762 curveto
412.51301 402.96764 410.98306 403.58613 409.86328 404.82309 curveto
408.74348 406.06009 408.18359 407.74628 408.18359 409.88169 curveto
408.18359 422.24497 lineto
404.57031 422.24497 lineto
404.57031 400.36997 lineto
408.18359 400.36997 lineto
408.18359 403.7684 lineto
409.04296 402.45332 410.05207 401.47025 411.21094 400.81919 curveto
412.3828 400.16817 413.73046 399.84265 415.25391 399.84262 curveto
417.76691 399.84265 419.66795 400.62389 420.95703 402.18637 curveto
422.24607 403.73587 422.8906 406.02102 422.89062 409.04184 curveto
fill
grestore
gsave
0 0 0 setrgbcolor
newpath
221.38672 443.08481 moveto
225.33203 443.08481 lineto
225.33203 470.21372 lineto
225.33202 473.72934 224.66145 476.28142 223.32031 477.86997 curveto
221.99218 479.4585 219.85026 480.25277 216.89453 480.25278 curveto
215.39062 480.25278 lineto
215.39062 476.93247 lineto
216.62109 476.93247 lineto
218.36588 476.93246 219.59635 476.44418 220.3125 475.46762 curveto
221.02864 474.49106 221.38671 472.73976 221.38672 470.21372 curveto
221.38672 443.08481 lineto
fill
grestore
gsave
0 0 0 setrgbcolor
newpath
242.96875 461.24887 moveto
240.06509 461.24888 238.05338 461.58091 236.93359 462.24497 curveto
235.8138 462.90904 235.2539 464.04185 235.25391 465.6434 curveto
235.2539 466.91945 235.67057 467.93507 236.50391 468.69028 curveto
237.35025 469.43247 238.49608 469.80356 239.94141 469.80356 curveto
241.93358 469.80356 243.52863 469.10044 244.72656 467.69419 curveto
245.93748 466.27492 246.54295 464.39341 246.54297 462.04965 curveto
246.54297 461.24887 lineto
242.96875 461.24887 lineto
250.13672 459.7645 moveto
250.13672 472.24497 lineto
246.54297 472.24497 lineto
246.54297 468.92465 lineto
245.72264 470.25278 244.70051 471.23585 243.47656 471.87387 curveto
242.25259 472.49887 240.7552 472.81137 238.98438 472.81137 curveto
236.74478 472.81137 234.96093 472.18637 233.63281 470.93637 curveto
232.31771 469.67335 231.66015 467.98716 231.66016 465.87778 curveto
231.66015 463.41685 232.48047 461.56138 234.12109 460.31137 curveto
235.77473 459.06139 238.23567 458.43639 241.50391 458.43637 curveto
246.54297 458.43637 lineto
246.54297 458.08481 lineto
246.54295 456.43118 245.99608 455.15514 244.90234 454.25669 curveto
243.8216 453.34525 242.29816 452.88952 240.33203 452.8895 curveto
239.08202 452.88952 237.86457 453.03926 236.67969 453.33872 curveto
235.49479 453.63821 234.35546 454.08743 233.26172 454.68637 curveto
233.26172 451.36606 lineto
234.57682 450.85827 235.85286 450.48067 237.08984 450.23325 curveto
238.32681 449.97285 239.53124 449.84265 240.70312 449.84262 curveto
243.86717 449.84265 246.23045 450.66296 247.79297 452.30356 curveto
249.35545 453.9442 250.1367 456.43118 250.13672 459.7645 curveto
fill
grestore
gsave
0 0 0 setrgbcolor
newpath
255.05859 450.36997 moveto
258.86719 450.36997 lineto
265.70312 468.72934 lineto
272.53906 450.36997 lineto
276.34766 450.36997 lineto
268.14453 472.24497 lineto
263.26172 472.24497 lineto
255.05859 450.36997 lineto
fill
grestore
gsave
0 0 0 setrgbcolor
newpath
291.25 461.24887 moveto
288.34634 461.24888 286.33463 461.58091 285.21484 462.24497 curveto
284.09505 462.90904 283.53515 464.04185 283.53516 465.6434 curveto
283.53515 466.91945 283.95182 467.93507 284.78516 468.69028 curveto
285.6315 469.43247 286.77733 469.80356 288.22266 469.80356 curveto
290.21483 469.80356 291.80988 469.10044 293.00781 467.69419 curveto
294.21873 466.27492 294.8242 464.39341 294.82422 462.04965 curveto
294.82422 461.24887 lineto
291.25 461.24887 lineto
298.41797 459.7645 moveto
298.41797 472.24497 lineto
294.82422 472.24497 lineto
294.82422 468.92465 lineto
294.00389 470.25278 292.98176 471.23585 291.75781 471.87387 curveto
290.53384 472.49887 289.03645 472.81137 287.26562 472.81137 curveto
285.02603 472.81137 283.24218 472.18637 281.91406 470.93637 curveto
280.59896 469.67335 279.9414 467.98716 279.94141 465.87778 curveto
279.9414 463.41685 280.76172 461.56138 282.40234 460.31137 curveto
284.05598 459.06139 286.51692 458.43639 289.78516 458.43637 curveto
294.82422 458.43637 lineto
294.82422 458.08481 lineto
294.8242 456.43118 294.27733 455.15514 293.18359 454.25669 curveto
292.10285 453.34525 290.57941 452.88952 288.61328 452.8895 curveto
287.36327 452.88952 286.14582 453.03926 284.96094 453.33872 curveto
283.77604 453.63821 282.63671 454.08743 281.54297 454.68637 curveto
281.54297 451.36606 lineto
282.85807 450.85827 284.13411 450.48067 285.37109 450.23325 curveto
286.60806 449.97285 287.81249 449.84265 288.98438 449.84262 curveto
292.14842 449.84265 294.5117 450.66296 296.07422 452.30356 curveto
297.6367 453.9442 298.41795 456.43118 298.41797 459.7645 curveto
fill
grestore
gsave
0 0 0 setrgbcolor
newpath
fill
grestore
gsave
0 0 0 setrgbcolor
newpath
322.75391 458.31919 moveto
322.75391 469.00278 lineto
329.08203 469.00278 lineto
331.20441 469.00278 332.77342 468.56658 333.78906 467.69419 curveto
334.81769 466.80877 335.33201 465.46112 335.33203 463.65122 curveto
335.33201 461.82831 334.81769 460.48717 333.78906 459.62778 curveto
332.77342 458.7554 331.20441 458.3192 329.08203 458.31919 curveto
322.75391 458.31919 lineto
322.75391 446.327 moveto
322.75391 455.11606 lineto
328.59375 455.11606 lineto
330.52082 455.11608 331.95311 454.758 332.89062 454.04184 curveto
333.84113 453.31269 334.31639 452.20592 334.31641 450.72153 curveto
334.31639 449.2502 333.84113 448.14994 332.89062 447.42075 curveto
331.95311 446.69161 330.52082 446.32702 328.59375 446.327 curveto
322.75391 446.327 lineto
318.80859 443.08481 moveto
328.88672 443.08481 lineto
331.89451 443.08484 334.21222 443.70984 335.83984 444.95981 curveto
337.46743 446.20984 338.28123 447.98718 338.28125 450.29184 curveto
338.28123 452.07572 337.86456 453.49499 337.03125 454.54965 curveto
336.1979 455.60436 334.97394 456.26191 333.35938 456.52231 curveto
335.29946 456.93899 336.80336 457.81139 337.87109 459.1395 curveto
338.9518 460.45461 339.49216 462.10175 339.49219 464.0809 curveto
339.49216 466.68508 338.60675 468.69679 336.83594 470.11606 curveto
335.06508 471.53533 332.54556 472.24497 329.27734 472.24497 curveto
318.80859 472.24497 lineto
318.80859 443.08481 lineto
fill
grestore
gsave
0 0 0 setrgbcolor
newpath
355.17578 474.27622 moveto
354.16014 476.88038 353.17056 478.5796 352.20703 479.37387 curveto
351.24348 480.16814 349.95442 480.56527 348.33984 480.56528 curveto
345.46875 480.56528 lineto
345.46875 477.55747 lineto
347.57812 477.55747 lineto
348.5677 477.55746 349.33593 477.32309 349.88281 476.85434 curveto
350.42968 476.38559 351.03515 475.27882 351.69922 473.53403 curveto
352.34375 471.8934 lineto
343.49609 450.36997 lineto
347.30469 450.36997 lineto
354.14062 467.47934 lineto
360.97656 450.36997 lineto
364.78516 450.36997 lineto
355.17578 474.27622 lineto
fill
grestore
gsave
0 0 0 setrgbcolor
newpath
373.30078 444.15903 moveto
373.30078 450.36997 lineto
380.70312 450.36997 lineto
380.70312 453.16294 lineto
373.30078 453.16294 lineto
373.30078 465.03794 lineto
373.30077 466.82179 373.54166 467.96763 374.02344 468.47544 curveto
374.51822 468.98325 375.51431 469.23716 377.01172 469.23715 curveto
380.70312 469.23715 lineto
380.70312 472.24497 lineto
377.01172 472.24497 lineto
374.23827 472.24497 372.32421 471.73064 371.26953 470.702 curveto
370.21484 469.66033 369.6875 467.77231 369.6875 465.03794 curveto
369.6875 453.16294 lineto
367.05078 453.16294 lineto
367.05078 450.36997 lineto
369.6875 450.36997 lineto
369.6875 444.15903 lineto
373.30078 444.15903 lineto
fill
grestore
gsave
0 0 0 setrgbcolor
newpath
404.16016 460.40903 moveto
404.16016 462.16684 lineto
387.63672 462.16684 lineto
387.79296 464.64081 388.53515 466.52883 389.86328 467.8309 curveto
391.20442 469.11997 393.06639 469.7645 395.44922 469.7645 curveto
396.82941 469.7645 398.16405 469.59523 399.45312 469.25669 curveto
400.75519 468.91815 402.04425 468.41033 403.32031 467.73325 curveto
403.32031 471.13169 lineto
402.03123 471.67856 400.70962 472.09523 399.35547 472.38169 curveto
398.00129 472.66814 396.62759 472.81137 395.23438 472.81137 curveto
391.74478 472.81137 388.97786 471.79575 386.93359 469.7645 curveto
384.90234 467.73325 383.88672 464.98586 383.88672 461.52231 curveto
383.88672 457.9416 384.85026 455.10306 386.77734 453.00669 curveto
388.71744 450.89733 391.32812 449.84265 394.60938 449.84262 curveto
397.55207 449.84265 399.87628 450.79316 401.58203 452.69419 curveto
403.30076 454.58222 404.16013 457.15384 404.16016 460.40903 curveto
400.56641 459.35434 moveto
400.54035 457.38821 399.98696 455.8192 398.90625 454.64731 curveto
397.83853 453.47545 396.41926 452.88952 394.64844 452.8895 curveto
392.64322 452.88952 391.03515 453.45592 389.82422 454.58872 curveto
388.6263 455.72155 387.93619 457.3166 387.75391 459.37387 curveto
400.56641 459.35434 lineto
fill
grestore
gsave
0 0 0 setrgbcolor
newpath
425.72266 451.20981 moveto
425.72266 454.56919 lineto
424.70701 454.00931 423.68488 453.59264 422.65625 453.31919 curveto
421.64061 453.03275 420.61196 452.88952 419.57031 452.8895 curveto
417.23957 452.88952 415.42968 453.6317 414.14062 455.11606 curveto
412.85156 456.58743 412.20703 458.65774 412.20703 461.327 curveto
412.20703 463.99628 412.85156 466.0731 414.14062 467.55747 curveto
415.42968 469.02882 417.23957 469.7645 419.57031 469.7645 curveto
420.61196 469.7645 421.64061 469.62778 422.65625 469.35434 curveto
423.68488 469.06789 424.70701 468.64471 425.72266 468.08481 curveto
425.72266 471.40512 lineto
424.72003 471.87387 423.67837 472.22544 422.59766 472.45981 curveto
421.52993 472.69418 420.39061 472.81137 419.17969 472.81137 curveto
415.88541 472.81137 413.26822 471.77622 411.32812 469.7059 curveto
409.38802 467.6356 408.41797 464.84263 408.41797 461.327 curveto
408.41797 457.7593 409.39453 454.95332 411.34766 452.90903 curveto
413.31379 450.86478 416.00259 449.84265 419.41406 449.84262 curveto
420.52082 449.84265 421.60155 449.95983 422.65625 450.19419 curveto
423.71092 450.41556 424.73305 450.7541 425.72266 451.20981 curveto
fill
grestore
gsave
0 0 0 setrgbcolor
newpath
440.41016 452.8895 moveto
438.48306 452.88952 436.95963 453.64472 435.83984 455.15512 curveto
434.72005 456.65253 434.16015 458.70982 434.16016 461.327 curveto
434.16015 463.94419 434.71354 466.00799 435.82031 467.5184 curveto
436.9401 469.0158 438.47004 469.7645 440.41016 469.7645 curveto
442.3242 469.7645 443.84113 469.00929 444.96094 467.49887 curveto
446.08071 465.98846 446.64061 463.93117 446.64062 461.327 curveto
446.64061 458.73587 446.08071 456.68509 444.96094 455.17465 curveto
443.84113 453.65124 442.3242 452.88952 440.41016 452.8895 curveto
440.41016 449.84262 moveto
443.53514 449.84265 445.98957 450.85827 447.77344 452.8895 curveto
449.55727 454.92077 450.4492 457.73326 450.44922 461.327 curveto
450.4492 464.90773 449.55727 467.72023 447.77344 469.7645 curveto
445.98957 471.79575 443.53514 472.81137 440.41016 472.81137 curveto
437.27213 472.81137 434.81119 471.79575 433.02734 469.7645 curveto
431.25651 467.72023 430.37109 464.90773 430.37109 461.327 curveto
430.37109 457.73326 431.25651 454.92077 433.02734 452.8895 curveto
434.81119 450.85827 437.27213 449.84265 440.41016 449.84262 curveto
fill
grestore
gsave
0 0 0 setrgbcolor
newpath
470.78125 453.69028 moveto
470.78125 441.85434 lineto
474.375 441.85434 lineto
474.375 472.24497 lineto
470.78125 472.24497 lineto
470.78125 468.96372 lineto
470.02602 470.2658 469.06899 471.23585 467.91016 471.87387 curveto
466.76431 472.49887 465.3841 472.81137 463.76953 472.81137 curveto
461.12629 472.81137 458.97135 471.75669 457.30469 469.64731 curveto
455.65104 467.53794 454.82422 464.76451 454.82422 461.327 curveto
454.82422 457.88951 455.65104 455.11608 457.30469 453.00669 curveto
458.97135 450.89733 461.12629 449.84265 463.76953 449.84262 curveto
465.3841 449.84265 466.76431 450.16166 467.91016 450.79965 curveto
469.06899 451.42467 470.02602 452.38822 470.78125 453.69028 curveto
458.53516 461.327 moveto
458.53515 463.97024 459.07551 466.04706 460.15625 467.55747 curveto
461.24999 469.05487 462.74739 469.80356 464.64844 469.80356 curveto
466.54947 469.80356 468.04686 469.05487 469.14062 467.55747 curveto
470.23436 466.04706 470.78123 463.97024 470.78125 461.327 curveto
470.78123 458.68378 470.23436 456.61347 469.14062 455.11606 curveto
468.04686 453.60566 466.54947 452.85045 464.64844 452.85044 curveto
462.74739 452.85045 461.24999 453.60566 460.15625 455.11606 curveto
459.07551 456.61347 458.53515 458.68378 458.53516 461.327 curveto
fill
grestore
gsave
0 0 0 setrgbcolor
newpath
500.48828 460.40903 moveto
500.48828 462.16684 lineto
483.96484 462.16684 lineto
484.12109 464.64081 484.86327 466.52883 486.19141 467.8309 curveto
487.53254 469.11997 489.39452 469.7645 491.77734 469.7645 curveto
493.15754 469.7645 494.49217 469.59523 495.78125 469.25669 curveto
497.08331 468.91815 498.37238 468.41033 499.64844 467.73325 curveto
499.64844 471.13169 lineto
498.35935 471.67856 497.03774 472.09523 495.68359 472.38169 curveto
494.32941 472.66814 492.95571 472.81137 491.5625 472.81137 curveto
488.07291 472.81137 485.30598 471.79575 483.26172 469.7645 curveto
481.23047 467.73325 480.21484 464.98586 480.21484 461.52231 curveto
480.21484 457.9416 481.17838 455.10306 483.10547 453.00669 curveto
485.04557 450.89733 487.65624 449.84265 490.9375 449.84262 curveto
493.88019 449.84265 496.20441 450.79316 497.91016 452.69419 curveto
499.62888 454.58222 500.48826 457.15384 500.48828 460.40903 curveto
496.89453 459.35434 moveto
496.86847 457.38821 496.31509 455.8192 495.23438 454.64731 curveto
494.16665 453.47545 492.74738 452.88952 490.97656 452.8895 curveto
488.97134 452.88952 487.36327 453.45592 486.15234 454.58872 curveto
484.95442 455.72155 484.26432 457.3166 484.08203 459.37387 curveto
496.89453 459.35434 lineto
fill
grestore
grestore
grestore
grestore
showpage
%%EOF
