%!PS-Adobe-3.0 EPSF-3.0
%%Creator: inkscape 0.46
%%Pages: 1
%%Orientation: Portrait
%%BoundingBox: 0 0 246 387
%%HiResBoundingBox: -3.7747583e-16 6.75e-06 245.49693 386.27422
%%EndComments
%%Page: 1 1
0 387 translate
0.8 -0.8 scale
0 0 0 setrgbcolor
[] 0 setdash
1 setlinewidth
0 setlinejoin
0 setlinecap
gsave [1 0 0 1 0 0] concat
gsave [1 0 0 1 -24.794424 -52.821315] concat
gsave
1 0 0 setrgbcolor
newpath
66.141655 152.2852 moveto
66.141655 153.96489 lineto
65.633833 153.68495 65.122766 153.47662 64.608452 153.33989 curveto
64.100632 153.19667 63.586309 153.12506 63.065483 153.12505 curveto
61.900113 153.12506 60.995166 153.49615 60.350639 154.23833 curveto
59.706105 154.97401 59.383839 156.00917 59.383842 157.3438 curveto
59.383839 158.67844 59.706105 159.71685 60.350639 160.45903 curveto
60.995166 161.19471 61.900113 161.56255 63.065483 161.56255 curveto
63.586309 161.56255 64.100632 161.49419 64.608452 161.35747 curveto
65.122766 161.21424 65.633833 161.00265 66.141655 160.7227 curveto
66.141655 162.38286 lineto
65.640344 162.61723 65.119511 162.79301 64.579155 162.9102 curveto
64.045293 163.02739 63.475632 163.08598 62.870171 163.08598 curveto
61.22303 163.08598 59.914438 162.56841 58.944389 161.53325 curveto
57.974336 160.49809 57.48931 159.10161 57.489311 157.3438 curveto
57.48931 155.55995 57.977591 154.15696 58.954155 153.13481 curveto
59.937224 152.11269 61.281624 151.60162 62.987358 151.60161 curveto
63.540736 151.60162 64.0811 151.66021 64.608452 151.77739 curveto
65.135787 151.88808 65.646854 152.05735 66.141655 152.2852 curveto
fill
grestore
gsave
1 0 0 setrgbcolor
newpath
73.485405 153.12505 moveto
72.521858 153.12506 71.76014 153.50266 71.200249 154.25786 curveto
70.64035 155.00656 70.360402 156.03521 70.360405 157.3438 curveto
70.360402 158.65239 70.637094 159.68429 71.190483 160.4395 curveto
71.750375 161.1882 72.515348 161.56255 73.485405 161.56255 curveto
74.442429 161.56255 75.200892 161.18494 75.760796 160.42973 curveto
76.320682 159.67453 76.60063 158.64588 76.600639 157.3438 curveto
76.60063 156.04823 76.320682 155.02284 75.760796 154.26762 curveto
75.200892 153.50591 74.442429 153.12506 73.485405 153.12505 curveto
73.485405 151.60161 moveto
75.047897 151.60162 76.27511 152.10943 77.167046 153.12505 curveto
78.058962 154.14068 78.504925 155.54693 78.504936 157.3438 curveto
78.504925 159.13416 78.058962 160.54041 77.167046 161.56255 curveto
76.27511 162.57817 75.047897 163.08598 73.485405 163.08598 curveto
71.91639 163.08598 70.685922 162.57817 69.793999 161.56255 curveto
68.908581 160.54041 68.465873 159.13416 68.465874 157.3438 curveto
68.465873 155.54693 68.908581 154.14068 69.793999 153.12505 curveto
70.685922 152.10943 71.91639 151.60162 73.485405 151.60161 curveto
fill
grestore
gsave
1 0 0 setrgbcolor
newpath
88.670952 153.52544 moveto
88.670952 147.60747 lineto
90.467827 147.60747 lineto
90.467827 162.80278 lineto
88.670952 162.80278 lineto
88.670952 161.16216 lineto
88.293339 161.8132 87.814824 162.29822 87.235405 162.61723 curveto
86.662481 162.92973 85.972378 163.08598 85.165092 163.08598 curveto
83.843474 163.08598 82.766001 162.55864 81.932671 161.50395 curveto
81.105846 160.44927 80.692435 159.06255 80.692436 157.3438 curveto
80.692435 155.62505 81.105846 154.23834 81.932671 153.18364 curveto
82.766001 152.12896 83.843474 151.60162 85.165092 151.60161 curveto
85.972378 151.60162 86.662481 151.76112 87.235405 152.08012 curveto
87.814824 152.39263 88.293339 152.8744 88.670952 153.52544 curveto
82.547905 157.3438 moveto
82.547902 158.66541 82.818084 159.70382 83.358452 160.45903 curveto
83.905323 161.20773 84.65402 161.58208 85.604546 161.58208 curveto
86.555059 161.58208 87.303757 161.20773 87.850639 160.45903 curveto
88.397506 159.70382 88.670943 158.66541 88.670952 157.3438 curveto
88.670943 156.02219 88.397506 154.98703 87.850639 154.23833 curveto
87.303757 153.48313 86.555059 153.10552 85.604546 153.10551 curveto
84.65402 153.10552 83.905323 153.48313 83.358452 154.23833 curveto
82.818084 154.98703 82.547902 156.02219 82.547905 157.3438 curveto
fill
grestore
gsave
1 0 0 setrgbcolor
newpath
103.52447 156.88481 moveto
103.52447 157.76372 lineto
95.262749 157.76372 lineto
95.340871 159.0007 95.711964 159.94471 96.37603 160.59575 curveto
97.046598 161.24028 97.977587 161.56255 99.168999 161.56255 curveto
99.859095 161.56255 100.52641 161.47791 101.17095 161.30864 curveto
101.82198 161.13937 102.46651 160.88546 103.10455 160.54692 curveto
103.10455 162.24614 lineto
102.46 162.51958 101.7992 162.72791 101.12212 162.87114 curveto
100.44503 163.01437 99.758184 163.08598 99.061577 163.08598 curveto
97.31678 163.08598 95.933318 162.57817 94.911186 161.56255 curveto
93.89556 160.54692 93.387748 159.17323 93.387749 157.44145 curveto
93.387748 155.65109 93.869518 154.23183 94.833061 153.18364 curveto
95.80311 152.12896 97.108447 151.60162 98.749077 151.60161 curveto
100.22042 151.60162 101.38253 152.07688 102.2354 153.02739 curveto
103.09477 153.97141 103.52446 155.25721 103.52447 156.88481 curveto
101.72759 156.35747 moveto
101.71456 155.3744 101.43787 154.5899 100.89751 154.00395 curveto
100.36365 153.41802 99.654017 153.12506 98.768608 153.12505 curveto
97.765998 153.12506 96.961963 153.40826 96.356499 153.97466 curveto
95.757537 154.54107 95.412485 155.33859 95.321342 156.36723 curveto
101.72759 156.35747 lineto
fill
grestore
gsave
1 0 0 setrgbcolor
newpath
66.141655 455.83603 moveto
66.141655 457.51572 lineto
65.633833 457.23578 65.122766 457.02744 64.608452 456.89072 curveto
64.100632 456.7475 63.586309 456.67588 63.065483 456.67587 curveto
61.900113 456.67588 60.995166 457.04698 60.350639 457.78915 curveto
59.706105 458.52484 59.383839 459.55999 59.383842 460.89462 curveto
59.383839 462.22926 59.706105 463.26767 60.350639 464.00986 curveto
60.995166 464.74554 61.900113 465.11337 63.065483 465.11337 curveto
63.586309 465.11337 64.100632 465.04501 64.608452 464.90829 curveto
65.122766 464.76507 65.633833 464.55348 66.141655 464.27353 curveto
66.141655 465.93369 lineto
65.640344 466.16806 65.119511 466.34384 64.579155 466.46103 curveto
64.045293 466.57822 63.475632 466.63681 62.870171 466.63681 curveto
61.22303 466.63681 59.914438 466.11923 58.944389 465.08408 curveto
57.974336 464.04892 57.48931 462.65244 57.489311 460.89462 curveto
57.48931 459.11078 57.977591 457.70778 58.954155 456.68564 curveto
59.937224 455.66351 61.281624 455.15245 62.987358 455.15244 curveto
63.540736 455.15245 64.0811 455.21104 64.608452 455.32822 curveto
65.135787 455.4389 65.646854 455.60818 66.141655 455.83603 curveto
fill
grestore
gsave
1 0 0 setrgbcolor
newpath
73.485405 456.67587 moveto
72.521858 456.67588 71.76014 457.05349 71.200249 457.80869 curveto
70.64035 458.55739 70.360402 459.58604 70.360405 460.89462 curveto
70.360402 462.20322 70.637094 463.23512 71.190483 463.99033 curveto
71.750375 464.73903 72.515348 465.11337 73.485405 465.11337 curveto
74.442429 465.11337 75.200892 464.73577 75.760796 463.98056 curveto
76.320682 463.22536 76.60063 462.19671 76.600639 460.89462 curveto
76.60063 459.59906 76.320682 458.57367 75.760796 457.81845 curveto
75.200892 457.05674 74.442429 456.67588 73.485405 456.67587 curveto
73.485405 455.15244 moveto
75.047897 455.15245 76.27511 455.66026 77.167046 456.67587 curveto
78.058962 457.69151 78.504925 459.09776 78.504936 460.89462 curveto
78.504925 462.68499 78.058962 464.09124 77.167046 465.11337 curveto
76.27511 466.129 75.047897 466.63681 73.485405 466.63681 curveto
71.91639 466.63681 70.685922 466.129 69.793999 465.11337 curveto
68.908581 464.09124 68.465873 462.68499 68.465874 460.89462 curveto
68.465873 459.09776 68.908581 457.69151 69.793999 456.67587 curveto
70.685922 455.66026 71.91639 455.15245 73.485405 455.15244 curveto
fill
grestore
gsave
1 0 0 setrgbcolor
newpath
88.670952 457.07626 moveto
88.670952 451.15829 lineto
90.467827 451.15829 lineto
90.467827 466.35361 lineto
88.670952 466.35361 lineto
88.670952 464.71298 lineto
88.293339 465.36402 87.814824 465.84905 87.235405 466.16806 curveto
86.662481 466.48056 85.972378 466.63681 85.165092 466.63681 curveto
83.843474 466.63681 82.766001 466.10947 81.932671 465.05478 curveto
81.105846 464.00009 80.692435 462.61338 80.692436 460.89462 curveto
80.692435 459.17588 81.105846 457.78916 81.932671 456.73447 curveto
82.766001 455.67979 83.843474 455.15245 85.165092 455.15244 curveto
85.972378 455.15245 86.662481 455.31195 87.235405 455.63095 curveto
87.814824 455.94346 88.293339 456.42523 88.670952 457.07626 curveto
82.547905 460.89462 moveto
82.547902 462.21624 82.818084 463.25465 83.358452 464.00986 curveto
83.905323 464.75856 84.65402 465.13291 85.604546 465.1329 curveto
86.555059 465.13291 87.303757 464.75856 87.850639 464.00986 curveto
88.397506 463.25465 88.670943 462.21624 88.670952 460.89462 curveto
88.670943 459.57301 88.397506 458.53786 87.850639 457.78915 curveto
87.303757 457.03396 86.555059 456.65635 85.604546 456.65634 curveto
84.65402 456.65635 83.905323 457.03396 83.358452 457.78915 curveto
82.818084 458.53786 82.547902 459.57301 82.547905 460.89462 curveto
fill
grestore
gsave
1 0 0 setrgbcolor
newpath
103.52447 460.43564 moveto
103.52447 461.31454 lineto
95.262749 461.31454 lineto
95.340871 462.55153 95.711964 463.49554 96.37603 464.14658 curveto
97.046598 464.79111 97.977587 465.11337 99.168999 465.11337 curveto
99.859095 465.11337 100.52641 465.02874 101.17095 464.85947 curveto
101.82198 464.6902 102.46651 464.43629 103.10455 464.09775 curveto
103.10455 465.79697 lineto
102.46 466.0704 101.7992 466.27874 101.12212 466.42197 curveto
100.44503 466.5652 99.758184 466.63681 99.061577 466.63681 curveto
97.31678 466.63681 95.933318 466.129 94.911186 465.11337 curveto
93.89556 464.09775 93.387748 462.72405 93.387749 460.99228 curveto
93.387748 459.20192 93.869518 457.78265 94.833061 456.73447 curveto
95.80311 455.67979 97.108447 455.15245 98.749077 455.15244 curveto
100.22042 455.15245 101.38253 455.62771 102.2354 456.57822 curveto
103.09477 457.52224 103.52446 458.80804 103.52447 460.43564 curveto
101.72759 459.90829 moveto
101.71456 458.92523 101.43787 458.14072 100.89751 457.55478 curveto
100.36365 456.96885 99.654017 456.67588 98.768608 456.67587 curveto
97.765998 456.67588 96.961963 456.95909 96.356499 457.52548 curveto
95.757537 458.0919 95.412485 458.88942 95.321342 459.91806 curveto
101.72759 459.90829 lineto
fill
grestore
gsave
0 0 0 setrgbcolor
newpath
46.452202 294.22681 moveto
46.452202 295.72095 lineto
44.733452 295.72095 lineto
44.088916 295.72096 43.639697 295.85117 43.385796 296.11157 curveto
43.138396 296.372 43.014698 296.84075 43.014702 297.51782 curveto
43.014702 298.48462 lineto
45.973686 298.48462 lineto
45.973686 299.8811 lineto
43.014702 299.8811 lineto
43.014702 309.42212 lineto
41.208061 309.42212 lineto
41.208061 299.8811 lineto
39.489311 299.8811 lineto
39.489311 298.48462 lineto
41.208061 298.48462 lineto
41.208061 297.7229 lineto
41.208059 296.50547 41.491262 295.62005 42.057671 295.06665 curveto
42.624073 294.50677 43.52251 294.22682 44.752983 294.22681 curveto
46.452202 294.22681 lineto
fill
grestore
gsave
0 0 0 setrgbcolor
newpath
47.799858 305.10571 moveto
47.799858 298.48462 lineto
49.596733 298.48462 lineto
49.596733 305.03735 lineto
49.59673 306.07251 49.798552 306.85051 50.202202 307.37134 curveto
50.605843 307.88566 51.211311 308.14282 52.018608 308.14282 curveto
52.988653 308.14282 53.753626 307.83358 54.31353 307.21509 curveto
54.879927 306.5966 55.16313 305.7535 55.163139 304.68579 curveto
55.163139 298.48462 lineto
56.960014 298.48462 lineto
56.960014 309.42212 lineto
55.163139 309.42212 lineto
55.163139 307.74243 lineto
54.726933 308.4065 54.219121 308.90129 53.639702 309.22681 curveto
53.066778 309.54582 52.399461 309.70532 51.637749 309.70532 curveto
50.381234 309.70532 49.427459 309.3147 48.776421 308.53345 curveto
48.125377 307.7522 47.799856 306.60962 47.799858 305.10571 curveto
fill
grestore
gsave
0 0 0 setrgbcolor
newpath
69.772514 302.82056 moveto
69.772514 309.42212 lineto
67.975639 309.42212 lineto
67.975639 302.87915 lineto
67.97563 301.844 67.773807 301.06926 67.370171 300.55493 curveto
66.966517 300.04062 66.361048 299.78346 65.553764 299.78345 curveto
64.583706 299.78346 63.818733 300.0927 63.258842 300.71118 curveto
62.698943 301.32968 62.418995 302.17278 62.418999 303.24048 curveto
62.418999 309.42212 lineto
60.612358 309.42212 lineto
60.612358 298.48462 lineto
62.418999 298.48462 lineto
62.418999 300.18384 lineto
62.848682 299.5263 63.353239 299.03476 63.932671 298.70923 curveto
64.518602 298.38372 65.19243 298.22096 65.954155 298.22095 curveto
67.210657 298.22096 68.161177 298.61158 68.805717 299.39282 curveto
69.450238 300.16757 69.772503 301.31015 69.772514 302.82056 curveto
fill
grestore
gsave
0 0 0 setrgbcolor
newpath
81.247124 298.90454 moveto
81.247124 300.58423 lineto
80.739302 300.30429 80.228235 300.09596 79.713921 299.95923 curveto
79.2061 299.81601 78.691778 299.74439 78.170952 299.74438 curveto
77.005582 299.74439 76.100635 300.11549 75.456108 300.85767 curveto
74.811574 301.59335 74.489308 302.62851 74.489311 303.96313 curveto
74.489308 305.29777 74.811574 306.33618 75.456108 307.07837 curveto
76.100635 307.81405 77.005582 308.18189 78.170952 308.18188 curveto
78.691778 308.18189 79.2061 308.11353 79.713921 307.97681 curveto
80.228235 307.83358 80.739302 307.62199 81.247124 307.34204 curveto
81.247124 309.0022 lineto
80.745812 309.23657 80.22498 309.41235 79.684624 309.52954 curveto
79.150762 309.64673 78.581101 309.70532 77.975639 309.70532 curveto
76.328499 309.70532 75.019907 309.18774 74.049858 308.15259 curveto
73.079804 307.11743 72.594779 305.72095 72.59478 303.96313 curveto
72.594779 302.17929 73.08306 300.77629 74.059624 299.75415 curveto
75.042693 298.73203 76.387093 298.22096 78.092827 298.22095 curveto
78.646205 298.22096 79.186569 298.27955 79.713921 298.39673 curveto
80.241256 298.50742 80.752323 298.67669 81.247124 298.90454 curveto
fill
grestore
gsave
0 0 0 setrgbcolor
newpath
86.129936 295.37915 moveto
86.129936 298.48462 lineto
89.831108 298.48462 lineto
89.831108 299.8811 lineto
86.129936 299.8811 lineto
86.129936 305.8186 lineto
86.129933 306.71053 86.250375 307.28345 86.491264 307.53735 curveto
86.738656 307.79126 87.236702 307.91821 87.985405 307.91821 curveto
89.831108 307.91821 lineto
89.831108 309.42212 lineto
87.985405 309.42212 lineto
86.598682 309.42212 85.641652 309.16496 85.114311 308.65063 curveto
84.586965 308.1298 84.323294 307.18579 84.323296 305.8186 curveto
84.323296 299.8811 lineto
83.004936 299.8811 lineto
83.004936 298.48462 lineto
84.323296 298.48462 lineto
84.323296 295.37915 lineto
86.129936 295.37915 lineto
fill
grestore
gsave
0 0 0 setrgbcolor
newpath
92.204155 298.48462 moveto
94.00103 298.48462 lineto
94.00103 309.42212 lineto
92.204155 309.42212 lineto
92.204155 298.48462 lineto
92.204155 294.22681 moveto
94.00103 294.22681 lineto
94.00103 296.5022 lineto
92.204155 296.5022 lineto
92.204155 294.22681 lineto
fill
grestore
gsave
0 0 0 setrgbcolor
newpath
101.98931 299.74438 moveto
101.02576 299.74439 100.26405 300.122 99.704155 300.8772 curveto
99.144256 301.6259 98.864308 302.65455 98.864311 303.96313 curveto
98.864308 305.27173 99.141001 306.30363 99.694389 307.05884 curveto
100.25428 307.80754 101.01925 308.18189 101.98931 308.18188 curveto
102.94634 308.18189 103.7048 307.80428 104.2647 307.04907 curveto
104.82459 306.29387 105.10454 305.26522 105.10455 303.96313 curveto
105.10454 302.66757 104.82459 301.64218 104.2647 300.88696 curveto
103.7048 300.12525 102.94634 299.74439 101.98931 299.74438 curveto
101.98931 298.22095 moveto
103.5518 298.22096 104.77902 298.72877 105.67095 299.74438 curveto
106.56287 300.76002 107.00883 302.16627 107.00884 303.96313 curveto
107.00883 305.7535 106.56287 307.15975 105.67095 308.18188 curveto
104.77902 309.19751 103.5518 309.70532 101.98931 309.70532 curveto
100.4203 309.70532 99.189829 309.19751 98.297905 308.18188 curveto
97.412487 307.15975 96.969779 305.7535 96.96978 303.96313 curveto
96.969779 302.16627 97.412487 300.76002 98.297905 299.74438 curveto
99.189829 298.72877 100.4203 298.22096 101.98931 298.22095 curveto
fill
grestore
gsave
0 0 0 setrgbcolor
newpath
119.06939 302.82056 moveto
119.06939 309.42212 lineto
117.27251 309.42212 lineto
117.27251 302.87915 lineto
117.27251 301.844 117.07068 301.06926 116.66705 300.55493 curveto
116.26339 300.04062 115.65792 299.78346 114.85064 299.78345 curveto
113.88058 299.78346 113.11561 300.0927 112.55572 300.71118 curveto
111.99582 301.32968 111.71587 302.17278 111.71587 303.24048 curveto
111.71587 309.42212 lineto
109.90923 309.42212 lineto
109.90923 298.48462 lineto
111.71587 298.48462 lineto
111.71587 300.18384 lineto
112.14556 299.5263 112.65011 299.03476 113.22955 298.70923 curveto
113.81548 298.38372 114.4893 298.22096 115.25103 298.22095 curveto
116.50753 298.22096 117.45805 298.61158 118.10259 299.39282 curveto
118.74711 300.16757 119.06938 301.31015 119.06939 302.82056 curveto
fill
grestore
gsave
0 0 0 setrgbcolor
newpath
48.786186 323.90454 moveto
48.786186 325.58423 lineto
48.278364 325.30429 47.767297 325.09596 47.252983 324.95923 curveto
46.745163 324.81601 46.23084 324.74439 45.710014 324.74438 curveto
44.544644 324.74439 43.639697 325.11549 42.995171 325.85767 curveto
42.350636 326.59335 42.028371 327.62851 42.028374 328.96313 curveto
42.028371 330.29777 42.350636 331.33618 42.995171 332.07837 curveto
43.639697 332.81405 44.544644 333.18189 45.710014 333.18188 curveto
46.23084 333.18189 46.745163 333.11353 47.252983 332.97681 curveto
47.767297 332.83358 48.278364 332.62199 48.786186 332.34204 curveto
48.786186 334.0022 lineto
48.284875 334.23657 47.764042 334.41235 47.223686 334.52954 curveto
46.689824 334.64673 46.120164 334.70532 45.514702 334.70532 curveto
43.867562 334.70532 42.558969 334.18774 41.588921 333.15259 curveto
40.618867 332.11743 40.133841 330.72095 40.133842 328.96313 curveto
40.133841 327.17929 40.622122 325.77629 41.598686 324.75415 curveto
42.581756 323.73203 43.926155 323.22096 45.631889 323.22095 curveto
46.185268 323.22096 46.725632 323.27955 47.252983 323.39673 curveto
47.780318 323.50742 48.291385 323.67669 48.786186 323.90454 curveto
fill
grestore
gsave
0 0 0 setrgbcolor
newpath
56.862358 328.92407 moveto
55.41053 328.92408 54.404671 329.09009 53.84478 329.42212 curveto
53.284881 329.75416 53.004933 330.32056 53.004936 331.12134 curveto
53.004933 331.75936 53.213266 332.26717 53.629936 332.64478 curveto
54.053109 333.01587 54.626025 333.20142 55.348686 333.20142 curveto
56.344774 333.20142 57.142299 332.84986 57.741264 332.14673 curveto
58.346725 331.4371 58.649459 330.49634 58.649467 329.32446 curveto
58.649467 328.92407 lineto
56.862358 328.92407 lineto
60.446342 328.18188 moveto
60.446342 334.42212 lineto
58.649467 334.42212 lineto
58.649467 332.76196 lineto
58.239303 333.42603 57.728236 333.91756 57.116264 334.23657 curveto
56.504279 334.54907 55.755582 334.70532 54.870171 334.70532 curveto
53.750375 334.70532 52.858449 334.39282 52.194389 333.76782 curveto
51.536836 333.13631 51.20806 332.29322 51.208061 331.23853 curveto
51.20806 330.00806 51.618216 329.08033 52.43853 328.45532 curveto
53.26535 327.83033 54.495817 327.51783 56.129936 327.51782 curveto
58.649467 327.51782 lineto
58.649467 327.34204 lineto
58.649459 326.51523 58.376022 325.87721 57.829155 325.42798 curveto
57.288783 324.97226 56.527065 324.74439 55.543999 324.74438 curveto
54.918994 324.74439 54.31027 324.81926 53.717827 324.96899 curveto
53.125376 325.11874 52.555715 325.34335 52.008842 325.64282 curveto
52.008842 323.98267 lineto
52.666392 323.72877 53.304412 323.53997 53.922905 323.41626 curveto
54.54139 323.28606 55.143603 323.22096 55.729546 323.22095 curveto
57.31157 323.22096 58.493209 323.63111 59.274467 324.45142 curveto
60.055707 325.27174 60.446332 326.51523 60.446342 328.18188 curveto
fill
grestore
gsave
0 0 0 setrgbcolor
newpath
64.196342 319.22681 moveto
65.993217 319.22681 lineto
65.993217 334.42212 lineto
64.196342 334.42212 lineto
64.196342 319.22681 lineto
fill
grestore
gsave
0 0 0 setrgbcolor
newpath
69.743217 319.22681 moveto
71.540092 319.22681 lineto
71.540092 334.42212 lineto
69.743217 334.42212 lineto
69.743217 319.22681 lineto
fill
grestore
gsave
0 0 0 setrgbcolor
newpath
246.66559 298.22681 moveto
246.66559 299.72095 lineto
244.94684 299.72095 lineto
244.3023 299.72096 243.85308 299.85117 243.59918 300.11157 curveto
243.35178 300.372 243.22808 300.84075 243.22809 301.51782 curveto
243.22809 302.48462 lineto
246.18707 302.48462 lineto
246.18707 303.8811 lineto
243.22809 303.8811 lineto
243.22809 313.42212 lineto
241.42145 313.42212 lineto
241.42145 303.8811 lineto
239.7027 303.8811 lineto
239.7027 302.48462 lineto
241.42145 302.48462 lineto
241.42145 301.7229 lineto
241.42145 300.50547 241.70465 299.62005 242.27106 299.06665 curveto
242.83746 298.50677 243.7359 298.22682 244.96637 298.22681 curveto
246.66559 298.22681 lineto
fill
grestore
gsave
0 0 0 setrgbcolor
newpath
248.01324 309.10571 moveto
248.01324 302.48462 lineto
249.81012 302.48462 lineto
249.81012 309.03735 lineto
249.81012 310.07251 250.01194 310.85051 250.41559 311.37134 curveto
250.81923 311.88566 251.4247 312.14282 252.23199 312.14282 curveto
253.20204 312.14282 253.96701 311.83358 254.52692 311.21509 curveto
255.09331 310.5966 255.37652 309.7535 255.37653 308.68579 curveto
255.37653 302.48462 lineto
257.1734 302.48462 lineto
257.1734 313.42212 lineto
255.37653 313.42212 lineto
255.37653 311.74243 lineto
254.94032 312.4065 254.43251 312.90129 253.85309 313.22681 curveto
253.28016 313.54582 252.61285 313.70532 251.85114 313.70532 curveto
250.59462 313.70532 249.64085 313.3147 248.98981 312.53345 curveto
248.33876 311.7522 248.01324 310.60962 248.01324 309.10571 curveto
fill
grestore
gsave
0 0 0 setrgbcolor
newpath
269.9859 306.82056 moveto
269.9859 313.42212 lineto
268.18903 313.42212 lineto
268.18903 306.87915 lineto
268.18902 305.844 267.98719 305.06926 267.58356 304.55493 curveto
267.1799 304.04062 266.57443 303.78346 265.76715 303.78345 curveto
264.79709 303.78346 264.03212 304.0927 263.47223 304.71118 curveto
262.91233 305.32968 262.63238 306.17278 262.63239 307.24048 curveto
262.63239 313.42212 lineto
260.82574 313.42212 lineto
260.82574 302.48462 lineto
262.63239 302.48462 lineto
262.63239 304.18384 lineto
263.06207 303.5263 263.56663 303.03476 264.14606 302.70923 curveto
264.73199 302.38372 265.40582 302.22096 266.16754 302.22095 curveto
267.42404 302.22096 268.37456 302.61158 269.0191 303.39282 curveto
269.66362 304.16757 269.98589 305.31015 269.9859 306.82056 curveto
fill
grestore
gsave
0 0 0 setrgbcolor
newpath
281.46051 302.90454 moveto
281.46051 304.58423 lineto
280.95269 304.30429 280.44162 304.09596 279.92731 303.95923 curveto
279.41949 303.81601 278.90516 303.74439 278.38434 303.74438 curveto
277.21897 303.74439 276.31402 304.11549 275.66949 304.85767 curveto
275.02496 305.59335 274.70269 306.62851 274.7027 307.96313 curveto
274.70269 309.29777 275.02496 310.33618 275.66949 311.07837 curveto
276.31402 311.81405 277.21897 312.18189 278.38434 312.18188 curveto
278.90516 312.18189 279.41949 312.11353 279.92731 311.97681 curveto
280.44162 311.83358 280.95269 311.62199 281.46051 311.34204 curveto
281.46051 313.0022 lineto
280.9592 313.23657 280.43837 313.41235 279.89801 313.52954 curveto
279.36415 313.64673 278.79449 313.70532 278.18903 313.70532 curveto
276.54189 313.70532 275.23329 313.18774 274.26324 312.15259 curveto
273.29319 311.11743 272.80817 309.72095 272.80817 307.96313 curveto
272.80817 306.17929 273.29645 304.77629 274.27301 303.75415 curveto
275.25608 302.73203 276.60048 302.22096 278.30621 302.22095 curveto
278.85959 302.22096 279.39996 302.27955 279.92731 302.39673 curveto
280.45464 302.50742 280.96571 302.67669 281.46051 302.90454 curveto
fill
grestore
gsave
0 0 0 setrgbcolor
newpath
286.34332 299.37915 moveto
286.34332 302.48462 lineto
290.04449 302.48462 lineto
290.04449 303.8811 lineto
286.34332 303.8811 lineto
286.34332 309.8186 lineto
286.34332 310.71053 286.46376 311.28345 286.70465 311.53735 curveto
286.95204 311.79126 287.45009 311.91821 288.19879 311.91821 curveto
290.04449 311.91821 lineto
290.04449 313.42212 lineto
288.19879 313.42212 lineto
286.81207 313.42212 285.85504 313.16496 285.3277 312.65063 curveto
284.80035 312.1298 284.53668 311.18579 284.53668 309.8186 curveto
284.53668 303.8811 lineto
283.21832 303.8811 lineto
283.21832 302.48462 lineto
284.53668 302.48462 lineto
284.53668 299.37915 lineto
286.34332 299.37915 lineto
fill
grestore
gsave
0 0 0 setrgbcolor
newpath
292.41754 302.48462 moveto
294.21442 302.48462 lineto
294.21442 313.42212 lineto
292.41754 313.42212 lineto
292.41754 302.48462 lineto
292.41754 298.22681 moveto
294.21442 298.22681 lineto
294.21442 300.5022 lineto
292.41754 300.5022 lineto
292.41754 298.22681 lineto
fill
grestore
gsave
0 0 0 setrgbcolor
newpath
302.2027 303.74438 moveto
301.23915 303.74439 300.47743 304.122 299.91754 304.8772 curveto
299.35764 305.6259 299.07769 306.65455 299.0777 307.96313 curveto
299.07769 309.27173 299.35439 310.30363 299.90778 311.05884 curveto
300.46767 311.80754 301.23264 312.18189 302.2027 312.18188 curveto
303.15972 312.18189 303.91818 311.80428 304.47809 311.04907 curveto
305.03798 310.29387 305.31792 309.26522 305.31793 307.96313 curveto
305.31792 306.66757 305.03798 305.64218 304.47809 304.88696 curveto
303.91818 304.12525 303.15972 303.74439 302.2027 303.74438 curveto
302.2027 302.22095 moveto
303.76519 302.22096 304.9924 302.72877 305.88434 303.74438 curveto
306.77625 304.76002 307.22222 306.16627 307.22223 307.96313 curveto
307.22222 309.7535 306.77625 311.15975 305.88434 312.18188 curveto
304.9924 313.19751 303.76519 313.70532 302.2027 313.70532 curveto
300.63368 313.70532 299.40322 313.19751 298.51129 312.18188 curveto
297.62587 311.15975 297.18317 309.7535 297.18317 307.96313 curveto
297.18317 306.16627 297.62587 304.76002 298.51129 303.74438 curveto
299.40322 302.72877 300.63368 302.22096 302.2027 302.22095 curveto
fill
grestore
gsave
0 0 0 setrgbcolor
newpath
319.28278 306.82056 moveto
319.28278 313.42212 lineto
317.4859 313.42212 lineto
317.4859 306.87915 lineto
317.48589 305.844 317.28407 305.06926 316.88043 304.55493 curveto
316.47678 304.04062 315.87131 303.78346 315.06403 303.78345 curveto
314.09397 303.78346 313.32899 304.0927 312.7691 304.71118 curveto
312.2092 305.32968 311.92926 306.17278 311.92926 307.24048 curveto
311.92926 313.42212 lineto
310.12262 313.42212 lineto
310.12262 302.48462 lineto
311.92926 302.48462 lineto
311.92926 304.18384 lineto
312.35894 303.5263 312.8635 303.03476 313.44293 302.70923 curveto
314.02886 302.38372 314.70269 302.22096 315.46442 302.22095 curveto
316.72092 302.22096 317.67144 302.61158 318.31598 303.39282 curveto
318.9605 304.16757 319.28276 305.31015 319.28278 306.82056 curveto
fill
grestore
gsave
0 0 0 setrgbcolor
newpath
248.32574 329.14478 moveto
248.32574 323.22681 lineto
250.12262 323.22681 lineto
250.12262 338.42212 lineto
248.32574 338.42212 lineto
248.32574 336.78149 lineto
247.94813 337.43254 247.46962 337.91756 246.8902 338.23657 curveto
246.31727 338.54907 245.62717 338.70532 244.81989 338.70532 curveto
243.49827 338.70532 242.42079 338.17798 241.58746 337.12329 curveto
240.76064 336.06861 240.34723 334.68189 240.34723 332.96313 curveto
240.34723 331.24439 240.76064 329.85767 241.58746 328.80298 curveto
242.42079 327.7483 243.49827 327.22096 244.81989 327.22095 curveto
245.62717 327.22096 246.31727 327.38046 246.8902 327.69946 curveto
247.46962 328.01197 247.94813 328.49374 248.32574 329.14478 curveto
242.2027 332.96313 moveto
242.20269 334.28475 242.47288 335.32316 243.01324 336.07837 curveto
243.56012 336.82707 244.30881 337.20142 245.25934 337.20142 curveto
246.20985 337.20142 246.95855 336.82707 247.50543 336.07837 curveto
248.0523 335.32316 248.32574 334.28475 248.32574 332.96313 curveto
248.32574 331.64153 248.0523 330.60637 247.50543 329.85767 curveto
246.95855 329.10247 246.20985 328.72486 245.25934 328.72485 curveto
244.30881 328.72486 243.56012 329.10247 243.01324 329.85767 curveto
242.47288 330.60637 242.20269 331.64153 242.2027 332.96313 curveto
fill
grestore
gsave
0 0 0 setrgbcolor
newpath
263.17926 332.50415 moveto
263.17926 333.38306 lineto
254.91754 333.38306 lineto
254.99566 334.62004 255.36676 335.56405 256.03082 336.21509 curveto
256.70139 336.85962 257.63238 337.18189 258.82379 337.18188 curveto
259.51389 337.18189 260.18121 337.09725 260.82574 336.92798 curveto
261.47678 336.75871 262.12131 336.5048 262.75934 336.16626 curveto
262.75934 337.86548 lineto
262.1148 338.13892 261.45399 338.34725 260.77692 338.49048 curveto
260.09983 338.63371 259.41298 338.70532 258.71637 338.70532 curveto
256.97157 338.70532 255.58811 338.19751 254.56598 337.18188 curveto
253.55035 336.16626 253.04254 334.79257 253.04254 333.06079 curveto
253.04254 331.27043 253.52431 329.85116 254.48785 328.80298 curveto
255.4579 327.7483 256.76324 327.22096 258.40387 327.22095 curveto
259.87522 327.22096 261.03732 327.69622 261.8902 328.64673 curveto
262.74956 329.59075 263.17925 330.87655 263.17926 332.50415 curveto
261.38239 331.97681 moveto
261.36935 330.99374 261.09266 330.20924 260.55231 329.62329 curveto
260.01844 329.03736 259.30881 328.74439 258.4234 328.74438 curveto
257.42079 328.74439 256.61676 329.0276 256.01129 329.59399 curveto
255.41233 330.16041 255.06728 330.95793 254.97614 331.98657 curveto
261.38239 331.97681 lineto
fill
grestore
gsave
0 0 0 setrgbcolor
newpath
271.62653 323.22681 moveto
271.62653 324.72095 lineto
269.90778 324.72095 lineto
269.26324 324.72096 268.81402 324.85117 268.56012 325.11157 curveto
268.31272 325.372 268.18902 325.84075 268.18903 326.51782 curveto
268.18903 327.48462 lineto
271.14801 327.48462 lineto
271.14801 328.8811 lineto
268.18903 328.8811 lineto
268.18903 338.42212 lineto
266.38239 338.42212 lineto
266.38239 328.8811 lineto
264.66364 328.8811 lineto
264.66364 327.48462 lineto
266.38239 327.48462 lineto
266.38239 326.7229 lineto
266.38238 325.50547 266.66559 324.62005 267.23199 324.06665 curveto
267.7984 323.50677 268.69683 323.22682 269.92731 323.22681 curveto
271.62653 323.22681 lineto
fill
grestore
gsave
0 0 0 setrgbcolor
newpath
273.15973 327.48462 moveto
274.9566 327.48462 lineto
274.9566 338.42212 lineto
273.15973 338.42212 lineto
273.15973 327.48462 lineto
273.15973 323.22681 moveto
274.9566 323.22681 lineto
274.9566 325.5022 lineto
273.15973 325.5022 lineto
273.15973 323.22681 lineto
fill
grestore
gsave
0 0 0 setrgbcolor
newpath
287.7984 331.82056 moveto
287.7984 338.42212 lineto
286.00153 338.42212 lineto
286.00153 331.87915 lineto
286.00152 330.844 285.79969 330.06926 285.39606 329.55493 curveto
284.9924 329.04062 284.38693 328.78346 283.57965 328.78345 curveto
282.60959 328.78346 281.84462 329.0927 281.28473 329.71118 curveto
280.72483 330.32968 280.44488 331.17278 280.44489 332.24048 curveto
280.44489 338.42212 lineto
278.63824 338.42212 lineto
278.63824 327.48462 lineto
280.44489 327.48462 lineto
280.44489 329.18384 lineto
280.87457 328.5263 281.37913 328.03476 281.95856 327.70923 curveto
282.54449 327.38372 283.21832 327.22096 283.98004 327.22095 curveto
285.23654 327.22096 286.18706 327.61158 286.8316 328.39282 curveto
287.47612 329.16757 287.79839 330.31015 287.7984 331.82056 curveto
fill
grestore
gsave
0 0 0 setrgbcolor
newpath
291.40192 327.48462 moveto
293.19879 327.48462 lineto
293.19879 338.42212 lineto
291.40192 338.42212 lineto
291.40192 327.48462 lineto
291.40192 323.22681 moveto
293.19879 323.22681 lineto
293.19879 325.5022 lineto
291.40192 325.5022 lineto
291.40192 323.22681 lineto
fill
grestore
gsave
0 0 0 setrgbcolor
newpath
298.72614 324.37915 moveto
298.72614 327.48462 lineto
302.42731 327.48462 lineto
302.42731 328.8811 lineto
298.72614 328.8811 lineto
298.72614 334.8186 lineto
298.72613 335.71053 298.84657 336.28345 299.08746 336.53735 curveto
299.33485 336.79126 299.8329 336.91821 300.5816 336.91821 curveto
302.42731 336.91821 lineto
302.42731 338.42212 lineto
300.5816 338.42212 lineto
299.19488 338.42212 298.23785 338.16496 297.71051 337.65063 curveto
297.18316 337.1298 296.91949 336.18579 296.91949 334.8186 curveto
296.91949 328.8811 lineto
295.60114 328.8811 lineto
295.60114 327.48462 lineto
296.91949 327.48462 lineto
296.91949 324.37915 lineto
298.72614 324.37915 lineto
fill
grestore
gsave
0 0 0 setrgbcolor
newpath
304.80035 327.48462 moveto
306.59723 327.48462 lineto
306.59723 338.42212 lineto
304.80035 338.42212 lineto
304.80035 327.48462 lineto
304.80035 323.22681 moveto
306.59723 323.22681 lineto
306.59723 325.5022 lineto
304.80035 325.5022 lineto
304.80035 323.22681 lineto
fill
grestore
gsave
0 0 0 setrgbcolor
newpath
314.58551 328.74438 moveto
313.62196 328.74439 312.86025 329.122 312.30035 329.8772 curveto
311.74045 330.6259 311.46051 331.65455 311.46051 332.96313 curveto
311.46051 334.27173 311.7372 335.30363 312.29059 336.05884 curveto
312.85048 336.80754 313.61545 337.18189 314.58551 337.18188 curveto
315.54253 337.18189 316.301 336.80428 316.8609 336.04907 curveto
317.42079 335.29387 317.70074 334.26522 317.70074 332.96313 curveto
317.70074 331.66757 317.42079 330.64218 316.8609 329.88696 curveto
316.301 329.12525 315.54253 328.74439 314.58551 328.74438 curveto
314.58551 327.22095 moveto
316.148 327.22096 317.37521 327.72877 318.26715 328.74438 curveto
319.15907 329.76002 319.60503 331.16627 319.60504 332.96313 curveto
319.60503 334.7535 319.15907 336.15975 318.26715 337.18188 curveto
317.37521 338.19751 316.148 338.70532 314.58551 338.70532 curveto
313.0165 338.70532 311.78603 338.19751 310.8941 337.18188 curveto
310.00869 336.15975 309.56598 334.7535 309.56598 332.96313 curveto
309.56598 331.16627 310.00869 329.76002 310.8941 328.74438 curveto
311.78603 327.72877 313.0165 327.22096 314.58551 327.22095 curveto
fill
grestore
gsave
0 0 0 setrgbcolor
newpath
331.66559 331.82056 moveto
331.66559 338.42212 lineto
329.86871 338.42212 lineto
329.86871 331.87915 lineto
329.8687 330.844 329.66688 330.06926 329.26324 329.55493 curveto
328.85959 329.04062 328.25412 328.78346 327.44684 328.78345 curveto
326.47678 328.78346 325.71181 329.0927 325.15192 329.71118 curveto
324.59202 330.32968 324.31207 331.17278 324.31207 332.24048 curveto
324.31207 338.42212 lineto
322.50543 338.42212 lineto
322.50543 327.48462 lineto
324.31207 327.48462 lineto
324.31207 329.18384 lineto
324.74176 328.5263 325.24631 328.03476 325.82574 327.70923 curveto
326.41168 327.38372 327.0855 327.22096 327.84723 327.22095 curveto
329.10373 327.22096 330.05425 327.61158 330.69879 328.39282 curveto
331.34331 329.16757 331.66558 330.31015 331.66559 331.82056 curveto
fill
grestore
0 0 0 setrgbcolor
[] 0 setdash
1 setlinewidth
0 setlinejoin
0 setlinecap
newpath
29.294424 535.16408 moveto
29.294424 262.4229 lineto
stroke
gsave [-4.8984254e-17 0.8 -0.8 -4.8984254e-17 29.294424 272.4229] concat
gsave
0 0 0 setrgbcolor
newpath
0 0 moveto
5 -5 lineto
-12.5 0 lineto
5 5 lineto
0 0 lineto
closepath
eofill
grestore
0 0 0 setrgbcolor
[] 0 setdash
1.25 setlinewidth
0 setlinejoin
0 setlinecap
newpath
0 0 moveto
5 -5 lineto
-12.5 0 lineto
5 5 lineto
0 0 lineto
closepath
stroke
grestore
0 0 0 setrgbcolor
[] 0 setdash
0.97755247 setlinewidth
0 setlinejoin
0 setlinecap
newpath
29.294424 257.38335 moveto
29.294424 53.310091 lineto
stroke
gsave [-4.7884679e-17 0.78204198 -0.78204198 -4.7884679e-17 29.294424 63.085616] concat
gsave
0 0 0 setrgbcolor
newpath
0 0 moveto
5 -5 lineto
-12.5 0 lineto
5 5 lineto
0 0 lineto
closepath
eofill
grestore
0 0 0 setrgbcolor
[] 0 setdash
1.25 setlinewidth
0 setlinejoin
0 setlinecap
newpath
0 0 moveto
5 -5 lineto
-12.5 0 lineto
5 5 lineto
0 0 lineto
closepath
stroke
grestore
0 0 0 setrgbcolor
[] 0 setdash
1 setlinewidth
0 setlinejoin
0 setlinecap
newpath
205.92898 374.52952 moveto
205.92898 262.40259 lineto
stroke
gsave [-4.8984254e-17 0.8 -0.8 -4.8984254e-17 205.92898 272.40259] concat
gsave
0 0 0 setrgbcolor
newpath
0 0 moveto
5 -5 lineto
-12.5 0 lineto
5 5 lineto
0 0 lineto
closepath
eofill
grestore
0 0 0 setrgbcolor
[] 0 setdash
1.25 setlinewidth
0 setlinejoin
0 setlinecap
newpath
0 0 moveto
5 -5 lineto
-12.5 0 lineto
5 5 lineto
0 0 lineto
closepath
stroke
grestore
0 0 0 setrgbcolor
[11.686716 11.686716] 0 setdash
0.97389305 setlinewidth
0 setlinejoin
0 setlinecap
newpath
47.464116 260.40259 moveto
186.89127 260.40259 lineto
stroke
gsave [-0.77911444 0 0 -0.77911444 177.15234 260.40259] concat
gsave
0 0 0 setrgbcolor
newpath
0 0 moveto
5 -5 lineto
-12.5 0 lineto
5 5 lineto
0 0 lineto
closepath
eofill
grestore
0 0 0 setrgbcolor
[] 0 setdash
1.25 setlinewidth
0 setlinejoin
0 setlinecap
newpath
0 0 moveto
5 -5 lineto
-12.5 0 lineto
5 5 lineto
0 0 lineto
closepath
stroke
grestore
gsave [1 0 0 1 24.794424 52.821315] concat
0 0 0 setrgbcolor
[12 12] 0 setdash
1 setlinewidth
0 setlinejoin
0 setlinecap
newpath
186.87822 209.09143 moveto
221.22341 265.65998 190.91883 319.19806 190.91883 319.19806 curveto
stroke
gsave [0.39407864 -0.69620545 0.69620545 0.39407864 195.84481 310.49549] concat
gsave
0 0 0 setrgbcolor
newpath
0 0 moveto
5 -5 lineto
-12.5 0 lineto
5 5 lineto
0 0 lineto
closepath
eofill
grestore
0 0 0 setrgbcolor
[] 0 setdash
1.25 setlinewidth
0 setlinejoin
0 setlinecap
newpath
0 0 moveto
5 -5 lineto
-12.5 0 lineto
5 5 lineto
0 0 lineto
closepath
stroke
grestore
grestore
0 0 0 setrgbcolor
[] 0 setdash
1 setlinewidth
0 setlinejoin
0 setlinecap
newpath
160.33761 456.36478 moveto
218.92645 456.36478 lineto
stroke
gsave [-0.8 0 0 -0.8 208.92645 456.36478] concat
gsave
0 0 0 setrgbcolor
newpath
0 0 moveto
5 -5 lineto
-12.5 0 lineto
5 5 lineto
0 0 lineto
closepath
eofill
grestore
0 0 0 setrgbcolor
[] 0 setdash
1.25 setlinewidth
0 setlinejoin
0 setlinecap
newpath
0 0 moveto
5 -5 lineto
-12.5 0 lineto
5 5 lineto
0 0 lineto
closepath
stroke
grestore
gsave
1 0 0 setrgbcolor
newpath
160.33761 479.68011 moveto
218.92645 479.68011 lineto
eofill
grestore
0 0 0 setrgbcolor
[12 12] 0 setdash
1 setlinewidth
0 setlinejoin
0 setlinecap
newpath
160.33761 479.68011 moveto
218.92645 479.68011 lineto
stroke
gsave [-0.8 0 0 -0.8 208.92645 479.68011] concat
gsave
0 0 0 setrgbcolor
newpath
0 0 moveto
5 -5 lineto
-12.5 0 lineto
5 5 lineto
0 0 lineto
closepath
eofill
grestore
0 0 0 setrgbcolor
[] 0 setdash
1.25 setlinewidth
0 setlinejoin
0 setlinecap
newpath
0 0 moveto
5 -5 lineto
-12.5 0 lineto
5 5 lineto
0 0 lineto
closepath
stroke
grestore
gsave
0 0 0 setrgbcolor
newpath
239.99478 455.96439 moveto
239.99478 456.84329 lineto
231.73306 456.84329 lineto
231.81118 458.08028 232.18228 459.02428 232.84634 459.67532 curveto
233.51691 460.31986 234.4479 460.64212 235.63931 460.64212 curveto
236.32941 460.64212 236.99673 460.55749 237.64127 460.38821 curveto
238.2923 460.21894 238.93683 459.96504 239.57486 459.6265 curveto
239.57486 461.32571 lineto
238.93032 461.59915 238.26951 461.80749 237.59244 461.95071 curveto
236.91535 462.09394 236.2285 462.16556 235.53189 462.16556 curveto
233.78709 462.16556 232.40363 461.65775 231.3815 460.64212 curveto
230.36587 459.6265 229.85806 458.2528 229.85806 456.52103 curveto
229.85806 454.73067 230.33983 453.3114 231.30338 452.26321 curveto
232.27342 451.20854 233.57876 450.68119 235.21939 450.68118 curveto
236.69074 450.68119 237.85285 451.15645 238.70572 452.10696 curveto
239.56508 453.05098 239.99477 454.33679 239.99478 455.96439 curveto
238.19791 455.43704 moveto
238.18488 454.45398 237.90818 453.66947 237.36783 453.08353 curveto
236.83397 452.4976 236.12433 452.20463 235.23892 452.20462 curveto
234.23631 452.20463 233.43228 452.48783 232.82681 453.05423 curveto
232.22785 453.62064 231.8828 454.41817 231.79166 455.44681 curveto
238.19791 455.43704 lineto
fill
grestore
gsave
0 0 0 setrgbcolor
newpath
251.64517 450.94485 moveto
247.69009 456.26712 lineto
251.85025 461.88235 lineto
249.73111 461.88235 lineto
246.54752 457.58548 lineto
243.36392 461.88235 lineto
241.24478 461.88235 lineto
245.49283 456.1597 lineto
241.60611 450.94485 lineto
243.72525 450.94485 lineto
246.62564 454.84134 lineto
249.52603 450.94485 lineto
251.64517 450.94485 lineto
fill
grestore
gsave
0 0 0 setrgbcolor
newpath
261.90884 451.36478 moveto
261.90884 453.04446 lineto
261.40102 452.76453 260.88996 452.55619 260.37564 452.41946 curveto
259.86782 452.27624 259.3535 452.20463 258.83267 452.20462 curveto
257.6673 452.20463 256.76236 452.57572 256.11783 453.3179 curveto
255.47329 454.05359 255.15103 455.08874 255.15103 456.42337 curveto
255.15103 457.75801 255.47329 458.79642 256.11783 459.5386 curveto
256.76236 460.27428 257.6673 460.64212 258.83267 460.64212 curveto
259.3535 460.64212 259.86782 460.57376 260.37564 460.43704 curveto
260.88996 460.29381 261.40102 460.08223 261.90884 459.80228 curveto
261.90884 461.46243 lineto
261.40753 461.69681 260.8867 461.87259 260.34634 461.98978 curveto
259.81248 462.10696 259.24282 462.16556 258.63736 462.16556 curveto
256.99022 462.16556 255.68163 461.64798 254.71158 460.61282 curveto
253.74152 459.57767 253.2565 458.18119 253.2565 456.42337 curveto
253.2565 454.63952 253.74478 453.23653 254.72134 452.21439 curveto
255.70441 451.19226 257.04881 450.68119 258.75455 450.68118 curveto
259.30793 450.68119 259.84829 450.73979 260.37564 450.85696 curveto
260.90298 450.96765 261.41404 451.13692 261.90884 451.36478 curveto
fill
grestore
gsave
0 0 0 setrgbcolor
newpath
274.36978 455.96439 moveto
274.36978 456.84329 lineto
266.10806 456.84329 lineto
266.18618 458.08028 266.55728 459.02428 267.22134 459.67532 curveto
267.89191 460.31986 268.8229 460.64212 270.01431 460.64212 curveto
270.70441 460.64212 271.37173 460.55749 272.01627 460.38821 curveto
272.6673 460.21894 273.31183 459.96504 273.94986 459.6265 curveto
273.94986 461.32571 lineto
273.30532 461.59915 272.64451 461.80749 271.96744 461.95071 curveto
271.29035 462.09394 270.6035 462.16556 269.90689 462.16556 curveto
268.16209 462.16556 266.77863 461.65775 265.7565 460.64212 curveto
264.74087 459.6265 264.23306 458.2528 264.23306 456.52103 curveto
264.23306 454.73067 264.71483 453.3114 265.67838 452.26321 curveto
266.64842 451.20854 267.95376 450.68119 269.59439 450.68118 curveto
271.06574 450.68119 272.22785 451.15645 273.08072 452.10696 curveto
273.94008 453.05098 274.36977 454.33679 274.36978 455.96439 curveto
272.57291 455.43704 moveto
272.55988 454.45398 272.28318 453.66947 271.74283 453.08353 curveto
271.20897 452.4976 270.49933 452.20463 269.61392 452.20462 curveto
268.61131 452.20463 267.80728 452.48783 267.20181 453.05423 curveto
266.60285 453.62064 266.2578 454.41817 266.16666 455.44681 curveto
272.57291 455.43704 lineto
fill
grestore
gsave
0 0 0 setrgbcolor
newpath
279.01822 460.24173 moveto
279.01822 466.04251 lineto
277.21158 466.04251 lineto
277.21158 450.94485 lineto
279.01822 450.94485 lineto
279.01822 452.60501 lineto
279.39582 451.95398 279.87108 451.47221 280.444 451.1597 curveto
281.02342 450.8407 281.71353 450.68119 282.51431 450.68118 curveto
283.84243 450.68119 284.9199 451.20854 285.74673 452.26321 curveto
286.58006 453.31791 286.99672 454.70463 286.99673 456.42337 curveto
286.99672 458.14212 286.58006 459.52884 285.74673 460.58353 curveto
284.9199 461.63821 283.84243 462.16556 282.51431 462.16556 curveto
281.71353 462.16556 281.02342 462.00931 280.444 461.69681 curveto
279.87108 461.3778 279.39582 460.89277 279.01822 460.24173 curveto
285.1315 456.42337 moveto
285.13149 455.10176 284.85805 454.06661 284.31119 453.3179 curveto
283.77081 452.5627 283.02537 452.1851 282.07486 452.18509 curveto
281.12433 452.1851 280.37564 452.5627 279.82877 453.3179 curveto
279.2884 454.06661 279.01822 455.10176 279.01822 456.42337 curveto
279.01822 457.74499 279.2884 458.7834 279.82877 459.5386 curveto
280.37564 460.2873 281.12433 460.66165 282.07486 460.66165 curveto
283.02537 460.66165 283.77081 460.2873 284.31119 459.5386 curveto
284.85805 458.7834 285.13149 457.74499 285.1315 456.42337 curveto
fill
grestore
gsave
0 0 0 setrgbcolor
newpath
291.75259 447.83939 moveto
291.75259 450.94485 lineto
295.45377 450.94485 lineto
295.45377 452.34134 lineto
291.75259 452.34134 lineto
291.75259 458.27884 lineto
291.75259 459.17077 291.87303 459.74369 292.11392 459.99759 curveto
292.36131 460.2515 292.85936 460.37845 293.60806 460.37845 curveto
295.45377 460.37845 lineto
295.45377 461.88235 lineto
293.60806 461.88235 lineto
292.22134 461.88235 291.26431 461.62519 290.73697 461.11087 curveto
290.20962 460.59004 289.94595 459.64603 289.94595 458.27884 curveto
289.94595 452.34134 lineto
288.62759 452.34134 lineto
288.62759 450.94485 lineto
289.94595 450.94485 lineto
289.94595 447.83939 lineto
291.75259 447.83939 lineto
fill
grestore
gsave
0 0 0 setrgbcolor
newpath
297.82681 450.94485 moveto
299.62369 450.94485 lineto
299.62369 461.88235 lineto
297.82681 461.88235 lineto
297.82681 450.94485 lineto
297.82681 446.68704 moveto
299.62369 446.68704 lineto
299.62369 448.96243 lineto
297.82681 448.96243 lineto
297.82681 446.68704 lineto
fill
grestore
gsave
0 0 0 setrgbcolor
newpath
307.61197 452.20462 moveto
306.64842 452.20463 305.8867 452.58223 305.32681 453.33743 curveto
304.76691 454.08614 304.48697 455.11478 304.48697 456.42337 curveto
304.48697 457.73197 304.76366 458.76387 305.31705 459.51907 curveto
305.87694 460.26777 306.64191 460.64212 307.61197 460.64212 curveto
308.56899 460.64212 309.32746 460.26452 309.88736 459.50931 curveto
310.44725 458.7541 310.72719 457.72546 310.7272 456.42337 curveto
310.72719 455.1278 310.44725 454.10241 309.88736 453.3472 curveto
309.32746 452.58549 308.56899 452.20463 307.61197 452.20462 curveto
307.61197 450.68118 moveto
309.17446 450.68119 310.40167 451.18901 311.29361 452.20462 curveto
312.18553 453.22025 312.63149 454.6265 312.6315 456.42337 curveto
312.63149 458.21374 312.18553 459.61999 311.29361 460.64212 curveto
310.40167 461.65775 309.17446 462.16556 307.61197 462.16556 curveto
306.04295 462.16556 304.81249 461.65775 303.92056 460.64212 curveto
303.03514 459.61999 302.59244 458.21374 302.59244 456.42337 curveto
302.59244 454.6265 303.03514 453.22025 303.92056 452.20462 curveto
304.81249 451.18901 306.04295 450.68119 307.61197 450.68118 curveto
fill
grestore
gsave
0 0 0 setrgbcolor
newpath
324.69205 455.28079 moveto
324.69205 461.88235 lineto
322.89517 461.88235 lineto
322.89517 455.33939 lineto
322.89516 454.30424 322.69334 453.5295 322.2897 453.01517 curveto
321.88605 452.50085 321.28058 452.24369 320.4733 452.24368 curveto
319.50324 452.24369 318.73827 452.55294 318.17838 453.17142 curveto
317.61848 453.78991 317.33853 454.63301 317.33853 455.70071 curveto
317.33853 461.88235 lineto
315.53189 461.88235 lineto
315.53189 450.94485 lineto
317.33853 450.94485 lineto
317.33853 452.64407 lineto
317.76821 451.98653 318.27277 451.495 318.8522 451.16946 curveto
319.43814 450.84395 320.11196 450.68119 320.87369 450.68118 curveto
322.13019 450.68119 323.08071 451.07182 323.72525 451.85306 curveto
324.36977 452.62781 324.69204 453.77038 324.69205 455.28079 curveto
fill
grestore
gsave
1 0 0 setrgbcolor
newpath
239.99478 481.2182 moveto
239.99478 482.09711 lineto
231.73306 482.09711 lineto
231.81118 483.33409 232.18228 484.2781 232.84634 484.92914 curveto
233.51691 485.57367 234.4479 485.89594 235.63931 485.89594 curveto
236.32941 485.89594 236.99673 485.8113 237.64127 485.64203 curveto
238.2923 485.47276 238.93683 485.21885 239.57486 484.88031 curveto
239.57486 486.57953 lineto
238.93032 486.85297 238.26951 487.0613 237.59244 487.20453 curveto
236.91535 487.34776 236.2285 487.41937 235.53189 487.41937 curveto
233.78709 487.41937 232.40363 486.91156 231.3815 485.89594 curveto
230.36587 484.88031 229.85806 483.50662 229.85806 481.77484 curveto
229.85806 479.98448 230.33983 478.56521 231.30338 477.51703 curveto
232.27342 476.46235 233.57876 475.93501 235.21939 475.935 curveto
236.69074 475.93501 237.85285 476.41027 238.70572 477.36078 curveto
239.56508 478.3048 239.99477 479.5906 239.99478 481.2182 curveto
238.19791 480.69086 moveto
238.18488 479.70779 237.90818 478.92329 237.36783 478.33734 curveto
236.83397 477.75141 236.12433 477.45844 235.23892 477.45844 curveto
234.23631 477.45844 233.43228 477.74165 232.82681 478.30804 curveto
232.22785 478.87446 231.8828 479.67198 231.79166 480.70062 curveto
238.19791 480.69086 lineto
fill
grestore
gsave
1 0 0 setrgbcolor
newpath
251.64517 476.19867 moveto
247.69009 481.52094 lineto
251.85025 487.13617 lineto
249.73111 487.13617 lineto
246.54752 482.83929 lineto
243.36392 487.13617 lineto
241.24478 487.13617 lineto
245.49283 481.41351 lineto
241.60611 476.19867 lineto
243.72525 476.19867 lineto
246.62564 480.09515 lineto
249.52603 476.19867 lineto
251.64517 476.19867 lineto
fill
grestore
gsave
1 0 0 setrgbcolor
newpath
263.11978 481.2182 moveto
263.11978 482.09711 lineto
254.85806 482.09711 lineto
254.93618 483.33409 255.30728 484.2781 255.97134 484.92914 curveto
256.64191 485.57367 257.5729 485.89594 258.76431 485.89594 curveto
259.45441 485.89594 260.12173 485.8113 260.76627 485.64203 curveto
261.4173 485.47276 262.06183 485.21885 262.69986 484.88031 curveto
262.69986 486.57953 lineto
262.05532 486.85297 261.39451 487.0613 260.71744 487.20453 curveto
260.04035 487.34776 259.3535 487.41937 258.65689 487.41937 curveto
256.91209 487.41937 255.52863 486.91156 254.5065 485.89594 curveto
253.49087 484.88031 252.98306 483.50662 252.98306 481.77484 curveto
252.98306 479.98448 253.46483 478.56521 254.42838 477.51703 curveto
255.39842 476.46235 256.70376 475.93501 258.34439 475.935 curveto
259.81574 475.93501 260.97785 476.41027 261.83072 477.36078 curveto
262.69008 478.3048 263.11977 479.5906 263.11978 481.2182 curveto
261.32291 480.69086 moveto
261.30988 479.70779 261.03318 478.92329 260.49283 478.33734 curveto
259.95897 477.75141 259.24933 477.45844 258.36392 477.45844 curveto
257.36131 477.45844 256.55728 477.74165 255.95181 478.30804 curveto
255.35285 478.87446 255.0078 479.67198 254.91666 480.70062 curveto
261.32291 480.69086 lineto
fill
grestore
gsave
1 0 0 setrgbcolor
newpath
273.90103 476.61859 moveto
273.90103 478.29828 lineto
273.39321 478.01834 272.88214 477.81001 272.36783 477.67328 curveto
271.86001 477.53006 271.34569 477.45844 270.82486 477.45844 curveto
269.65949 477.45844 268.75454 477.82954 268.11002 478.57172 curveto
267.46548 479.3074 267.14322 480.34256 267.14322 481.67719 curveto
267.14322 483.01182 267.46548 484.05024 268.11002 484.79242 curveto
268.75454 485.5281 269.65949 485.89594 270.82486 485.89594 curveto
271.34569 485.89594 271.86001 485.82758 272.36783 485.69086 curveto
272.88214 485.54763 273.39321 485.33604 273.90103 485.05609 curveto
273.90103 486.71625 lineto
273.39972 486.95062 272.87889 487.1264 272.33853 487.24359 curveto
271.80467 487.36078 271.23501 487.41937 270.62955 487.41937 curveto
268.98241 487.41937 267.67381 486.90179 266.70377 485.86664 curveto
265.73371 484.83148 265.24869 483.435 265.24869 481.67719 curveto
265.24869 479.89334 265.73697 478.49034 266.71353 477.4682 curveto
267.6966 476.44608 269.041 475.93501 270.74673 475.935 curveto
271.30011 475.93501 271.84048 475.9936 272.36783 476.11078 curveto
272.89516 476.22147 273.40623 476.39074 273.90103 476.61859 curveto
fill
grestore
gsave
1 0 0 setrgbcolor
newpath
276.82095 482.81976 moveto
276.82095 476.19867 lineto
278.61783 476.19867 lineto
278.61783 482.7514 lineto
278.61782 483.78656 278.81965 484.56456 279.2233 485.08539 curveto
279.62694 485.59971 280.23241 485.85687 281.0397 485.85687 curveto
282.00975 485.85687 282.77472 485.54763 283.33463 484.92914 curveto
283.90102 484.31065 284.18423 483.46755 284.18423 482.39984 curveto
284.18423 476.19867 lineto
285.98111 476.19867 lineto
285.98111 487.13617 lineto
284.18423 487.13617 lineto
284.18423 485.45648 lineto
283.74803 486.12055 283.24022 486.61534 282.6608 486.94086 curveto
282.08787 487.25987 281.42056 487.41937 280.65884 487.41937 curveto
279.40233 487.41937 278.44855 487.02875 277.79752 486.2475 curveto
277.14647 485.46625 276.82095 484.32367 276.82095 482.81976 curveto
fill
grestore
gsave
1 0 0 setrgbcolor
newpath
291.47916 473.0932 moveto
291.47916 476.19867 lineto
295.18033 476.19867 lineto
295.18033 477.59515 lineto
291.47916 477.59515 lineto
291.47916 483.53265 lineto
291.47915 484.42458 291.5996 484.9975 291.84048 485.2514 curveto
292.08788 485.50531 292.58592 485.63226 293.33463 485.63226 curveto
295.18033 485.63226 lineto
295.18033 487.13617 lineto
293.33463 487.13617 lineto
291.9479 487.13617 290.99087 486.87901 290.46353 486.36469 curveto
289.93619 485.84385 289.67251 484.89984 289.67252 483.53265 curveto
289.67252 477.59515 lineto
288.35416 477.59515 lineto
288.35416 476.19867 lineto
289.67252 476.19867 lineto
289.67252 473.0932 lineto
291.47916 473.0932 lineto
fill
grestore
gsave
1 0 0 setrgbcolor
newpath
297.55338 476.19867 moveto
299.35025 476.19867 lineto
299.35025 487.13617 lineto
297.55338 487.13617 lineto
297.55338 476.19867 lineto
297.55338 471.94086 moveto
299.35025 471.94086 lineto
299.35025 474.21625 lineto
297.55338 474.21625 lineto
297.55338 471.94086 lineto
fill
grestore
gsave
1 0 0 setrgbcolor
newpath
307.33853 477.45844 moveto
306.37498 477.45844 305.61327 477.83605 305.05338 478.59125 curveto
304.49348 479.33995 304.21353 480.3686 304.21353 481.67719 curveto
304.21353 482.98578 304.49022 484.01768 305.04361 484.77289 curveto
305.6035 485.52159 306.36847 485.89594 307.33853 485.89594 curveto
308.29556 485.89594 309.05402 485.51833 309.61392 484.76312 curveto
310.17381 484.00792 310.45376 482.97927 310.45377 481.67719 curveto
310.45376 480.38162 310.17381 479.35623 309.61392 478.60101 curveto
309.05402 477.8393 308.29556 477.45844 307.33853 477.45844 curveto
307.33853 475.935 moveto
308.90102 475.93501 310.12824 476.44282 311.02017 477.45844 curveto
311.91209 478.47407 312.35805 479.88032 312.35806 481.67719 curveto
312.35805 483.46755 311.91209 484.8738 311.02017 485.89594 curveto
310.12824 486.91156 308.90102 487.41937 307.33853 487.41937 curveto
305.76952 487.41937 304.53905 486.91156 303.64713 485.89594 curveto
302.76171 484.8738 302.319 483.46755 302.319 481.67719 curveto
302.319 479.88032 302.76171 478.47407 303.64713 477.45844 curveto
304.53905 476.44282 305.76952 475.93501 307.33853 475.935 curveto
fill
grestore
gsave
1 0 0 setrgbcolor
newpath
324.41861 480.53461 moveto
324.41861 487.13617 lineto
322.62173 487.13617 lineto
322.62173 480.5932 lineto
322.62173 479.55805 322.4199 478.78331 322.01627 478.26898 curveto
321.61261 477.75467 321.00714 477.49751 320.19986 477.4975 curveto
319.2298 477.49751 318.46483 477.80675 317.90494 478.42523 curveto
317.34504 479.04373 317.06509 479.88683 317.06509 480.95453 curveto
317.06509 487.13617 lineto
315.25845 487.13617 lineto
315.25845 476.19867 lineto
317.06509 476.19867 lineto
317.06509 477.89789 lineto
317.49478 477.24035 317.99933 476.74881 318.57877 476.42328 curveto
319.1647 476.09777 319.83853 475.93501 320.60025 475.935 curveto
321.85675 475.93501 322.80727 476.32563 323.45181 477.10687 curveto
324.09633 477.88162 324.4186 479.0242 324.41861 480.53461 curveto
fill
grestore
gsave
0.85882354 0 0 setrgbcolor
newpath
231.28198 269.3252 moveto
232.71948 269.3252 lineto
232.71948 278.23145 lineto
232.71948 279.34603 232.50594 280.15332 232.07886 280.65332 curveto
231.65698 281.15332 230.97469 281.40332 230.03198 281.40332 curveto
229.48511 281.40332 lineto
229.48511 280.18457 lineto
229.86792 280.18457 lineto
230.41479 280.18457 230.78719 280.05696 230.98511 279.80176 curveto
231.18302 279.55176 231.28198 279.02832 231.28198 278.23145 curveto
231.28198 269.3252 lineto
231.28198 265.91895 moveto
232.71948 265.91895 lineto
232.71948 267.73926 lineto
231.28198 267.73926 lineto
231.28198 265.91895 lineto
fill
grestore
gsave
0.85882354 0 0 setrgbcolor
newpath
235.57104 274.62207 moveto
235.57104 269.3252 lineto
237.00854 269.3252 lineto
237.00854 274.56738 lineto
237.00854 275.39551 237.17 276.01791 237.49292 276.43457 curveto
237.81583 276.84603 238.30021 277.05176 238.94604 277.05176 curveto
239.72208 277.05176 240.33406 276.80436 240.78198 276.30957 curveto
241.2351 275.81478 241.46166 275.1403 241.46167 274.28613 curveto
241.46167 269.3252 lineto
242.89917 269.3252 lineto
242.89917 278.0752 lineto
241.46167 278.0752 lineto
241.46167 276.73145 lineto
241.1127 277.2627 240.70646 277.65853 240.24292 277.91895 curveto
239.78458 278.17415 239.25073 278.30176 238.64136 278.30176 curveto
237.63615 278.30176 236.87313 277.98926 236.35229 277.36426 curveto
235.83146 276.73926 235.57104 275.8252 235.57104 274.62207 curveto
fill
grestore
gsave
0.85882354 0 0 setrgbcolor
newpath
252.68823 271.00488 moveto
253.0476 270.35906 253.47729 269.8825 253.97729 269.5752 curveto
254.47728 269.26791 255.06583 269.11427 255.74292 269.11426 curveto
256.65437 269.11427 257.35749 269.43458 257.85229 270.0752 curveto
258.34707 270.71062 258.59447 271.61687 258.59448 272.79395 curveto
258.59448 278.0752 lineto
257.14917 278.0752 lineto
257.14917 272.84082 lineto
257.14916 272.00228 257.00072 271.37989 256.70386 270.97363 curveto
256.40697 270.56739 255.95385 270.36427 255.34448 270.36426 curveto
254.59968 270.36427 254.01114 270.61166 253.57886 271.10645 curveto
253.14656 271.60124 252.93041 272.27572 252.93042 273.12988 curveto
252.93042 278.0752 lineto
251.48511 278.0752 lineto
251.48511 272.84082 lineto
251.4851 271.99708 251.33666 271.37468 251.03979 270.97363 curveto
250.74291 270.56739 250.28458 270.36427 249.66479 270.36426 curveto
248.93042 270.36427 248.34708 270.61427 247.91479 271.11426 curveto
247.4825 271.60906 247.26635 272.28093 247.26636 273.12988 curveto
247.26636 278.0752 lineto
245.82104 278.0752 lineto
245.82104 269.3252 lineto
247.26636 269.3252 lineto
247.26636 270.68457 lineto
247.59448 270.14812 247.98771 269.75229 248.44604 269.49707 curveto
248.90437 269.24187 249.44864 269.11427 250.07886 269.11426 curveto
250.71427 269.11427 251.25333 269.27572 251.69604 269.59863 curveto
252.14395 269.92156 252.47468 270.39031 252.68823 271.00488 curveto
fill
grestore
gsave
0.85882354 0 0 setrgbcolor
newpath
262.82886 276.7627 moveto
262.82886 281.40332 lineto
261.38354 281.40332 lineto
261.38354 269.3252 lineto
262.82886 269.3252 lineto
262.82886 270.65332 lineto
263.13094 270.13249 263.51115 269.74708 263.96948 269.49707 curveto
264.43302 269.24187 264.9851 269.11427 265.62573 269.11426 curveto
266.68823 269.11427 267.5502 269.53614 268.21167 270.37988 curveto
268.87833 271.22364 269.21166 272.33301 269.21167 273.70801 curveto
269.21166 275.08301 268.87833 276.19238 268.21167 277.03613 curveto
267.5502 277.87988 266.68823 278.30176 265.62573 278.30176 curveto
264.9851 278.30176 264.43302 278.17676 263.96948 277.92676 curveto
263.51115 277.67155 263.13094 277.28353 262.82886 276.7627 curveto
267.71948 273.70801 moveto
267.71947 272.65072 267.50072 271.8226 267.06323 271.22363 curveto
266.63093 270.61947 266.03458 270.31739 265.27417 270.31738 curveto
264.51375 270.31739 263.91479 270.61947 263.47729 271.22363 curveto
263.045 271.8226 262.82885 272.65072 262.82886 273.70801 curveto
262.82885 274.7653 263.045 275.59603 263.47729 276.2002 curveto
263.91479 276.79915 264.51375 277.09863 265.27417 277.09863 curveto
266.03458 277.09863 266.63093 276.79915 267.06323 276.2002 curveto
267.50072 275.59603 267.71947 274.7653 267.71948 273.70801 curveto
fill
grestore
gsave
0.85882354 0 0 setrgbcolor
newpath
233.15698 361.06509 moveto
233.15698 363.54947 lineto
236.11792 363.54947 lineto
236.11792 364.66666 lineto
233.15698 364.66666 lineto
233.15698 369.41666 lineto
233.15698 370.1302 233.25333 370.58853 233.44604 370.79166 curveto
233.64396 370.99478 234.0424 371.09635 234.64136 371.09634 curveto
236.11792 371.09634 lineto
236.11792 372.29947 lineto
234.64136 372.29947 lineto
233.53198 372.29947 232.76635 372.09374 232.34448 371.68228 curveto
231.92261 371.26562 231.71167 370.51041 231.71167 369.41666 curveto
231.71167 364.66666 lineto
230.65698 364.66666 lineto
230.65698 363.54947 lineto
231.71167 363.54947 lineto
231.71167 361.06509 lineto
233.15698 361.06509 lineto
fill
grestore
gsave
0.85882354 0 0 setrgbcolor
newpath
245.28979 367.01822 moveto
245.28979 372.29947 lineto
243.85229 372.29947 lineto
243.85229 367.06509 lineto
243.85229 366.23698 243.69083 365.61718 243.36792 365.20572 curveto
243.045 364.79427 242.56062 364.58854 241.91479 364.58853 curveto
241.13875 364.58854 240.52677 364.83593 240.07886 365.33072 curveto
239.63094 365.82552 239.40698 366.5 239.40698 367.35416 curveto
239.40698 372.29947 lineto
237.96167 372.29947 lineto
237.96167 360.14322 lineto
239.40698 360.14322 lineto
239.40698 364.90884 lineto
239.75073 364.38281 240.15437 363.98958 240.61792 363.72916 curveto
241.08667 363.46875 241.62573 363.33854 242.23511 363.33853 curveto
243.24031 363.33854 244.00072 363.65104 244.51636 364.27603 curveto
245.03197 364.89583 245.28979 365.80989 245.28979 367.01822 curveto
fill
grestore
gsave
0.85882354 0 0 setrgbcolor
newpath
253.24292 364.89322 moveto
253.08146 364.79948 252.90437 364.73177 252.71167 364.69009 curveto
252.52416 364.64323 252.31583 364.61979 252.08667 364.61978 curveto
251.27417 364.61979 250.64917 364.88541 250.21167 365.41666 curveto
249.77938 365.9427 249.56323 366.70052 249.56323 367.69009 curveto
249.56323 372.29947 lineto
248.11792 372.29947 lineto
248.11792 363.54947 lineto
249.56323 363.54947 lineto
249.56323 364.90884 lineto
249.86531 364.3776 250.25854 363.98437 250.74292 363.72916 curveto
251.22729 363.46875 251.81583 363.33854 252.50854 363.33853 curveto
252.6075 363.33854 252.71687 363.34635 252.83667 363.36197 curveto
252.95646 363.37239 253.08927 363.39062 253.23511 363.41666 curveto
253.24292 364.89322 lineto
fill
grestore
gsave
0.85882354 0 0 setrgbcolor
newpath
257.81323 364.55728 moveto
257.04239 364.55729 256.43302 364.85937 255.98511 365.46353 curveto
255.53719 366.0625 255.31323 366.88541 255.31323 367.93228 curveto
255.31323 368.97916 255.53458 369.80468 255.97729 370.40884 curveto
256.42521 371.0078 257.03719 371.30728 257.81323 371.30728 curveto
258.57885 371.30728 259.18562 371.0052 259.63354 370.40103 curveto
260.08145 369.79687 260.30541 368.97395 260.30542 367.93228 curveto
260.30541 366.89583 260.08145 366.07552 259.63354 365.47134 curveto
259.18562 364.86198 258.57885 364.55729 257.81323 364.55728 curveto
257.81323 363.33853 moveto
259.06323 363.33854 260.045 363.74479 260.75854 364.55728 curveto
261.47208 365.36979 261.82885 366.49479 261.82886 367.93228 curveto
261.82885 369.36458 261.47208 370.48957 260.75854 371.30728 curveto
260.045 372.11978 259.06323 372.52603 257.81323 372.52603 curveto
256.55802 372.52603 255.57365 372.11978 254.86011 371.30728 curveto
254.15177 370.48957 253.79761 369.36458 253.79761 367.93228 curveto
253.79761 366.49479 254.15177 365.36979 254.86011 364.55728 curveto
255.57365 363.74479 256.55802 363.33854 257.81323 363.33853 curveto
fill
grestore
gsave
0.85882354 0 0 setrgbcolor
newpath
263.36792 363.54947 moveto
264.80542 363.54947 lineto
266.60229 370.37759 lineto
268.39136 363.54947 lineto
270.08667 363.54947 lineto
271.88354 370.37759 lineto
273.67261 363.54947 lineto
275.11011 363.54947 lineto
272.82104 372.29947 lineto
271.12573 372.29947 lineto
269.24292 365.12759 lineto
267.35229 372.29947 lineto
265.65698 372.29947 lineto
263.36792 363.54947 lineto
fill
grestore
gsave
0.85882354 0 0 setrgbcolor
newpath
239.21948 387.56509 moveto
239.21948 388.26822 lineto
232.61011 388.26822 lineto
232.6726 389.25781 232.96948 390.01301 233.50073 390.53384 curveto
234.03719 391.04947 234.78198 391.30728 235.73511 391.30728 curveto
236.28718 391.30728 236.82104 391.23957 237.33667 391.10416 curveto
237.8575 390.96874 238.37312 390.76562 238.88354 390.49478 curveto
238.88354 391.85416 lineto
238.36791 392.07291 237.83927 392.23957 237.29761 392.35416 curveto
236.75593 392.46874 236.20646 392.52603 235.64917 392.52603 curveto
234.25333 392.52603 233.14656 392.11978 232.32886 391.30728 curveto
231.51636 390.49478 231.11011 389.39583 231.11011 388.01041 curveto
231.11011 386.57812 231.49552 385.44271 232.26636 384.60416 curveto
233.0424 383.76042 234.08667 383.33854 235.39917 383.33853 curveto
236.57625 383.33854 237.50593 383.71875 238.18823 384.47916 curveto
238.87572 385.23437 239.21947 386.26302 239.21948 387.56509 curveto
237.78198 387.14322 moveto
237.77156 386.35677 237.5502 385.72916 237.11792 385.26041 curveto
236.69083 384.79166 236.12312 384.55729 235.41479 384.55728 curveto
234.61271 384.55729 233.96948 384.78385 233.48511 385.23697 curveto
233.00594 385.6901 232.7299 386.32812 232.65698 387.15103 curveto
237.78198 387.14322 lineto
fill
grestore
gsave
0.85882354 0 0 setrgbcolor
newpath
248.53979 383.54947 moveto
245.37573 387.80728 lineto
248.70386 392.29947 lineto
247.00854 392.29947 lineto
244.46167 388.86197 lineto
241.91479 392.29947 lineto
240.21948 392.29947 lineto
243.61792 387.72134 lineto
240.50854 383.54947 lineto
242.20386 383.54947 lineto
244.52417 386.66666 lineto
246.84448 383.54947 lineto
248.53979 383.54947 lineto
fill
grestore
gsave
0.85882354 0 0 setrgbcolor
newpath
256.75073 383.88541 moveto
256.75073 385.22916 lineto
256.34448 385.00521 255.93562 384.83854 255.52417 384.72916 curveto
255.11791 384.61458 254.70646 384.55729 254.28979 384.55728 curveto
253.3575 384.55729 252.63354 384.85416 252.11792 385.44791 curveto
251.60229 386.03645 251.34448 386.86458 251.34448 387.93228 curveto
251.34448 388.99999 251.60229 389.83072 252.11792 390.42447 curveto
252.63354 391.01301 253.3575 391.30728 254.28979 391.30728 curveto
254.70646 391.30728 255.11791 391.2526 255.52417 391.14322 curveto
255.93562 391.02864 256.34448 390.85937 256.75073 390.63541 curveto
256.75073 391.96353 lineto
256.34968 392.15103 255.93302 392.29166 255.50073 392.38541 curveto
255.07364 392.47916 254.61791 392.52603 254.13354 392.52603 curveto
252.81583 392.52603 251.76896 392.11197 250.99292 391.28384 curveto
250.21688 390.45572 249.82886 389.33853 249.82886 387.93228 curveto
249.82886 386.5052 250.21948 385.38281 251.00073 384.56509 curveto
251.78719 383.74739 252.86271 383.33854 254.22729 383.33853 curveto
254.67 383.33854 255.10229 383.38542 255.52417 383.47916 curveto
255.94604 383.56771 256.35489 383.70312 256.75073 383.88541 curveto
fill
grestore
gsave
0.85882354 0 0 setrgbcolor
newpath
266.71948 387.56509 moveto
266.71948 388.26822 lineto
260.11011 388.26822 lineto
260.1726 389.25781 260.46948 390.01301 261.00073 390.53384 curveto
261.53719 391.04947 262.28198 391.30728 263.23511 391.30728 curveto
263.78718 391.30728 264.32104 391.23957 264.83667 391.10416 curveto
265.3575 390.96874 265.87312 390.76562 266.38354 390.49478 curveto
266.38354 391.85416 lineto
265.86791 392.07291 265.33927 392.23957 264.79761 392.35416 curveto
264.25593 392.46874 263.70646 392.52603 263.14917 392.52603 curveto
261.75333 392.52603 260.64656 392.11978 259.82886 391.30728 curveto
259.01636 390.49478 258.61011 389.39583 258.61011 388.01041 curveto
258.61011 386.57812 258.99552 385.44271 259.76636 384.60416 curveto
260.5424 383.76042 261.58667 383.33854 262.89917 383.33853 curveto
264.07625 383.33854 265.00593 383.71875 265.68823 384.47916 curveto
266.37572 385.23437 266.71947 386.26302 266.71948 387.56509 curveto
265.28198 387.14322 moveto
265.27156 386.35677 265.0502 385.72916 264.61792 385.26041 curveto
264.19083 384.79166 263.62312 384.55729 262.91479 384.55728 curveto
262.11271 384.55729 261.46948 384.78385 260.98511 385.23697 curveto
260.50594 385.6901 260.2299 386.32812 260.15698 387.15103 curveto
265.28198 387.14322 lineto
fill
grestore
gsave
0.85882354 0 0 setrgbcolor
newpath
270.43823 390.98697 moveto
270.43823 395.62759 lineto
268.99292 395.62759 lineto
268.99292 383.54947 lineto
270.43823 383.54947 lineto
270.43823 384.87759 lineto
270.74031 384.35677 271.12052 383.97135 271.57886 383.72134 curveto
272.04239 383.46614 272.59448 383.33854 273.23511 383.33853 curveto
274.2976 383.33854 275.15958 383.76042 275.82104 384.60416 curveto
276.4877 385.44791 276.82104 386.55729 276.82104 387.93228 curveto
276.82104 389.30728 276.4877 390.41666 275.82104 391.26041 curveto
275.15958 392.10416 274.2976 392.52603 273.23511 392.52603 curveto
272.59448 392.52603 272.04239 392.40103 271.57886 392.15103 curveto
271.12052 391.89582 270.74031 391.5078 270.43823 390.98697 curveto
275.32886 387.93228 moveto
275.32885 386.875 275.1101 386.04687 274.67261 385.44791 curveto
274.24031 384.84375 273.64396 384.54166 272.88354 384.54166 curveto
272.12312 384.54166 271.52417 384.84375 271.08667 385.44791 curveto
270.65438 386.04687 270.43823 386.875 270.43823 387.93228 curveto
270.43823 388.98958 270.65438 389.8203 271.08667 390.42447 curveto
271.52417 391.02343 272.12312 391.32291 272.88354 391.32291 curveto
273.64396 391.32291 274.24031 391.02343 274.67261 390.42447 curveto
275.1101 389.8203 275.32885 388.98958 275.32886 387.93228 curveto
fill
grestore
gsave
0.85882354 0 0 setrgbcolor
newpath
280.62573 381.06509 moveto
280.62573 383.54947 lineto
283.58667 383.54947 lineto
283.58667 384.66666 lineto
280.62573 384.66666 lineto
280.62573 389.41666 lineto
280.62573 390.1302 280.72208 390.58853 280.91479 390.79166 curveto
281.11271 390.99478 281.51115 391.09635 282.11011 391.09634 curveto
283.58667 391.09634 lineto
283.58667 392.29947 lineto
282.11011 392.29947 lineto
281.00073 392.29947 280.2351 392.09374 279.81323 391.68228 curveto
279.39136 391.26562 279.18042 390.51041 279.18042 389.41666 curveto
279.18042 384.66666 lineto
278.12573 384.66666 lineto
278.12573 383.54947 lineto
279.18042 383.54947 lineto
279.18042 381.06509 lineto
280.62573 381.06509 lineto
fill
grestore
gsave
0.85882354 0 0 setrgbcolor
newpath
285.48511 383.54947 moveto
286.92261 383.54947 lineto
286.92261 392.29947 lineto
285.48511 392.29947 lineto
285.48511 383.54947 lineto
285.48511 380.14322 moveto
286.92261 380.14322 lineto
286.92261 381.96353 lineto
285.48511 381.96353 lineto
285.48511 380.14322 lineto
fill
grestore
gsave
0.85882354 0 0 setrgbcolor
newpath
293.31323 384.55728 moveto
292.54239 384.55729 291.93302 384.85937 291.48511 385.46353 curveto
291.03719 386.0625 290.81323 386.88541 290.81323 387.93228 curveto
290.81323 388.97916 291.03458 389.80468 291.47729 390.40884 curveto
291.92521 391.0078 292.53719 391.30728 293.31323 391.30728 curveto
294.07885 391.30728 294.68562 391.0052 295.13354 390.40103 curveto
295.58145 389.79687 295.80541 388.97395 295.80542 387.93228 curveto
295.80541 386.89583 295.58145 386.07552 295.13354 385.47134 curveto
294.68562 384.86198 294.07885 384.55729 293.31323 384.55728 curveto
293.31323 383.33853 moveto
294.56323 383.33854 295.545 383.74479 296.25854 384.55728 curveto
296.97208 385.36979 297.32885 386.49479 297.32886 387.93228 curveto
297.32885 389.36458 296.97208 390.48957 296.25854 391.30728 curveto
295.545 392.11978 294.56323 392.52603 293.31323 392.52603 curveto
292.05802 392.52603 291.07365 392.11978 290.36011 391.30728 curveto
289.65177 390.48957 289.29761 389.36458 289.29761 387.93228 curveto
289.29761 386.49479 289.65177 385.36979 290.36011 384.55728 curveto
291.07365 383.74479 292.05802 383.33854 293.31323 383.33853 curveto
fill
grestore
gsave
0.85882354 0 0 setrgbcolor
newpath
306.97729 387.01822 moveto
306.97729 392.29947 lineto
305.53979 392.29947 lineto
305.53979 387.06509 lineto
305.53979 386.23698 305.37833 385.61718 305.05542 385.20572 curveto
304.7325 384.79427 304.24812 384.58854 303.60229 384.58853 curveto
302.82625 384.58854 302.21427 384.83593 301.76636 385.33072 curveto
301.31844 385.82552 301.09448 386.5 301.09448 387.35416 curveto
301.09448 392.29947 lineto
299.64917 392.29947 lineto
299.64917 383.54947 lineto
301.09448 383.54947 lineto
301.09448 384.90884 lineto
301.43823 384.38281 301.84187 383.98958 302.30542 383.72916 curveto
302.77417 383.46875 303.31323 383.33854 303.92261 383.33853 curveto
304.92781 383.33854 305.68822 383.65104 306.20386 384.27603 curveto
306.71947 384.89583 306.97729 385.80989 306.97729 387.01822 curveto
fill
grestore
gsave [1 0 0 1 24.794424 52.821315] concat
0 0 0 setrgbcolor
[12 12] 0 setdash
1 setlinewidth
0 setlinejoin
0 setlinecap
newpath
18.182746 4.0304669 moveto
18.182746 201.01021 lineto
stroke
gsave [-4.8984254e-17 -0.8 0.8 -4.8984254e-17 18.182746 191.01021] concat
gsave
0 0 0 setrgbcolor
newpath
0 0 moveto
5 -5 lineto
-12.5 0 lineto
5 5 lineto
0 0 lineto
closepath
eofill
grestore
0 0 0 setrgbcolor
[] 0 setdash
1.25 setlinewidth
0 setlinejoin
0 setlinecap
newpath
0 0 moveto
5 -5 lineto
-12.5 0 lineto
5 5 lineto
0 0 lineto
closepath
stroke
grestore
grestore
gsave [1 0 0 1 24.794424 52.821315] concat
0 0 0 setrgbcolor
[12 12] 0 setdash
1 setlinewidth
0 setlinejoin
0 setlinecap
newpath
159.6041 322.22852 moveto
20.203051 322.22852 lineto
stroke
gsave [0.8 -9.7968508e-17 9.7968508e-17 0.8 30.203051 322.22852] concat
gsave
0 0 0 setrgbcolor
newpath
0 0 moveto
5 -5 lineto
-12.5 0 lineto
5 5 lineto
0 0 lineto
closepath
eofill
grestore
0 0 0 setrgbcolor
[] 0 setdash
1.25 setlinewidth
0 setlinejoin
0 setlinecap
newpath
0 0 moveto
5 -5 lineto
-12.5 0 lineto
5 5 lineto
0 0 lineto
closepath
stroke
grestore
grestore
gsave [1 0 0 1 24.794424 52.821315] concat
0 0 0 setrgbcolor
[12 12] 0 setdash
1 setlinewidth
0 setlinejoin
0 setlinecap
newpath
18.182746 332.33004 moveto
18.182746 476.78186 lineto
stroke
gsave [-4.8984254e-17 -0.8 0.8 -4.8984254e-17 18.182746 466.78186] concat
gsave
0 0 0 setrgbcolor
newpath
0 0 moveto
5 -5 lineto
-12.5 0 lineto
5 5 lineto
0 0 lineto
closepath
eofill
grestore
0 0 0 setrgbcolor
[] 0 setdash
1.25 setlinewidth
0 setlinejoin
0 setlinecap
newpath
0 0 moveto
5 -5 lineto
-12.5 0 lineto
5 5 lineto
0 0 lineto
closepath
stroke
grestore
grestore
gsave [1 0 0 1 24.794424 52.821315] concat
0 0 0 setrgbcolor
[12 12] 0 setdash
1 setlinewidth
0 setlinejoin
0 setlinecap
newpath
167.68532 209.09143 moveto
167.68532 322.22853 lineto
stroke
gsave [-4.8984254e-17 -0.8 0.8 -4.8984254e-17 167.68532 312.22853] concat
gsave
0 0 0 setrgbcolor
newpath
0 0 moveto
5 -5 lineto
-12.5 0 lineto
5 5 lineto
0 0 lineto
closepath
eofill
grestore
0 0 0 setrgbcolor
[] 0 setdash
1.25 setlinewidth
0 setlinejoin
0 setlinecap
newpath
0 0 moveto
5 -5 lineto
-12.5 0 lineto
5 5 lineto
0 0 lineto
closepath
stroke
grestore
grestore
grestore
grestore
showpage
%%EOF
