<?xml version="1.0" encoding="UTF-8" standalone="no"?>
<!-- Created with Inkscape (http://www.inkscape.org/) -->
<svg
   xmlns:dc="http://purl.org/dc/elements/1.1/"
   xmlns:cc="http://creativecommons.org/ns#"
   xmlns:rdf="http://www.w3.org/1999/02/22-rdf-syntax-ns#"
   xmlns:svg="http://www.w3.org/2000/svg"
   xmlns="http://www.w3.org/2000/svg"
   xmlns:sodipodi="http://sodipodi.sourceforge.net/DTD/sodipodi-0.dtd"
   xmlns:inkscape="http://www.inkscape.org/namespaces/inkscape"
   width="317.71429"
   height="305.87445"
   id="svg2"
   sodipodi:version="0.32"
   inkscape:version="0.46"
   version="1.0"
   sodipodi:docname="ifJCT.svg"
   inkscape:output_extension="org.inkscape.output.svg.inkscape"
   inkscape:export-filename="/import/adams/1/timothyc/thesis/Working Copy/doc/compilationPhases.png"
   inkscape:export-xdpi="90"
   inkscape:export-ydpi="90">
  <defs
     id="defs4">
    <marker
       inkscape:stockid="Arrow2Lend"
       orient="auto"
       refY="0"
       refX="0"
       id="Arrow2Lend"
       style="overflow:visible">
      <path
         id="path3209"
         style="font-size:12px;fill-rule:evenodd;stroke-width:0.625;stroke-linejoin:round"
         d="M 8.7185878,4.0337352 L -2.2072895,0.016013256 L 8.7185884,-4.0017078 C 6.97309,-1.6296469 6.9831476,1.6157441 8.7185878,4.0337352 z"
         transform="matrix(-1.1,0,0,-1.1,-1.1,0)" />
    </marker>
    <marker
       inkscape:stockid="TriangleInL"
       orient="auto"
       refY="0"
       refX="0"
       id="TriangleInL"
       style="overflow:visible">
      <path
         id="path3322"
         d="M 5.77,0 L -2.88,5 L -2.88,-5 L 5.77,0 z"
         style="fill-rule:evenodd;stroke:#000000;stroke-width:1pt;marker-start:none"
         transform="scale(-0.8,-0.8)" />
    </marker>
    <marker
       inkscape:stockid="Arrow2Lstart"
       orient="auto"
       refY="0"
       refX="0"
       id="Arrow2Lstart"
       style="overflow:visible">
      <path
         id="path3206"
         style="font-size:12px;fill-rule:evenodd;stroke-width:0.625;stroke-linejoin:round"
         d="M 8.7185878,4.0337352 L -2.2072895,0.016013256 L 8.7185884,-4.0017078 C 6.97309,-1.6296469 6.9831476,1.6157441 8.7185878,4.0337352 z"
         transform="matrix(1.1,0,0,1.1,1.1,0)" />
    </marker>
    <inkscape:perspective
       sodipodi:type="inkscape:persp3d"
       inkscape:vp_x="0 : 526.18109 : 1"
       inkscape:vp_y="0 : 1000 : 0"
       inkscape:vp_z="744.09448 : 526.18109 : 1"
       inkscape:persp3d-origin="372.04724 : 350.78739 : 1"
       id="perspective10" />
  </defs>
  <sodipodi:namedview
     id="base"
     pagecolor="#ffffff"
     bordercolor="#666666"
     borderopacity="1.0"
     gridtolerance="10000"
     guidetolerance="10"
     objecttolerance="10"
     inkscape:pageopacity="0.0"
     inkscape:pageshadow="2"
     inkscape:zoom="1.1008535"
     inkscape:cx="-15.942463"
     inkscape:cy="217.38331"
     inkscape:document-units="px"
     inkscape:current-layer="layer1"
     showgrid="false"
     inkscape:window-width="1678"
     inkscape:window-height="998"
     inkscape:window-x="1"
     inkscape:window-y="1" />
  <metadata
     id="metadata7">
    <rdf:RDF>
      <cc:Work
         rdf:about="">
        <dc:format>image/svg+xml</dc:format>
        <dc:type
           rdf:resource="http://purl.org/dc/dcmitype/StillImage" />
      </cc:Work>
    </rdf:RDF>
  </metadata>
  <g
     inkscape:label="Layer 1"
     inkscape:groupmode="layer"
     id="layer1"
     transform="translate(-33.546961,-15.895025)">
    <g
       id="g5785"
       transform="translate(57.390422,-12.428571)">
      <path
         transform="translate(20.689816,-30.542472)"
         d="M 193.57142,80.29464 A 21.428572,21.428572 0 1 1 150.71428,80.29464 A 21.428572,21.428572 0 1 1 193.57142,80.29464 z"
         sodipodi:ry="21.428572"
         sodipodi:rx="21.428572"
         sodipodi:cy="80.29464"
         sodipodi:cx="172.14285"
         id="path5655"
         style="fill:#ff9131;fill-opacity:1;stroke:none;stroke-width:36;stroke-miterlimit:4;stroke-dasharray:none;stroke-opacity:0"
         sodipodi:type="arc" />
      <text
         id="text5657"
         y="88.323593"
         x="185.40591"
         style="font-size:20px;font-style:normal;font-weight:normal;fill:#000000;fill-opacity:1;stroke:none;stroke-width:1px;stroke-linecap:butt;stroke-linejoin:miter;stroke-opacity:1;font-family:Bitstream Vera Sans"
         xml:space="preserve"><tspan
           y="88.323593"
           x="185.40591"
           id="tspan5659"
           sodipodi:role="line">if</tspan></text>
    </g>
    <g
       id="g5795"
       transform="translate(-15.021002,1.711775)">
      <path
         transform="translate(93.298641,70.171821)"
         d="M 193.57142,80.29464 A 21.428572,21.428572 0 1 1 150.71428,80.29464 A 21.428572,21.428572 0 1 1 193.57142,80.29464 z"
         sodipodi:ry="21.428572"
         sodipodi:rx="21.428572"
         sodipodi:cy="80.29464"
         sodipodi:cx="172.14285"
         id="path5663"
         style="fill:#ff9131;fill-opacity:1;stroke:none;stroke-width:36;stroke-miterlimit:4;stroke-dasharray:none;stroke-opacity:0"
         sodipodi:type="arc" />
      <text
         id="text5673"
         y="190.46646"
         x="243.27841"
         style="font-size:20px;font-style:normal;font-weight:normal;fill:#000000;fill-opacity:1;stroke:none;stroke-width:1px;stroke-linecap:butt;stroke-linejoin:miter;stroke-opacity:1;font-family:Bitstream Vera Sans"
         xml:space="preserve"><tspan
           y="190.46646"
           x="243.27841"
           id="tspan5675"
           sodipodi:role="line">then</tspan></text>
    </g>
    <text
       xml:space="preserve"
       style="font-size:40px;font-style:normal;font-weight:normal;fill:#000000;fill-opacity:1;stroke:none;stroke-width:1px;stroke-linecap:butt;stroke-linejoin:miter;stroke-opacity:1;font-family:Bitstream Vera Sans"
       x="296.42856"
       y="143.15179"
       id="text5677"
       transform="translate(-2.447e-2,1.60039)"><tspan
         sodipodi:role="line"
         id="tspan5679"
         x="296.42856"
         y="143.15179" /></text>
    <g
       id="g5800"
       transform="translate(-27.999984,1.711774)">
      <path
         transform="translate(185.68982,70.171822)"
         d="M 193.57142,80.29464 A 21.428572,21.428572 0 1 1 150.71428,80.29464 A 21.428572,21.428572 0 1 1 193.57142,80.29464 z"
         sodipodi:ry="21.428572"
         sodipodi:rx="21.428572"
         sodipodi:cy="80.29464"
         sodipodi:cx="172.14285"
         id="path5665"
         style="fill:#ff9131;fill-opacity:1;stroke:none;stroke-width:36;stroke-miterlimit:4;stroke-dasharray:none;stroke-opacity:0"
         sodipodi:type="arc" />
      <text
         id="text5681"
         y="189.03789"
         x="337.5397"
         style="font-size:20px;font-style:normal;font-weight:normal;fill:#000000;fill-opacity:1;stroke:none;stroke-width:1px;stroke-linecap:butt;stroke-linejoin:miter;stroke-opacity:1;font-family:Bitstream Vera Sans"
         xml:space="preserve"><tspan
           y="189.03789"
           x="337.5397"
           id="tspan5683"
           sodipodi:role="line">else</tspan></text>
    </g>
    <g
       id="g5715" />
    <g
       id="g5864">
      <g
         id="g5815">
        <path
           sodipodi:type="arc"
           style="fill:#ff9131;fill-opacity:1;stroke:none;stroke-width:36;stroke-miterlimit:4;stroke-dasharray:none;stroke-opacity:0"
           id="path5667"
           sodipodi:cx="172.14285"
           sodipodi:cy="80.29464"
           sodipodi:rx="21.428572"
           sodipodi:ry="21.428572"
           d="M 193.57142,80.29464 A 21.428572,21.428572 0 1 1 150.71428,80.29464 A 21.428572,21.428572 0 1 1 193.57142,80.29464 z"
           transform="translate(-117.16732,198.02896)" />
        <text
           xml:space="preserve"
           style="font-size:20px;font-style:normal;font-weight:normal;fill:#000000;fill-opacity:1;stroke:none;stroke-width:1px;stroke-linecap:butt;stroke-linejoin:miter;stroke-opacity:1;font-family:Bitstream Vera Sans"
           x="49.711861"
           y="317.60931"
           id="text5737"><tspan
             sodipodi:role="line"
             id="tspan5739"
             x="49.711861"
             y="317.60931">s</tspan></text>
      </g>
      <g
         transform="translate(42.57452,0)"
         id="g5854">
        <g
           id="g5790"
           transform="translate(-28,-12.57394)">
          <path
             sodipodi:type="arc"
             style="fill:#ff9131;fill-opacity:1;stroke:none;stroke-width:36;stroke-miterlimit:4;stroke-dasharray:none;stroke-opacity:0"
             id="path5661"
             sodipodi:cx="172.14285"
             sodipodi:cy="80.29464"
             sodipodi:rx="21.428572"
             sodipodi:ry="21.428572"
             d="M 193.57142,80.29464 A 21.428572,21.428572 0 1 1 150.71428,80.29464 A 21.428572,21.428572 0 1 1 193.57142,80.29464 z"
             transform="translate(-32.387344,84.457536)" />
          <text
             id="text5685"
             y="203.75217"
             x="93.832657"
             style="font-size:20px;font-style:normal;font-weight:normal;fill:#000000;fill-opacity:1;stroke:none;stroke-width:1px;stroke-linecap:butt;stroke-linejoin:miter;stroke-opacity:1;font-family:Bitstream Vera Sans"
             xml:space="preserve"><tspan
               y="203.75217"
               x="93.832657"
               id="tspan5687"
               sodipodi:role="line">condition</tspan></text>
        </g>
        <g
           id="g5810"
           transform="translate(-27.999992,-1.14285)">
          <path
             transform="translate(-32.387352,199.17181)"
             d="M 193.57142,80.29464 A 21.428572,21.428572 0 1 1 150.71428,80.29464 A 21.428572,21.428572 0 1 1 193.57142,80.29464 z"
             sodipodi:ry="21.428572"
             sodipodi:rx="21.428572"
             sodipodi:cy="80.29464"
             sodipodi:cx="172.14285"
             id="path5669"
             style="fill:#ff9131;fill-opacity:1;stroke:none;stroke-width:36;stroke-miterlimit:4;stroke-dasharray:none;stroke-opacity:0"
             sodipodi:type="arc" />
          <text
             id="text5741"
             y="318.75217"
             x="106.72816"
             style="font-size:20px;font-style:normal;font-weight:normal;fill:#000000;fill-opacity:1;stroke:none;stroke-width:1px;stroke-linecap:butt;stroke-linejoin:miter;stroke-opacity:1;font-family:Bitstream Vera Sans"
             xml:space="preserve"><tspan
               y="318.75217"
               x="106.72816"
               id="tspan5743"
               sodipodi:role="line">equals</tspan></text>
        </g>
      </g>
      <g
         transform="translate(7.6293946e-6,-2.14286)"
         id="g5805">
        <path
           sodipodi:type="arc"
           style="fill:#ff9131;fill-opacity:1;stroke:none;stroke-width:36;stroke-miterlimit:4;stroke-dasharray:none;stroke-opacity:0"
           id="path5671"
           sodipodi:cx="172.14285"
           sodipodi:cy="80.29464"
           sodipodi:rx="21.428572"
           sodipodi:ry="21.428572"
           d="M 193.57142,80.29464 A 21.428572,21.428572 0 1 1 150.71428,80.29464 A 21.428572,21.428572 0 1 1 193.57142,80.29464 z"
           transform="translate(81.541656,200.17182)" />
        <text
           xml:space="preserve"
           style="font-size:20px;font-style:normal;font-weight:normal;fill:#000000;fill-opacity:1;stroke:none;stroke-width:1px;stroke-linecap:butt;stroke-linejoin:miter;stroke-opacity:1;font-family:Bitstream Vera Sans"
           x="196.97552"
           y="319.0379"
           id="text5745"><tspan
             sodipodi:role="line"
             id="tspan5747"
             x="196.97552"
             y="319.0379">&quot;password&quot;</tspan></text>
      </g>
    </g>
    <path
       style="fill:none;fill-rule:evenodd;stroke:#000000;stroke-width:1px;stroke-linecap:butt;stroke-linejoin:miter;marker-end:url(#Arrow2Lend);stroke-opacity:1"
       d="M 263.35364,53.313054 L 317.95134,131.03449"
       id="path5887"
       transform="translate(-2.447e-2,1.60039)" />
    <path
       style="fill:none;fill-rule:evenodd;stroke:#000000;stroke-width:1px;stroke-linecap:butt;stroke-linejoin:miter;marker-end:url(#Arrow2Lend);stroke-opacity:1"
       d="M 248.58014,76.436788 L 248.58014,127.82286"
       id="path5889"
       transform="translate(-2.447e-2,1.60039)" />
    <path
       style="fill:none;fill-rule:evenodd;stroke:#000000;stroke-width:0.99000001;stroke-linecap:butt;stroke-linejoin:miter;marker-end:url(#Arrow2Lend);stroke-miterlimit:4;stroke-dasharray:none;stroke-opacity:1"
       d="M 235.0913,53.95538 L 165.07777,131.03449"
       id="path5891"
       transform="translate(-2.447e-2,1.60039)" />
    <path
       style="fill:none;fill-rule:evenodd;stroke:#000000;stroke-width:1px;stroke-linecap:butt;stroke-linejoin:miter;marker-end:url(#Arrow2Lend);stroke-opacity:1"
       d="M 123.96891,193.34011 L 66.159573,258.21503"
       id="path5893"
       transform="translate(-2.447e-2,1.60039)" />
    <path
       style="fill:none;fill-rule:evenodd;stroke:#000000;stroke-width:1px;stroke-linecap:butt;stroke-linejoin:miter;marker-end:url(#Arrow2Lend);stroke-opacity:1"
       d="M 153.5159,192.69778 L 153.5159,254.36108"
       id="path5895"
       transform="translate(-2.447e-2,1.60039)" />
    <path
       style="fill:none;fill-rule:evenodd;stroke:#000000;stroke-width:1px;stroke-linecap:butt;stroke-linejoin:miter;marker-end:url(#Arrow2Lend);stroke-opacity:1"
       d="M 180.49359,192.69778 L 243.44153,256.93038"
       id="path5897"
       transform="translate(-2.447e-2,1.60039)" />
  </g>
</svg>
