%!PS-Adobe-3.0 EPSF-3.0
%%Creator: inkscape 0.46
%%Pages: 1
%%Orientation: Portrait
%%BoundingBox: 0 0 255 245
%%HiResBoundingBox: 6.5722656e-08 2.1484375e-06 254.17144 244.69956
%%EndComments
%%Page: 1 1
0 245 translate
0.8 -0.8 scale
0 0 0 setrgbcolor
[] 0 setdash
1 setlinewidth
0 setlinejoin
0 setlinecap
gsave [1 0 0 1 0 0] concat
gsave [1 0 0 1 -33.546961 -15.895025] concat
gsave [1 0 0 1 57.390422 -12.428571] concat
gsave [1 0 0 1 20.689816 -30.542472] concat
gsave
1 0.56862748 0.19215687 setrgbcolor
newpath
193.57142 80.29464 moveto
193.57142 92.123211 183.97142 101.72321 172.14285 101.72321 curveto
160.31428 101.72321 150.71428 92.123211 150.71428 80.29464 curveto
150.71428 68.466068 160.31428 58.866068 172.14285 58.866068 curveto
183.97142 58.866068 193.57142 68.466068 193.57142 80.29464 curveto
closepath
fill
grestore
grestore
gsave
0 0 0 setrgbcolor
newpath
187.29068 77.386093 moveto
189.08755 77.386093 lineto
189.08755 88.323593 lineto
187.29068 88.323593 lineto
187.29068 77.386093 lineto
187.29068 73.128281 moveto
189.08755 73.128281 lineto
189.08755 75.403671 lineto
187.29068 75.403671 lineto
187.29068 73.128281 lineto
fill
grestore
gsave
0 0 0 setrgbcolor
newpath
198.37466 73.128281 moveto
198.37466 74.622421 lineto
196.65591 74.622421 lineto
196.01138 74.622435 195.56216 74.752643 195.30826 75.013046 curveto
195.06086 75.273476 194.93716 75.742226 194.93716 76.419296 curveto
194.93716 77.386093 lineto
197.89615 77.386093 lineto
197.89615 78.782578 lineto
194.93716 78.782578 lineto
194.93716 88.323593 lineto
193.13052 88.323593 lineto
193.13052 78.782578 lineto
191.41177 78.782578 lineto
191.41177 77.386093 lineto
193.13052 77.386093 lineto
193.13052 76.624374 lineto
193.13052 75.406939 193.41372 74.521524 193.98013 73.968124 curveto
194.54654 73.408243 195.44497 73.128296 196.67545 73.128281 curveto
198.37466 73.128281 lineto
fill
grestore
grestore
gsave [1 0 0 1 -15.021002 1.711775] concat
gsave [1 0 0 1 93.298641 70.171821] concat
gsave
1 0.56862748 0.19215687 setrgbcolor
newpath
193.57142 80.29464 moveto
193.57142 92.123211 183.97142 101.72321 172.14285 101.72321 curveto
160.31428 101.72321 150.71428 92.123211 150.71428 80.29464 curveto
150.71428 68.466068 160.31428 58.866068 172.14285 58.866068 curveto
183.97142 58.866068 193.57142 68.466068 193.57142 80.29464 curveto
closepath
fill
grestore
grestore
gsave
0 0 0 setrgbcolor
newpath
246.94052 176.42349 moveto
246.94052 179.52896 lineto
250.64169 179.52896 lineto
250.64169 180.92545 lineto
246.94052 180.92545 lineto
246.94052 186.86295 lineto
246.94052 187.75488 247.06096 188.32779 247.30185 188.5817 curveto
247.54924 188.8356 248.04729 188.96256 248.79599 188.96255 curveto
250.64169 188.96255 lineto
250.64169 190.46646 lineto
248.79599 190.46646 lineto
247.40927 190.46646 246.45224 190.2093 245.9249 189.69498 curveto
245.39755 189.17414 245.13388 188.23014 245.13388 186.86295 curveto
245.13388 180.92545 lineto
243.81552 180.92545 lineto
243.81552 179.52896 lineto
245.13388 179.52896 lineto
245.13388 176.42349 lineto
246.94052 176.42349 lineto
fill
grestore
gsave
0 0 0 setrgbcolor
newpath
262.10654 183.8649 moveto
262.10654 190.46646 lineto
260.30966 190.46646 lineto
260.30966 183.92349 lineto
260.30965 182.88834 260.10783 182.1136 259.70419 181.59927 curveto
259.30054 181.08496 258.69507 180.8278 257.88779 180.82779 curveto
256.91773 180.8278 256.15276 181.13704 255.59286 181.75552 curveto
255.03297 182.37402 254.75302 183.21712 254.75302 184.28482 curveto
254.75302 190.46646 lineto
252.94638 190.46646 lineto
252.94638 175.27115 lineto
254.75302 175.27115 lineto
254.75302 181.22818 lineto
255.1827 180.57064 255.68726 180.0791 256.26669 179.75357 curveto
256.85262 179.42806 257.52645 179.2653 258.28818 179.26529 curveto
259.54468 179.2653 260.4952 179.65593 261.13974 180.43716 curveto
261.78426 181.21191 262.10653 182.35449 262.10654 183.8649 curveto
fill
grestore
gsave
0 0 0 setrgbcolor
newpath
275.06552 184.54849 moveto
275.06552 185.4274 lineto
266.8038 185.4274 lineto
266.88192 186.66438 267.25302 187.60839 267.91708 188.25943 curveto
268.58765 188.90396 269.51864 189.22623 270.71005 189.22623 curveto
271.40015 189.22623 272.06747 189.14159 272.71201 188.97232 curveto
273.36304 188.80305 274.00757 188.54915 274.6456 188.2106 curveto
274.6456 189.90982 lineto
274.00106 190.18326 273.34025 190.39159 272.66318 190.53482 curveto
271.98609 190.67805 271.29924 190.74966 270.60263 190.74966 curveto
268.85783 190.74966 267.47437 190.24185 266.45224 189.22623 curveto
265.43661 188.2106 264.9288 186.83691 264.9288 185.10513 curveto
264.9288 183.31478 265.41057 181.89551 266.37411 180.84732 curveto
267.34416 179.79264 268.6495 179.2653 270.29013 179.26529 curveto
271.76148 179.2653 272.92359 179.74056 273.77646 180.69107 curveto
274.63582 181.63509 275.06551 182.9209 275.06552 184.54849 curveto
273.26865 184.02115 moveto
273.25562 183.03808 272.97892 182.25358 272.43857 181.66763 curveto
271.90471 181.0817 271.19507 180.78874 270.30966 180.78873 curveto
269.30705 180.78874 268.50302 181.07194 267.89755 181.63834 curveto
267.29859 182.20475 266.95354 183.00228 266.8624 184.03091 curveto
273.26865 184.02115 lineto
fill
grestore
gsave
0 0 0 setrgbcolor
newpath
287.06747 183.8649 moveto
287.06747 190.46646 lineto
285.2706 190.46646 lineto
285.2706 183.92349 lineto
285.27059 182.88834 285.06877 182.1136 284.66513 181.59927 curveto
284.26148 181.08496 283.65601 180.8278 282.84872 180.82779 curveto
281.87867 180.8278 281.11369 181.13704 280.5538 181.75552 curveto
279.9939 182.37402 279.71396 183.21712 279.71396 184.28482 curveto
279.71396 190.46646 lineto
277.90732 190.46646 lineto
277.90732 179.52896 lineto
279.71396 179.52896 lineto
279.71396 181.22818 lineto
280.14364 180.57064 280.6482 180.0791 281.22763 179.75357 curveto
281.81356 179.42806 282.48739 179.2653 283.24911 179.26529 curveto
284.50562 179.2653 285.45614 179.65593 286.10068 180.43716 curveto
286.7452 181.21191 287.06746 182.35449 287.06747 183.8649 curveto
fill
grestore
grestore
gsave [1 0 0 1 -0.02447 1.60039] concat
grestore
gsave [1 0 0 1 -27.999984 1.711774] concat
gsave [1 0 0 1 185.68982 70.171822] concat
gsave
1 0.56862748 0.19215687 setrgbcolor
newpath
193.57142 80.29464 moveto
193.57142 92.123211 183.97142 101.72321 172.14285 101.72321 curveto
160.31428 101.72321 150.71428 92.123211 150.71428 80.29464 curveto
150.71428 68.466068 160.31428 58.866068 172.14285 58.866068 curveto
183.97142 58.866068 193.57142 68.466068 193.57142 80.29464 curveto
closepath
fill
grestore
grestore
gsave
0 0 0 setrgbcolor
newpath
348.77994 183.11992 moveto
348.77994 183.99883 lineto
340.51822 183.99883 lineto
340.59634 185.23581 340.96743 186.17982 341.6315 186.83086 curveto
342.30207 187.47539 343.23306 187.79765 344.42447 187.79765 curveto
345.11457 187.79765 345.78188 187.71302 346.42642 187.54375 curveto
347.07745 187.37448 347.72198 187.12057 348.36002 186.78203 curveto
348.36002 188.48125 lineto
347.71547 188.75468 347.05467 188.96302 346.37759 189.10625 curveto
345.7005 189.24948 345.01365 189.32109 344.31705 189.32109 curveto
342.57225 189.32109 341.18879 188.81328 340.16666 187.79765 curveto
339.15103 186.78203 338.64322 185.40833 338.64322 183.67656 curveto
338.64322 181.8862 339.12499 180.46693 340.08853 179.41875 curveto
341.05858 178.36407 342.36392 177.83673 344.00455 177.83672 curveto
345.47589 177.83673 346.638 178.31199 347.49088 179.2625 curveto
348.35024 180.20652 348.77993 181.49232 348.77994 183.11992 curveto
346.98306 182.59258 moveto
346.97003 181.60951 346.69334 180.82501 346.15298 180.23906 curveto
345.61912 179.65313 344.90949 179.36016 344.02408 179.36015 curveto
343.02147 179.36016 342.21743 179.64337 341.61197 180.20976 curveto
341.01301 180.77618 340.66796 181.5737 340.57681 182.60234 curveto
346.98306 182.59258 lineto
fill
grestore
gsave
0 0 0 setrgbcolor
newpath
351.69009 173.84258 moveto
353.48697 173.84258 lineto
353.48697 189.03789 lineto
351.69009 189.03789 lineto
351.69009 173.84258 lineto
fill
grestore
gsave
0 0 0 setrgbcolor
newpath
364.20963 178.42265 moveto
364.20963 180.12187 lineto
363.7018 179.86146 363.17446 179.66615 362.62759 179.53593 curveto
362.08071 179.40574 361.51431 179.34063 360.92838 179.34062 curveto
360.03644 179.34063 359.36587 179.47735 358.91666 179.75078 curveto
358.47395 180.02422 358.25259 180.43438 358.25259 180.98125 curveto
358.25259 181.39792 358.4121 181.7267 358.73111 181.96758 curveto
359.05012 182.20196 359.69139 182.42657 360.65494 182.6414 curveto
361.27017 182.77812 lineto
362.54621 183.05157 363.45115 183.43893 363.98502 183.94023 curveto
364.52537 184.43503 364.79555 185.12839 364.79556 186.02031 curveto
364.79555 187.03594 364.39191 187.83997 363.58463 188.43242 curveto
362.78384 189.02487 361.68032 189.32109 360.27408 189.32109 curveto
359.68814 189.32109 359.07616 189.2625 358.43814 189.14531 curveto
357.80663 189.03463 357.13931 188.86536 356.43619 188.6375 curveto
356.43619 186.78203 lineto
357.10025 187.12708 357.75454 187.3875 358.39908 187.56328 curveto
359.04361 187.73255 359.68163 187.81719 360.31314 187.81718 curveto
361.15949 187.81719 361.81053 187.67396 362.26627 187.3875 curveto
362.72199 187.09453 362.94985 186.68437 362.94986 186.15703 curveto
362.94985 185.66875 362.78384 185.2944 362.45181 185.03398 curveto
362.12629 184.77357 361.40688 184.52292 360.29361 184.28203 curveto
359.66861 184.13554 lineto
358.55533 183.90117 357.75129 183.5431 357.2565 183.06133 curveto
356.76171 182.57305 356.51431 181.90573 356.51431 181.05937 curveto
356.51431 180.03074 356.87889 179.23647 357.60806 178.67656 curveto
358.33723 178.11667 359.37238 177.83673 360.71353 177.83672 curveto
361.37759 177.83673 362.00259 177.88555 362.58853 177.9832 curveto
363.17446 178.08087 363.71483 178.22735 364.20963 178.42265 curveto
fill
grestore
gsave
0 0 0 setrgbcolor
newpath
377.02213 183.11992 moveto
377.02213 183.99883 lineto
368.76041 183.99883 lineto
368.83853 185.23581 369.20962 186.17982 369.87369 186.83086 curveto
370.54426 187.47539 371.47524 187.79765 372.66666 187.79765 curveto
373.35675 187.79765 374.02407 187.71302 374.66861 187.54375 curveto
375.31964 187.37448 375.96417 187.12057 376.6022 186.78203 curveto
376.6022 188.48125 lineto
375.95766 188.75468 375.29686 188.96302 374.61978 189.10625 curveto
373.94269 189.24948 373.25584 189.32109 372.55923 189.32109 curveto
370.81444 189.32109 369.43098 188.81328 368.40884 187.79765 curveto
367.39322 186.78203 366.88541 185.40833 366.88541 183.67656 curveto
366.88541 181.8862 367.36718 180.46693 368.33072 179.41875 curveto
369.30077 178.36407 370.6061 177.83673 372.24673 177.83672 curveto
373.71808 177.83673 374.88019 178.31199 375.73306 179.2625 curveto
376.59243 180.20652 377.02211 181.49232 377.02213 183.11992 curveto
375.22525 182.59258 moveto
375.21222 181.60951 374.93553 180.82501 374.39517 180.23906 curveto
373.86131 179.65313 373.15168 179.36016 372.26627 179.36015 curveto
371.26366 179.36016 370.45962 179.64337 369.85416 180.20976 curveto
369.25519 180.77618 368.91014 181.5737 368.819 182.60234 curveto
375.22525 182.59258 lineto
fill
grestore
grestore
gsave [1 0 0 1 -117.16732 198.02896] concat
gsave
1 0.56862748 0.19215687 setrgbcolor
newpath
193.57142 80.29464 moveto
193.57142 92.123211 183.97142 101.72321 172.14285 101.72321 curveto
160.31428 101.72321 150.71428 92.123211 150.71428 80.29464 curveto
150.71428 68.466068 160.31428 58.866068 172.14285 58.866068 curveto
183.97142 58.866068 193.57142 68.466068 193.57142 80.29464 curveto
closepath
fill
grestore
grestore
gsave
0 0 0 setrgbcolor
newpath
58.569283 306.99408 moveto
58.569283 308.6933 lineto
58.061462 308.43289 57.534118 308.23758 56.987251 308.10736 curveto
56.44037 307.97716 55.873964 307.91206 55.288033 307.91205 curveto
54.396101 307.91206 53.725529 308.04878 53.276314 308.3222 curveto
52.833602 308.59565 52.612248 309.00581 52.612251 309.55267 curveto
52.612248 309.96935 52.771753 310.29812 53.090767 310.539 curveto
53.409774 310.77338 54.051049 310.99799 55.014595 311.21283 curveto
55.629829 311.34955 lineto
56.905864 311.62299 57.810811 312.01036 58.344673 312.51166 curveto
58.885029 313.00645 59.155211 313.69981 59.15522 314.59174 curveto
59.155211 315.60736 58.751565 316.4114 57.944283 317.00385 curveto
57.143494 317.59629 56.039979 317.89252 54.633736 317.89252 curveto
54.047794 317.89252 53.435815 317.83392 52.797798 317.71674 curveto
52.166285 317.60606 51.498968 317.43679 50.795845 317.20892 curveto
50.795845 315.35345 lineto
51.459906 315.69851 52.114202 315.95892 52.758736 316.1347 curveto
53.403263 316.30398 54.041283 316.38861 54.672798 316.38861 curveto
55.519147 316.38861 56.170188 316.24538 56.625923 315.95892 curveto
57.081645 315.66596 57.309509 315.2558 57.309517 314.72845 curveto
57.309509 314.24018 57.143494 313.86583 56.81147 313.60541 curveto
56.485942 313.345 55.766542 313.09434 54.653267 312.85345 curveto
54.028267 312.70697 lineto
52.914982 312.4726 52.110947 312.11453 51.616158 311.63275 curveto
51.121364 311.14448 50.873969 310.47716 50.87397 309.6308 curveto
50.873969 308.60216 51.238552 307.80789 51.96772 307.24799 curveto
52.696884 306.6881 53.732039 306.40815 55.073189 306.40814 curveto
55.737245 306.40815 56.362245 306.45698 56.948189 306.55463 curveto
57.534118 306.65229 58.074483 306.79878 58.569283 306.99408 curveto
fill
grestore
gsave [1 0 0 1 42.57452 0] concat
gsave [1 0 0 1 -28 -12.57394] concat
gsave [1 0 0 1 -32.387344 84.457536] concat
gsave
1 0.56862748 0.19215687 setrgbcolor
newpath
193.57142 80.29464 moveto
193.57142 92.123211 183.97142 101.72321 172.14285 101.72321 curveto
160.31428 101.72321 150.71428 92.123211 150.71428 80.29464 curveto
150.71428 68.466068 160.31428 58.866068 172.14285 58.866068 curveto
183.97142 58.866068 193.57142 68.466068 193.57142 80.29464 curveto
closepath
fill
grestore
grestore
gsave
0 0 0 setrgbcolor
newpath
103.58852 193.23459 moveto
103.58852 194.91428 lineto
103.08069 194.63434 102.56963 194.426 102.05531 194.28928 curveto
101.54749 194.14606 101.03317 194.07444 100.51234 194.07443 curveto
99.346974 194.07444 98.442027 194.44554 97.797501 195.18771 curveto
97.152966 195.9234 96.830701 196.95855 96.830704 198.29318 curveto
96.830701 199.62782 97.152966 200.66623 97.797501 201.40842 curveto
98.442027 202.1441 99.346974 202.51193 100.51234 202.51193 curveto
101.03317 202.51193 101.54749 202.44357 102.05531 202.30685 curveto
102.56963 202.16363 103.08069 201.95204 103.58852 201.67209 curveto
103.58852 203.33224 lineto
103.0872 203.56662 102.56637 203.7424 102.02602 203.85959 curveto
101.49215 203.97678 100.92249 204.03537 100.31703 204.03537 curveto
98.669892 204.03537 97.361299 203.51779 96.391251 202.48264 curveto
95.421197 201.44748 94.936171 200.051 94.936172 198.29318 curveto
94.936171 196.50934 95.424452 195.10634 96.401016 194.0842 curveto
97.384086 193.06207 98.728485 192.55101 100.43422 192.55099 curveto
100.9876 192.55101 101.52796 192.6096 102.05531 192.72678 curveto
102.58265 192.83746 103.09372 193.00673 103.58852 193.23459 curveto
fill
grestore
gsave
0 0 0 setrgbcolor
newpath
110.93227 194.07443 moveto
109.96872 194.07444 109.207 194.45205 108.64711 195.20724 curveto
108.08721 195.95595 107.80726 196.9846 107.80727 198.29318 curveto
107.80726 199.60178 108.08396 200.63368 108.63734 201.38889 curveto
109.19724 202.13759 109.96221 202.51193 110.93227 202.51193 curveto
111.88929 202.51193 112.64775 202.13433 113.20766 201.37912 curveto
113.76754 200.62391 114.04749 199.59527 114.0475 198.29318 curveto
114.04749 196.99762 113.76754 195.97223 113.20766 195.21701 curveto
112.64775 194.4553 111.88929 194.07444 110.93227 194.07443 curveto
110.93227 192.55099 moveto
112.49476 192.55101 113.72197 193.05882 114.61391 194.07443 curveto
115.50582 195.09007 115.95179 196.49631 115.9518 198.29318 curveto
115.95179 200.08355 115.50582 201.4898 114.61391 202.51193 curveto
113.72197 203.52756 112.49476 204.03537 110.93227 204.03537 curveto
109.36325 204.03537 108.13278 203.52756 107.24086 202.51193 curveto
106.35544 201.4898 105.91273 200.08355 105.91273 198.29318 curveto
105.91273 196.49631 106.35544 195.09007 107.24086 194.07443 curveto
108.13278 193.05882 109.36325 192.55101 110.93227 192.55099 curveto
fill
grestore
gsave
0 0 0 setrgbcolor
newpath
128.01234 197.1506 moveto
128.01234 203.75217 lineto
126.21547 203.75217 lineto
126.21547 197.2092 lineto
126.21546 196.17405 126.01364 195.39931 125.61 194.88498 curveto
125.20635 194.37067 124.60088 194.1135 123.79359 194.11349 curveto
122.82354 194.1135 122.05856 194.42275 121.49867 195.04123 curveto
120.93877 195.65973 120.65883 196.50283 120.65883 197.57053 curveto
120.65883 203.75217 lineto
118.85219 203.75217 lineto
118.85219 192.81467 lineto
120.65883 192.81467 lineto
120.65883 194.51389 lineto
121.08851 193.85634 121.59307 193.36481 122.1725 193.03928 curveto
122.75843 192.71377 123.43226 192.55101 124.19398 192.55099 curveto
125.45049 192.55101 126.40101 192.94163 127.04555 193.72287 curveto
127.69007 194.49762 128.01233 195.6402 128.01234 197.1506 curveto
fill
grestore
gsave
0 0 0 setrgbcolor
newpath
138.81313 194.47482 moveto
138.81313 188.55685 lineto
140.61 188.55685 lineto
140.61 203.75217 lineto
138.81313 203.75217 lineto
138.81313 202.11154 lineto
138.43551 202.76258 137.957 203.24761 137.37758 203.56662 curveto
136.80465 203.87912 136.11455 204.03537 135.30727 204.03537 curveto
133.98565 204.03537 132.90817 203.50803 132.07484 202.45334 curveto
131.24802 201.39865 130.83461 200.01194 130.83461 198.29318 curveto
130.83461 196.57444 131.24802 195.18772 132.07484 194.13303 curveto
132.90817 193.07835 133.98565 192.55101 135.30727 192.55099 curveto
136.11455 192.55101 136.80465 192.71051 137.37758 193.02951 curveto
137.957 193.34202 138.43551 193.82379 138.81313 194.47482 curveto
132.69008 198.29318 moveto
132.69008 199.6148 132.96026 200.65321 133.50063 201.40842 curveto
134.0475 202.15712 134.79619 202.53146 135.74672 202.53146 curveto
136.69723 202.53146 137.44593 202.15712 137.99281 201.40842 curveto
138.53968 200.65321 138.81312 199.6148 138.81313 198.29318 curveto
138.81312 196.97157 138.53968 195.93642 137.99281 195.18771 curveto
137.44593 194.43251 136.69723 194.05491 135.74672 194.0549 curveto
134.79619 194.05491 134.0475 194.43251 133.50063 195.18771 curveto
132.96026 195.93642 132.69008 196.97157 132.69008 198.29318 curveto
fill
grestore
gsave
0 0 0 setrgbcolor
newpath
144.31117 192.81467 moveto
146.10805 192.81467 lineto
146.10805 203.75217 lineto
144.31117 203.75217 lineto
144.31117 192.81467 lineto
144.31117 188.55685 moveto
146.10805 188.55685 lineto
146.10805 190.83224 lineto
144.31117 190.83224 lineto
144.31117 188.55685 lineto
fill
grestore
gsave
0 0 0 setrgbcolor
newpath
151.63539 189.7092 moveto
151.63539 192.81467 lineto
155.33656 192.81467 lineto
155.33656 194.21115 lineto
151.63539 194.21115 lineto
151.63539 200.14865 lineto
151.63539 201.04058 151.75583 201.6135 151.99672 201.8674 curveto
152.24411 202.12131 152.74216 202.24826 153.49086 202.24826 curveto
155.33656 202.24826 lineto
155.33656 203.75217 lineto
153.49086 203.75217 lineto
152.10414 203.75217 151.14711 203.49501 150.61977 202.98068 curveto
150.09242 202.45985 149.82875 201.51584 149.82875 200.14865 curveto
149.82875 194.21115 lineto
148.51039 194.21115 lineto
148.51039 192.81467 lineto
149.82875 192.81467 lineto
149.82875 189.7092 lineto
151.63539 189.7092 lineto
fill
grestore
gsave
0 0 0 setrgbcolor
newpath
157.70961 192.81467 moveto
159.50648 192.81467 lineto
159.50648 203.75217 lineto
157.70961 203.75217 lineto
157.70961 192.81467 lineto
157.70961 188.55685 moveto
159.50648 188.55685 lineto
159.50648 190.83224 lineto
157.70961 190.83224 lineto
157.70961 188.55685 lineto
fill
grestore
gsave
0 0 0 setrgbcolor
newpath
167.49477 194.07443 moveto
166.53122 194.07444 165.7695 194.45205 165.20961 195.20724 curveto
164.64971 195.95595 164.36976 196.9846 164.36977 198.29318 curveto
164.36976 199.60178 164.64646 200.63368 165.19984 201.38889 curveto
165.75974 202.13759 166.52471 202.51193 167.49477 202.51193 curveto
168.45179 202.51193 169.21025 202.13433 169.77016 201.37912 curveto
170.33004 200.62391 170.60999 199.59527 170.61 198.29318 curveto
170.60999 196.99762 170.33004 195.97223 169.77016 195.21701 curveto
169.21025 194.4553 168.45179 194.07444 167.49477 194.07443 curveto
167.49477 192.55099 moveto
169.05726 192.55101 170.28447 193.05882 171.17641 194.07443 curveto
172.06832 195.09007 172.51429 196.49631 172.5143 198.29318 curveto
172.51429 200.08355 172.06832 201.4898 171.17641 202.51193 curveto
170.28447 203.52756 169.05726 204.03537 167.49477 204.03537 curveto
165.92575 204.03537 164.69528 203.52756 163.80336 202.51193 curveto
162.91794 201.4898 162.47523 200.08355 162.47523 198.29318 curveto
162.47523 196.49631 162.91794 195.09007 163.80336 194.07443 curveto
164.69528 193.05882 165.92575 192.55101 167.49477 192.55099 curveto
fill
grestore
gsave
0 0 0 setrgbcolor
newpath
184.57484 197.1506 moveto
184.57484 203.75217 lineto
182.77797 203.75217 lineto
182.77797 197.2092 lineto
182.77796 196.17405 182.57614 195.39931 182.1725 194.88498 curveto
181.76885 194.37067 181.16338 194.1135 180.35609 194.11349 curveto
179.38604 194.1135 178.62106 194.42275 178.06117 195.04123 curveto
177.50127 195.65973 177.22133 196.50283 177.22133 197.57053 curveto
177.22133 203.75217 lineto
175.41469 203.75217 lineto
175.41469 192.81467 lineto
177.22133 192.81467 lineto
177.22133 194.51389 lineto
177.65101 193.85634 178.15557 193.36481 178.735 193.03928 curveto
179.32093 192.71377 179.99476 192.55101 180.75648 192.55099 curveto
182.01299 192.55101 182.96351 192.94163 183.60805 193.72287 curveto
184.25257 194.49762 184.57483 195.6402 184.57484 197.1506 curveto
fill
grestore
grestore
gsave [1 0 0 1 -27.999992 -1.14285] concat
gsave [1 0 0 1 -32.387352 199.17181] concat
gsave
1 0.56862748 0.19215687 setrgbcolor
newpath
193.57142 80.29464 moveto
193.57142 92.123211 183.97142 101.72321 172.14285 101.72321 curveto
160.31428 101.72321 150.71428 92.123211 150.71428 80.29464 curveto
150.71428 68.466068 160.31428 58.866068 172.14285 58.866068 curveto
183.97142 58.866068 193.57142 68.466068 193.57142 80.29464 curveto
closepath
fill
grestore
grestore
gsave
0 0 0 setrgbcolor
newpath
117.96839 312.8342 moveto
117.96839 313.7131 lineto
109.70667 313.7131 lineto
109.78479 314.95009 110.15589 315.8941 110.81995 316.54514 curveto
111.49052 317.18967 112.42151 317.51193 113.61292 317.51193 curveto
114.30302 317.51193 114.97034 317.4273 115.61488 317.25803 curveto
116.26591 317.08876 116.91044 316.83485 117.54847 316.49631 curveto
117.54847 318.19553 lineto
116.90393 318.46896 116.24312 318.6773 115.56605 318.82053 curveto
114.88896 318.96376 114.20211 319.03537 113.5055 319.03537 curveto
111.7607 319.03537 110.37724 318.52756 109.35511 317.51193 curveto
108.33948 316.49631 107.83167 315.12261 107.83167 313.39084 curveto
107.83167 311.60048 108.31344 310.18121 109.27699 309.13303 curveto
110.24703 308.07835 111.55237 307.55101 113.193 307.55099 curveto
114.66435 307.55101 115.82646 308.02627 116.67933 308.97678 curveto
117.53869 309.9208 117.96838 311.2066 117.96839 312.8342 curveto
116.17152 312.30685 moveto
116.15849 311.32379 115.88179 310.53928 115.34144 309.95334 curveto
114.80758 309.36741 114.09794 309.07444 113.21253 309.07443 curveto
112.20992 309.07444 111.40589 309.35764 110.80042 309.92404 curveto
110.20146 310.49046 109.85641 311.28798 109.76527 312.31662 curveto
116.17152 312.30685 lineto
fill
grestore
gsave
0 0 0 setrgbcolor
newpath
121.95277 313.29318 moveto
121.95276 314.6148 122.22295 315.65321 122.76331 316.40842 curveto
123.31018 317.15712 124.05888 317.53146 125.00941 317.53146 curveto
125.95992 317.53146 126.70862 317.15712 127.2555 316.40842 curveto
127.80237 315.65321 128.0758 314.6148 128.07581 313.29318 curveto
128.0758 311.97157 127.80237 310.93642 127.2555 310.18771 curveto
126.70862 309.43251 125.95992 309.05491 125.00941 309.0549 curveto
124.05888 309.05491 123.31018 309.43251 122.76331 310.18771 curveto
122.22295 310.93642 121.95276 311.97157 121.95277 313.29318 curveto
128.07581 317.11154 moveto
127.6982 317.76258 127.21969 318.24761 126.64027 318.56662 curveto
126.06734 318.87912 125.37724 319.03537 124.56995 319.03537 curveto
123.24834 319.03537 122.17086 318.50803 121.33753 317.45334 curveto
120.51071 316.39865 120.0973 315.01194 120.0973 313.29318 curveto
120.0973 311.57444 120.51071 310.18772 121.33753 309.13303 curveto
122.17086 308.07835 123.24834 307.55101 124.56995 307.55099 curveto
125.37724 307.55101 126.06734 307.71051 126.64027 308.02951 curveto
127.21969 308.34202 127.6982 308.82379 128.07581 309.47482 curveto
128.07581 307.81467 lineto
129.87269 307.81467 lineto
129.87269 322.91232 lineto
128.07581 322.91232 lineto
128.07581 317.11154 lineto
fill
grestore
gsave
0 0 0 setrgbcolor
newpath
133.38831 314.43576 moveto
133.38831 307.81467 lineto
135.18519 307.81467 lineto
135.18519 314.3674 lineto
135.18518 315.40256 135.38701 316.18055 135.79066 316.70139 curveto
136.1943 317.21571 136.79977 317.47287 137.60706 317.47287 curveto
138.57711 317.47287 139.34208 317.16363 139.90199 316.54514 curveto
140.46838 315.92665 140.75159 315.08355 140.75159 314.01584 curveto
140.75159 307.81467 lineto
142.54847 307.81467 lineto
142.54847 318.75217 lineto
140.75159 318.75217 lineto
140.75159 317.07248 lineto
140.31539 317.73654 139.80758 318.23133 139.22816 318.55685 curveto
138.65523 318.87586 137.98792 319.03537 137.2262 319.03537 curveto
135.96969 319.03537 135.01591 318.64474 134.36488 317.86349 curveto
133.71383 317.08225 133.38831 315.93967 133.38831 314.43576 curveto
fill
grestore
gsave
0 0 0 setrgbcolor
newpath
151.23988 313.25412 moveto
149.78805 313.25413 148.78219 313.42014 148.2223 313.75217 curveto
147.6624 314.0842 147.38245 314.65061 147.38245 315.45139 curveto
147.38245 316.08941 147.59078 316.59722 148.00745 316.97482 curveto
148.43063 317.34592 149.00354 317.53146 149.7262 317.53146 curveto
150.72229 317.53146 151.51982 317.1799 152.11878 316.47678 curveto
152.72424 315.76714 153.02698 314.82639 153.02699 313.65451 curveto
153.02699 313.25412 lineto
151.23988 313.25412 lineto
154.82386 312.51193 moveto
154.82386 318.75217 lineto
153.02699 318.75217 lineto
153.02699 317.09201 lineto
152.61682 317.75607 152.10575 318.24761 151.49378 318.56662 curveto
150.8818 318.87912 150.1331 319.03537 149.24769 319.03537 curveto
148.12789 319.03537 147.23597 318.72287 146.57191 318.09787 curveto
145.91435 317.46636 145.58558 316.62326 145.58558 315.56857 curveto
145.58558 314.33811 145.99573 313.41038 146.81605 312.78537 curveto
147.64287 312.16038 148.87333 311.84788 150.50745 311.84787 curveto
153.02699 311.84787 lineto
153.02699 311.67209 lineto
153.02698 310.84527 152.75354 310.20725 152.20667 309.75803 curveto
151.6663 309.30231 150.90458 309.07444 149.92152 309.07443 curveto
149.29651 309.07444 148.68779 309.14931 148.09534 309.29904 curveto
147.50289 309.44879 146.93323 309.6734 146.38636 309.97287 curveto
146.38636 308.31271 lineto
147.04391 308.05882 147.68193 307.87002 148.30042 307.74631 curveto
148.91891 307.61611 149.52112 307.55101 150.10706 307.55099 curveto
151.68909 307.55101 152.87073 307.96116 153.65199 308.78146 curveto
154.43323 309.60179 154.82385 310.84527 154.82386 312.51193 curveto
fill
grestore
gsave
0 0 0 setrgbcolor
newpath
158.57386 303.55685 moveto
160.37074 303.55685 lineto
160.37074 318.75217 lineto
158.57386 318.75217 lineto
158.57386 303.55685 lineto
fill
grestore
gsave
0 0 0 setrgbcolor
newpath
171.09339 308.13693 moveto
171.09339 309.83615 lineto
170.58557 309.57574 170.05823 309.38043 169.51136 309.25021 curveto
168.96448 309.12001 168.39807 309.05491 167.81214 309.0549 curveto
166.92021 309.05491 166.24964 309.19163 165.80042 309.46506 curveto
165.35771 309.7385 165.13636 310.14866 165.13636 310.69553 curveto
165.13636 311.1122 165.29586 311.44098 165.61488 311.68185 curveto
165.93388 311.91624 166.57516 312.14085 167.5387 312.35568 curveto
168.15394 312.4924 lineto
169.42997 312.76584 170.33492 313.15321 170.86878 313.65451 curveto
171.40914 314.14931 171.67932 314.84267 171.67933 315.73459 curveto
171.67932 316.75022 171.27567 317.55425 170.46839 318.1467 curveto
169.6676 318.73915 168.56409 319.03537 167.15784 319.03537 curveto
166.5719 319.03537 165.95992 318.97678 165.32191 318.85959 curveto
164.69039 318.74891 164.02308 318.57964 163.31995 318.35178 curveto
163.31995 316.49631 lineto
163.98401 316.84136 164.63831 317.10178 165.28284 317.27756 curveto
165.92737 317.44683 166.56539 317.53146 167.19691 317.53146 curveto
168.04326 317.53146 168.6943 317.38824 169.15003 317.10178 curveto
169.60575 316.80881 169.83362 316.39865 169.83363 315.87131 curveto
169.83362 315.38303 169.6676 315.00868 169.33558 314.74826 curveto
169.01005 314.48785 168.29065 314.2372 167.17738 313.99631 curveto
166.55238 313.84982 lineto
165.43909 313.61545 164.63506 313.25738 164.14027 312.7756 curveto
163.64547 312.28733 163.39808 311.62001 163.39808 310.77365 curveto
163.39808 309.74501 163.76266 308.95074 164.49183 308.39084 curveto
165.22099 307.83095 166.25615 307.55101 167.5973 307.55099 curveto
168.26135 307.55101 168.88635 307.59983 169.4723 307.69748 curveto
170.05823 307.79515 170.59859 307.94163 171.09339 308.13693 curveto
fill
grestore
grestore
grestore
gsave [1 0 0 1 7.6293946e-06 -2.14286] concat
gsave [1 0 0 1 81.541656 200.17182] concat
gsave
1 0.56862748 0.19215687 setrgbcolor
newpath
193.57142 80.29464 moveto
193.57142 92.123211 183.97142 101.72321 172.14285 101.72321 curveto
160.31428 101.72321 150.71428 92.123211 150.71428 80.29464 curveto
150.71428 68.466068 160.31428 58.866068 172.14285 58.866068 curveto
183.97142 58.866068 193.57142 68.466068 193.57142 80.29464 curveto
closepath
fill
grestore
grestore
gsave
0 0 0 setrgbcolor
newpath
200.55951 304.45782 moveto
200.55951 309.87775 lineto
198.89935 309.87775 lineto
198.89935 304.45782 lineto
200.55951 304.45782 lineto
204.25092 304.45782 moveto
204.25092 309.87775 lineto
202.59076 309.87775 lineto
202.59076 304.45782 lineto
204.25092 304.45782 lineto
fill
grestore
gsave
0 0 0 setrgbcolor
newpath
209.77826 317.39728 moveto
209.77826 323.19806 lineto
207.97162 323.19806 lineto
207.97162 308.1004 lineto
209.77826 308.1004 lineto
209.77826 309.76056 lineto
210.15586 309.10953 210.63112 308.62776 211.20404 308.31525 curveto
211.78346 307.99625 212.47357 307.83674 213.27435 307.83673 curveto
214.60247 307.83674 215.67994 308.36409 216.50677 309.41876 curveto
217.3401 310.47346 217.75676 311.86018 217.75677 313.57892 curveto
217.75676 315.29767 217.3401 316.68439 216.50677 317.73907 curveto
215.67994 318.79376 214.60247 319.32111 213.27435 319.32111 curveto
212.47357 319.32111 211.78346 319.16486 211.20404 318.85236 curveto
210.63112 318.53335 210.15586 318.04832 209.77826 317.39728 curveto
215.89154 313.57892 moveto
215.89153 312.25731 215.61809 311.22216 215.07123 310.47345 curveto
214.53086 309.71825 213.78541 309.34065 212.8349 309.34064 curveto
211.88437 309.34065 211.13568 309.71825 210.58881 310.47345 curveto
210.04844 311.22216 209.77826 312.25731 209.77826 313.57892 curveto
209.77826 314.90054 210.04844 315.93895 210.58881 316.69415 curveto
211.13568 317.44285 211.88437 317.8172 212.8349 317.8172 curveto
213.78541 317.8172 214.53086 317.44285 215.07123 316.69415 curveto
215.61809 315.93895 215.89153 314.90054 215.89154 313.57892 curveto
fill
grestore
gsave
0 0 0 setrgbcolor
newpath
225.70599 313.53986 moveto
224.25417 313.53986 223.24831 313.70588 222.68842 314.0379 curveto
222.12852 314.36994 221.84857 314.93634 221.84857 315.73712 curveto
221.84857 316.37515 222.0569 316.88296 222.47357 317.26056 curveto
222.89674 317.63165 223.46966 317.8172 224.19232 317.8172 curveto
225.18841 317.8172 225.98593 317.46564 226.5849 316.76251 curveto
227.19036 316.05288 227.49309 315.11213 227.4931 313.94025 curveto
227.4931 313.53986 lineto
225.70599 313.53986 lineto
229.28998 312.79767 moveto
229.28998 319.0379 lineto
227.4931 319.0379 lineto
227.4931 317.37775 lineto
227.08294 318.04181 226.57187 318.53335 225.9599 318.85236 curveto
225.34791 319.16486 224.59922 319.32111 223.71381 319.32111 curveto
222.59401 319.32111 221.70208 319.00861 221.03802 318.38361 curveto
220.38047 317.7521 220.0517 316.909 220.0517 315.85431 curveto
220.0517 314.62384 220.46185 313.69611 221.28217 313.07111 curveto
222.10899 312.44611 223.33945 312.13361 224.97357 312.13361 curveto
227.4931 312.13361 lineto
227.4931 311.95782 lineto
227.49309 311.13101 227.21966 310.49299 226.67279 310.04376 curveto
226.13242 309.58804 225.3707 309.36018 224.38763 309.36017 curveto
223.76263 309.36018 223.15391 309.43505 222.56146 309.58478 curveto
221.96901 309.73453 221.39935 309.95914 220.85248 310.25861 curveto
220.85248 308.59845 lineto
221.51003 308.34455 222.14805 308.15575 222.76654 308.03204 curveto
223.38503 307.90185 223.98724 307.83674 224.57318 307.83673 curveto
226.15521 307.83674 227.33684 308.2469 228.1181 309.0672 curveto
228.89934 309.88752 229.28997 311.13101 229.28998 312.79767 curveto
fill
grestore
gsave
0 0 0 setrgbcolor
newpath
240.01263 308.42267 moveto
240.01263 310.12189 lineto
239.50481 309.86148 238.97747 309.66617 238.4306 309.53595 curveto
237.88372 309.40575 237.31732 309.34065 236.73138 309.34064 curveto
235.83945 309.34065 235.16888 309.47737 234.71967 309.75079 curveto
234.27695 310.02424 234.0556 310.4344 234.0556 310.98126 curveto
234.0556 311.39794 234.21511 311.72671 234.53412 311.96759 curveto
234.85313 312.20197 235.4944 312.42658 236.45795 312.64142 curveto
237.07318 312.77814 lineto
238.34922 313.05158 239.25416 313.43895 239.78802 313.94025 curveto
240.32838 314.43504 240.59856 315.1284 240.59857 316.02032 curveto
240.59856 317.03595 240.19492 317.83999 239.38763 318.43243 curveto
238.58685 319.02488 237.48333 319.32111 236.07709 319.32111 curveto
235.49115 319.32111 234.87917 319.26251 234.24115 319.14532 curveto
233.60964 319.03465 232.94232 318.86538 232.2392 318.63751 curveto
232.2392 316.78204 lineto
232.90326 317.1271 233.55755 317.38751 234.20209 317.56329 curveto
234.84661 317.73257 235.48464 317.8172 236.11615 317.8172 curveto
236.9625 317.8172 237.61354 317.67397 238.06927 317.38751 curveto
238.525 317.09455 238.75286 316.68439 238.75287 316.15704 curveto
238.75286 315.66877 238.58685 315.29442 238.25482 315.034 curveto
237.92929 314.77358 237.20989 314.52293 236.09662 314.28204 curveto
235.47162 314.13556 lineto
234.35833 313.90119 233.5543 313.54312 233.05951 313.06134 curveto
232.56472 312.57307 232.31732 311.90575 232.31732 311.05939 curveto
232.31732 310.03075 232.6819 309.23648 233.41107 308.67657 curveto
234.14024 308.11669 235.17539 307.83674 236.51654 307.83673 curveto
237.1806 307.83674 237.8056 307.88557 238.39154 307.98322 curveto
238.97747 308.08088 239.51783 308.22737 240.01263 308.42267 curveto
fill
grestore
gsave
0 0 0 setrgbcolor
newpath
250.44232 308.42267 moveto
250.44232 310.12189 lineto
249.9345 309.86148 249.40716 309.66617 248.86029 309.53595 curveto
248.31341 309.40575 247.747 309.34065 247.16107 309.34064 curveto
246.26914 309.34065 245.59857 309.47737 245.14935 309.75079 curveto
244.70664 310.02424 244.48529 310.4344 244.48529 310.98126 curveto
244.48529 311.39794 244.64479 311.72671 244.96381 311.96759 curveto
245.28281 312.20197 245.92409 312.42658 246.88763 312.64142 curveto
247.50287 312.77814 lineto
248.7789 313.05158 249.68385 313.43895 250.21771 313.94025 curveto
250.75807 314.43504 251.02825 315.1284 251.02826 316.02032 curveto
251.02825 317.03595 250.6246 317.83999 249.81732 318.43243 curveto
249.01653 319.02488 247.91302 319.32111 246.50677 319.32111 curveto
245.92083 319.32111 245.30885 319.26251 244.67084 319.14532 curveto
244.03932 319.03465 243.37201 318.86538 242.66888 318.63751 curveto
242.66888 316.78204 lineto
243.33295 317.1271 243.98724 317.38751 244.63177 317.56329 curveto
245.2763 317.73257 245.91432 317.8172 246.54584 317.8172 curveto
247.39219 317.8172 248.04323 317.67397 248.49896 317.38751 curveto
248.95468 317.09455 249.18255 316.68439 249.18256 316.15704 curveto
249.18255 315.66877 249.01653 315.29442 248.68451 315.034 curveto
248.35898 314.77358 247.63958 314.52293 246.52631 314.28204 curveto
245.90131 314.13556 lineto
244.78802 313.90119 243.98399 313.54312 243.4892 313.06134 curveto
242.9944 312.57307 242.74701 311.90575 242.74701 311.05939 curveto
242.74701 310.03075 243.11159 309.23648 243.84076 308.67657 curveto
244.56992 308.11669 245.60508 307.83674 246.94623 307.83673 curveto
247.61028 307.83674 248.23528 307.88557 248.82123 307.98322 curveto
249.40716 308.08088 249.94752 308.22737 250.44232 308.42267 curveto
fill
grestore
gsave
0 0 0 setrgbcolor
newpath
252.85443 308.1004 moveto
254.65131 308.1004 lineto
256.8974 316.63556 lineto
259.13373 308.1004 lineto
261.25287 308.1004 lineto
263.49896 316.63556 lineto
265.73529 308.1004 lineto
267.53217 308.1004 lineto
264.67084 319.0379 lineto
262.5517 319.0379 lineto
260.19818 310.07306 lineto
257.8349 319.0379 lineto
255.71576 319.0379 lineto
252.85443 308.1004 lineto
fill
grestore
gsave
0 0 0 setrgbcolor
newpath
274.50482 309.36017 moveto
273.54127 309.36018 272.77956 309.73778 272.21967 310.49298 curveto
271.65977 311.24169 271.37982 312.27033 271.37982 313.57892 curveto
271.37982 314.88752 271.65651 315.91942 272.2099 316.67462 curveto
272.76979 317.42332 273.53476 317.79767 274.50482 317.79767 curveto
275.46185 317.79767 276.22031 317.42007 276.78021 316.66486 curveto
277.3401 315.90965 277.62005 314.88101 277.62006 313.57892 curveto
277.62005 312.28335 277.3401 311.25796 276.78021 310.50275 curveto
276.22031 309.74104 275.46185 309.36018 274.50482 309.36017 curveto
274.50482 307.83673 moveto
276.06731 307.83674 277.29453 308.34455 278.18646 309.36017 curveto
279.07838 310.3758 279.52434 311.78205 279.52435 313.57892 curveto
279.52434 315.36929 279.07838 316.77554 278.18646 317.79767 curveto
277.29453 318.81329 276.06731 319.32111 274.50482 319.32111 curveto
272.93581 319.32111 271.70534 318.81329 270.81342 317.79767 curveto
269.928 316.77554 269.48529 315.36929 269.48529 313.57892 curveto
269.48529 311.78205 269.928 310.3758 270.81342 309.36017 curveto
271.70534 308.34455 272.93581 307.83674 274.50482 307.83673 curveto
fill
grestore
gsave
0 0 0 setrgbcolor
newpath
288.83099 309.78009 moveto
288.62916 309.66291 288.40781 309.57828 288.16693 309.52618 curveto
287.93255 309.4676 287.67213 309.4383 287.38568 309.43829 curveto
286.37005 309.4383 285.5888 309.77033 285.04193 310.43439 curveto
284.50156 311.09195 284.23138 312.03921 284.23138 313.27618 curveto
284.23138 319.0379 lineto
282.42474 319.0379 lineto
282.42474 308.1004 lineto
284.23138 308.1004 lineto
284.23138 309.79962 lineto
284.60898 309.13557 285.10052 308.64403 285.70599 308.32501 curveto
286.31146 307.9995 287.04713 307.83674 287.91302 307.83673 curveto
288.03672 307.83674 288.17343 307.84651 288.32318 307.86603 curveto
288.47291 307.87906 288.63893 307.90185 288.82123 307.93439 curveto
288.83099 309.78009 lineto
fill
grestore
gsave
0 0 0 setrgbcolor
newpath
297.58099 309.76056 moveto
297.58099 303.84259 lineto
299.37787 303.84259 lineto
299.37787 319.0379 lineto
297.58099 319.0379 lineto
297.58099 317.39728 lineto
297.20338 318.04832 296.72487 318.53335 296.14545 318.85236 curveto
295.57252 319.16486 294.88242 319.32111 294.07513 319.32111 curveto
292.75352 319.32111 291.67604 318.79376 290.84271 317.73907 curveto
290.01589 316.68439 289.60248 315.29767 289.60248 313.57892 curveto
289.60248 311.86018 290.01589 310.47346 290.84271 309.41876 curveto
291.67604 308.36409 292.75352 307.83674 294.07513 307.83673 curveto
294.88242 307.83674 295.57252 307.99625 296.14545 308.31525 curveto
296.72487 308.62776 297.20338 309.10953 297.58099 309.76056 curveto
291.45795 313.57892 moveto
291.45794 314.90054 291.72813 315.93895 292.26849 316.69415 curveto
292.81536 317.44285 293.56406 317.8172 294.51459 317.8172 curveto
295.4651 317.8172 296.2138 317.44285 296.76068 316.69415 curveto
297.30755 315.93895 297.58098 314.90054 297.58099 313.57892 curveto
297.58098 312.25731 297.30755 311.22216 296.76068 310.47345 curveto
296.2138 309.71825 295.4651 309.34065 294.51459 309.34064 curveto
293.56406 309.34065 292.81536 309.71825 292.26849 310.47345 curveto
291.72813 311.22216 291.45794 312.25731 291.45795 313.57892 curveto
fill
grestore
gsave
0 0 0 setrgbcolor
newpath
304.77826 304.45782 moveto
304.77826 309.87775 lineto
303.1181 309.87775 lineto
303.1181 304.45782 lineto
304.77826 304.45782 lineto
308.46967 304.45782 moveto
308.46967 309.87775 lineto
306.80951 309.87775 lineto
306.80951 304.45782 lineto
308.46967 304.45782 lineto
fill
grestore
grestore
gsave [1 0 0 1 -0.02447 1.60039] concat
0 0 0 setrgbcolor
[] 0 setdash
1 setlinewidth
0 setlinejoin
0 setlinecap
newpath
263.35364 53.313054 moveto
317.95134 131.03449 lineto
stroke
gsave [-0.63230545 -0.90010545 0.90010545 -0.63230545 317.31903 130.13438] concat
gsave
0 0 0 setrgbcolor
newpath
8.7185878 4.0337352 moveto
-2.2072895 0.016013256 lineto
8.7185884 -4.0017078 lineto
6.97309 -1.6296469 6.9831476 1.6157441 8.7185878 4.0337352 curveto
closepath
eofill
grestore
grestore
grestore
gsave [1 0 0 1 -0.02447 1.60039] concat
0 0 0 setrgbcolor
[] 0 setdash
1 setlinewidth
0 setlinejoin
0 setlinecap
newpath
248.58014 76.436788 moveto
248.58014 127.82286 lineto
stroke
gsave [-6.7353349e-17 -1.1 1.1 -6.7353349e-17 248.58014 126.72286] concat
gsave
0 0 0 setrgbcolor
newpath
8.7185878 4.0337352 moveto
-2.2072895 0.016013256 lineto
8.7185884 -4.0017078 lineto
6.97309 -1.6296469 6.9831476 1.6157441 8.7185878 4.0337352 curveto
closepath
eofill
grestore
grestore
grestore
gsave [1 0 0 1 -0.02447 1.60039] concat
0 0 0 setrgbcolor
[] 0 setdash
0.99000001 setlinewidth
0 setlinejoin
0 setlinecap
newpath
235.0913 53.95538 moveto
165.07777 131.03449 lineto
stroke
gsave [0.73220629 -0.80609861 0.80609861 0.73220629 165.80998 130.22839] concat
gsave
0 0 0 setrgbcolor
newpath
8.7185878 4.0337352 moveto
-2.2072895 0.016013256 lineto
8.7185884 -4.0017078 lineto
6.97309 -1.6296469 6.9831476 1.6157441 8.7185878 4.0337352 curveto
closepath
eofill
grestore
grestore
grestore
gsave [1 0 0 1 -0.02447 1.60039] concat
0 0 0 setrgbcolor
[] 0 setdash
1 setlinewidth
0 setlinejoin
0 setlinecap
newpath
123.96891 193.34011 moveto
66.159573 258.21503 lineto
stroke
gsave [0.73180908 -0.82125238 0.82125238 0.73180908 66.891382 257.39378] concat
gsave
0 0 0 setrgbcolor
newpath
8.7185878 4.0337352 moveto
-2.2072895 0.016013256 lineto
8.7185884 -4.0017078 lineto
6.97309 -1.6296469 6.9831476 1.6157441 8.7185878 4.0337352 curveto
closepath
eofill
grestore
grestore
grestore
gsave [1 0 0 1 -0.02447 1.60039] concat
0 0 0 setrgbcolor
[] 0 setdash
1 setlinewidth
0 setlinejoin
0 setlinecap
newpath
153.5159 192.69778 moveto
153.5159 254.36108 lineto
stroke
gsave [-6.7353349e-17 -1.1 1.1 -6.7353349e-17 153.5159 253.26108] concat
gsave
0 0 0 setrgbcolor
newpath
8.7185878 4.0337352 moveto
-2.2072895 0.016013256 lineto
8.7185884 -4.0017078 lineto
6.97309 -1.6296469 6.9831476 1.6157441 8.7185878 4.0337352 curveto
closepath
eofill
grestore
grestore
grestore
gsave [1 0 0 1 -0.02447 1.60039] concat
0 0 0 setrgbcolor
[] 0 setdash
1 setlinewidth
0 setlinejoin
0 setlinecap
newpath
180.49359 192.69778 moveto
243.44153 256.93038 lineto
stroke
gsave [-0.76992139 -0.78563417 0.78563417 -0.76992139 242.67161 256.14475] concat
gsave
0 0 0 setrgbcolor
newpath
8.7185878 4.0337352 moveto
-2.2072895 0.016013256 lineto
8.7185884 -4.0017078 lineto
6.97309 -1.6296469 6.9831476 1.6157441 8.7185878 4.0337352 curveto
closepath
eofill
grestore
grestore
grestore
grestore
grestore
showpage
%%EOF
