%!PS-Adobe-3.0 EPSF-3.0
%%Creator: inkscape 0.46
%%Pages: 1
%%Orientation: Portrait
%%BoundingBox: 0 0 190 172
%%HiResBoundingBox: -1.1835938e-07 -3.4988281e-06 189.44478 171.19933
%%EndComments
%%Page: 1 1
0 172 translate
0.8 -0.8 scale
0 0 0 setrgbcolor
[] 0 setdash
1 setlinewidth
0 setlinejoin
0 setlinecap
gsave [1 0 0 1 0 0] concat
gsave [1 0 0 1 -43.930332 -22.684351] concat
gsave [1 0 0 1 87.523682 -26.97769] concat
0 0 0 setrgbcolor
[] 0 setdash
1 setlinewidth
0 setlinejoin
0 setlinecap
newpath
53.008372 50.162041 moveto
96.610903 50.162041 lineto
stroke
0 0 0 setrgbcolor
[] 0 setdash
1 setlinewidth
0 setlinejoin
0 setlinecap
newpath
53.008373 54.804314 moveto
96.610901 54.804314 lineto
stroke
0 0 0 setrgbcolor
[] 0 setdash
1 setlinewidth
0 setlinejoin
0 setlinecap
newpath
53.008372 59.446604 moveto
96.610903 59.446604 lineto
stroke
0 0 0 setrgbcolor
[] 0 setdash
1 setlinewidth
0 setlinejoin
0 setlinecap
newpath
53.008373 64.088878 moveto
96.610901 64.088878 lineto
stroke
0 0 0 setrgbcolor
[] 0 setdash
1 setlinewidth
0 setlinejoin
0 setlinecap
newpath
53.008373 68.731158 moveto
96.610901 68.731158 lineto
stroke
0 0 0 setrgbcolor
[] 0 setdash
1 setlinewidth
0 setlinejoin
0 setlinecap
newpath
53.008375 73.373432 moveto
96.6109 73.373432 lineto
stroke
0 0 0 setrgbcolor
[] 0 setdash
1 setlinewidth
0 setlinejoin
0 setlinecap
newpath
53.008372 78.015706 moveto
96.610903 78.015706 lineto
stroke
0 0 0 setrgbcolor
[] 0 setdash
1 setlinewidth
0 setlinejoin
0 setlinecap
newpath
53.008373 82.65798 moveto
96.610901 82.65798 lineto
stroke
0 0 0 setrgbcolor
[] 0 setdash
1 setlinewidth
0 setlinejoin
0 setlinecap
newpath
53.008372 87.300247 moveto
96.610903 87.300247 lineto
stroke
0 0 0 setrgbcolor
[] 0 setdash
1 setlinewidth
0 setlinejoin
0 setlinecap
newpath
53.008373 91.942521 moveto
96.610901 91.942521 lineto
stroke
0 0 0 setrgbcolor
[] 0 setdash
1 setlinewidth
0 setlinejoin
0 setlinecap
newpath
53.008372 96.584795 moveto
96.610903 96.584795 lineto
stroke
0 0 0 setrgbcolor
[] 0 setdash
1 setlinewidth
0 setlinejoin
0 setlinecap
newpath
53.008373 101.22707 moveto
96.610901 101.22707 lineto
stroke
gsave
0 0 0 setrgbcolor
newpath
60.444405 107.63457 moveto
60.444405 109.31426 lineto
59.936583 109.03432 59.425516 108.82599 58.911201 108.68926 curveto
58.403381 108.54604 57.889059 108.47443 57.368233 108.47442 curveto
56.202863 108.47443 55.297916 108.84552 54.653389 109.5877 curveto
54.008854 110.32338 53.686589 111.35854 53.686592 112.69317 curveto
53.686589 114.02781 54.008854 115.06622 54.653389 115.8084 curveto
55.297916 116.54408 56.202863 116.91192 57.368233 116.91192 curveto
57.889059 116.91192 58.403381 116.84356 58.911201 116.70684 curveto
59.425516 116.56361 59.936583 116.35202 60.444405 116.07207 curveto
60.444405 117.73223 lineto
59.943093 117.96661 59.42226 118.14239 58.881905 118.25957 curveto
58.348043 118.37676 57.778382 118.43536 57.17292 118.43536 curveto
55.52578 118.43536 54.217188 117.91778 53.247139 116.88262 curveto
52.277085 115.84747 51.79206 114.45098 51.792061 112.69317 curveto
51.79206 110.90932 52.280341 109.50633 53.256905 108.48418 curveto
54.239974 107.46206 55.584374 106.95099 57.290108 106.95098 curveto
57.843486 106.95099 58.38385 107.00959 58.911201 107.12676 curveto
59.438536 107.23745 59.949604 107.40672 60.444405 107.63457 curveto
fill
grestore
gsave
0 0 0 setrgbcolor
newpath
67.788155 108.47442 moveto
66.824608 108.47443 66.06289 108.85203 65.502998 109.60723 curveto
64.943099 110.35594 64.663152 111.38458 64.663155 112.69317 curveto
64.663152 114.00177 64.939844 115.03367 65.493233 115.78887 curveto
66.053124 116.53757 66.818097 116.91192 67.788155 116.91192 curveto
68.745179 116.91192 69.503642 116.53432 70.063545 115.77911 curveto
70.623432 115.0239 70.90338 113.99526 70.903389 112.69317 curveto
70.90338 111.3976 70.623432 110.37221 70.063545 109.617 curveto
69.503642 108.85529 68.745179 108.47443 67.788155 108.47442 curveto
67.788155 106.95098 moveto
69.350647 106.95099 70.577859 107.4588 71.469795 108.47442 curveto
72.361712 109.49005 72.807675 110.8963 72.807686 112.69317 curveto
72.807675 114.48354 72.361712 115.88979 71.469795 116.91192 curveto
70.577859 117.92754 69.350647 118.43536 67.788155 118.43536 curveto
66.21914 118.43536 64.988672 117.92754 64.096748 116.91192 curveto
63.21133 115.88979 62.768622 114.48354 62.768623 112.69317 curveto
62.768622 110.8963 63.21133 109.49005 64.096748 108.47442 curveto
64.988672 107.4588 66.21914 106.95099 67.788155 106.95098 curveto
fill
grestore
gsave
0 0 0 setrgbcolor
newpath
82.973701 108.87481 moveto
82.973701 102.95684 lineto
84.770576 102.95684 lineto
84.770576 118.15215 lineto
82.973701 118.15215 lineto
82.973701 116.51153 lineto
82.596089 117.16257 82.117573 117.6476 81.538155 117.96661 curveto
80.965231 118.27911 80.275127 118.43536 79.467842 118.43536 curveto
78.146223 118.43536 77.06875 117.90801 76.23542 116.85332 curveto
75.408596 115.79864 74.995185 114.41192 74.995186 112.69317 curveto
74.995185 110.97443 75.408596 109.58771 76.23542 108.53301 curveto
77.06875 107.47834 78.146223 106.95099 79.467842 106.95098 curveto
80.275127 106.95099 80.965231 107.1105 81.538155 107.4295 curveto
82.117573 107.74201 82.596089 108.22378 82.973701 108.87481 curveto
76.850655 112.69317 moveto
76.850652 114.01479 77.120834 115.0532 77.661201 115.8084 curveto
78.208072 116.5571 78.956769 116.93145 79.907295 116.93145 curveto
80.857809 116.93145 81.606506 116.5571 82.153389 115.8084 curveto
82.700255 115.0532 82.973692 114.01479 82.973701 112.69317 curveto
82.973692 111.37156 82.700255 110.33641 82.153389 109.5877 curveto
81.606506 108.8325 80.857809 108.4549 79.907295 108.45489 curveto
78.956769 108.4549 78.208072 108.8325 77.661201 109.5877 curveto
77.120834 110.33641 76.850652 111.37156 76.850655 112.69317 curveto
fill
grestore
gsave
0 0 0 setrgbcolor
newpath
97.827217 112.23418 moveto
97.827217 113.11309 lineto
89.565498 113.11309 lineto
89.64362 114.35007 90.014714 115.29408 90.67878 115.94512 curveto
91.349348 116.58965 92.280336 116.91192 93.471748 116.91192 curveto
94.161845 116.91192 94.829162 116.82728 95.473701 116.65801 curveto
96.124734 116.48874 96.769264 116.23484 97.407295 115.89629 curveto
97.407295 117.59551 lineto
96.762754 117.86895 96.101947 118.07728 95.424873 118.22051 curveto
94.747782 118.36374 94.060934 118.43536 93.364326 118.43536 curveto
91.61953 118.43536 90.236068 117.92754 89.213936 116.91192 curveto
88.198309 115.8963 87.690497 114.5226 87.690498 112.79082 curveto
87.690497 111.00047 88.172268 109.5812 89.135811 108.53301 curveto
90.105859 107.47834 91.411197 106.95099 93.051826 106.95098 curveto
94.523173 106.95099 95.685281 107.42625 96.538155 108.37676 curveto
97.397519 109.32078 97.827206 110.60659 97.827217 112.23418 curveto
96.030342 111.70684 moveto
96.017312 110.72378 95.740619 109.93927 95.200264 109.35332 curveto
94.666402 108.7674 93.956767 108.47443 93.071358 108.47442 curveto
92.068748 108.47443 91.264712 108.75763 90.659248 109.32403 curveto
90.060287 109.89044 89.715235 110.68797 89.624092 111.71661 curveto
96.030342 111.70684 lineto
fill
grestore
grestore
gsave [1 0 0 1 -7.861729 118.24816] concat
0 0 0 setrgbcolor
[] 0 setdash
1 setlinewidth
0 setlinejoin
0 setlinecap
newpath
53.008372 50.162041 moveto
96.610903 50.162041 lineto
stroke
0 0 0 setrgbcolor
[] 0 setdash
1 setlinewidth
0 setlinejoin
0 setlinecap
newpath
53.008373 54.804314 moveto
96.610901 54.804314 lineto
stroke
0 0 0 setrgbcolor
[] 0 setdash
1 setlinewidth
0 setlinejoin
0 setlinecap
newpath
53.008372 59.446604 moveto
96.610903 59.446604 lineto
stroke
0 0 0 setrgbcolor
[] 0 setdash
1 setlinewidth
0 setlinejoin
0 setlinecap
newpath
53.008373 64.088878 moveto
96.610901 64.088878 lineto
stroke
0 0 0 setrgbcolor
[] 0 setdash
1 setlinewidth
0 setlinejoin
0 setlinecap
newpath
53.008373 68.731158 moveto
96.610901 68.731158 lineto
stroke
0 0 0 setrgbcolor
[] 0 setdash
1 setlinewidth
0 setlinejoin
0 setlinecap
newpath
53.008375 73.373432 moveto
96.6109 73.373432 lineto
stroke
0 0 0 setrgbcolor
[] 0 setdash
1 setlinewidth
0 setlinejoin
0 setlinecap
newpath
53.008372 78.015706 moveto
96.610903 78.015706 lineto
stroke
0 0 0 setrgbcolor
[] 0 setdash
1 setlinewidth
0 setlinejoin
0 setlinecap
newpath
53.008373 82.65798 moveto
96.610901 82.65798 lineto
stroke
0 0 0 setrgbcolor
[] 0 setdash
1 setlinewidth
0 setlinejoin
0 setlinecap
newpath
53.008372 87.300247 moveto
96.610903 87.300247 lineto
stroke
0 0 0 setrgbcolor
[] 0 setdash
1 setlinewidth
0 setlinejoin
0 setlinecap
newpath
53.008373 91.942521 moveto
96.610901 91.942521 lineto
stroke
0 0 0 setrgbcolor
[] 0 setdash
1 setlinewidth
0 setlinejoin
0 setlinecap
newpath
53.008372 96.584795 moveto
96.610903 96.584795 lineto
stroke
0 0 0 setrgbcolor
[] 0 setdash
1 setlinewidth
0 setlinejoin
0 setlinecap
newpath
53.008373 101.22707 moveto
96.610901 101.22707 lineto
stroke
gsave
0 0 0 setrgbcolor
newpath
60.444405 107.63457 moveto
60.444405 109.31426 lineto
59.936583 109.03432 59.425516 108.82599 58.911201 108.68926 curveto
58.403381 108.54604 57.889059 108.47443 57.368233 108.47442 curveto
56.202863 108.47443 55.297916 108.84552 54.653389 109.5877 curveto
54.008854 110.32338 53.686589 111.35854 53.686592 112.69317 curveto
53.686589 114.02781 54.008854 115.06622 54.653389 115.8084 curveto
55.297916 116.54408 56.202863 116.91192 57.368233 116.91192 curveto
57.889059 116.91192 58.403381 116.84356 58.911201 116.70684 curveto
59.425516 116.56361 59.936583 116.35202 60.444405 116.07207 curveto
60.444405 117.73223 lineto
59.943093 117.96661 59.42226 118.14239 58.881905 118.25957 curveto
58.348043 118.37676 57.778382 118.43536 57.17292 118.43536 curveto
55.52578 118.43536 54.217188 117.91778 53.247139 116.88262 curveto
52.277085 115.84747 51.79206 114.45098 51.792061 112.69317 curveto
51.79206 110.90932 52.280341 109.50633 53.256905 108.48418 curveto
54.239974 107.46206 55.584374 106.95099 57.290108 106.95098 curveto
57.843486 106.95099 58.38385 107.00959 58.911201 107.12676 curveto
59.438536 107.23745 59.949604 107.40672 60.444405 107.63457 curveto
fill
grestore
gsave
0 0 0 setrgbcolor
newpath
67.788155 108.47442 moveto
66.824608 108.47443 66.06289 108.85203 65.502998 109.60723 curveto
64.943099 110.35594 64.663152 111.38458 64.663155 112.69317 curveto
64.663152 114.00177 64.939844 115.03367 65.493233 115.78887 curveto
66.053124 116.53757 66.818097 116.91192 67.788155 116.91192 curveto
68.745179 116.91192 69.503642 116.53432 70.063545 115.77911 curveto
70.623432 115.0239 70.90338 113.99526 70.903389 112.69317 curveto
70.90338 111.3976 70.623432 110.37221 70.063545 109.617 curveto
69.503642 108.85529 68.745179 108.47443 67.788155 108.47442 curveto
67.788155 106.95098 moveto
69.350647 106.95099 70.577859 107.4588 71.469795 108.47442 curveto
72.361712 109.49005 72.807675 110.8963 72.807686 112.69317 curveto
72.807675 114.48354 72.361712 115.88979 71.469795 116.91192 curveto
70.577859 117.92754 69.350647 118.43536 67.788155 118.43536 curveto
66.21914 118.43536 64.988672 117.92754 64.096748 116.91192 curveto
63.21133 115.88979 62.768622 114.48354 62.768623 112.69317 curveto
62.768622 110.8963 63.21133 109.49005 64.096748 108.47442 curveto
64.988672 107.4588 66.21914 106.95099 67.788155 106.95098 curveto
fill
grestore
gsave
0 0 0 setrgbcolor
newpath
82.973701 108.87481 moveto
82.973701 102.95684 lineto
84.770576 102.95684 lineto
84.770576 118.15215 lineto
82.973701 118.15215 lineto
82.973701 116.51153 lineto
82.596089 117.16257 82.117573 117.6476 81.538155 117.96661 curveto
80.965231 118.27911 80.275127 118.43536 79.467842 118.43536 curveto
78.146223 118.43536 77.06875 117.90801 76.23542 116.85332 curveto
75.408596 115.79864 74.995185 114.41192 74.995186 112.69317 curveto
74.995185 110.97443 75.408596 109.58771 76.23542 108.53301 curveto
77.06875 107.47834 78.146223 106.95099 79.467842 106.95098 curveto
80.275127 106.95099 80.965231 107.1105 81.538155 107.4295 curveto
82.117573 107.74201 82.596089 108.22378 82.973701 108.87481 curveto
76.850655 112.69317 moveto
76.850652 114.01479 77.120834 115.0532 77.661201 115.8084 curveto
78.208072 116.5571 78.956769 116.93145 79.907295 116.93145 curveto
80.857809 116.93145 81.606506 116.5571 82.153389 115.8084 curveto
82.700255 115.0532 82.973692 114.01479 82.973701 112.69317 curveto
82.973692 111.37156 82.700255 110.33641 82.153389 109.5877 curveto
81.606506 108.8325 80.857809 108.4549 79.907295 108.45489 curveto
78.956769 108.4549 78.208072 108.8325 77.661201 109.5877 curveto
77.120834 110.33641 76.850652 111.37156 76.850655 112.69317 curveto
fill
grestore
gsave
0 0 0 setrgbcolor
newpath
97.827217 112.23418 moveto
97.827217 113.11309 lineto
89.565498 113.11309 lineto
89.64362 114.35007 90.014714 115.29408 90.67878 115.94512 curveto
91.349348 116.58965 92.280336 116.91192 93.471748 116.91192 curveto
94.161845 116.91192 94.829162 116.82728 95.473701 116.65801 curveto
96.124734 116.48874 96.769264 116.23484 97.407295 115.89629 curveto
97.407295 117.59551 lineto
96.762754 117.86895 96.101947 118.07728 95.424873 118.22051 curveto
94.747782 118.36374 94.060934 118.43536 93.364326 118.43536 curveto
91.61953 118.43536 90.236068 117.92754 89.213936 116.91192 curveto
88.198309 115.8963 87.690497 114.5226 87.690498 112.79082 curveto
87.690497 111.00047 88.172268 109.5812 89.135811 108.53301 curveto
90.105859 107.47834 91.411197 106.95099 93.051826 106.95098 curveto
94.523173 106.95099 95.685281 107.42625 96.538155 108.37676 curveto
97.397519 109.32078 97.827206 110.60659 97.827217 112.23418 curveto
96.030342 111.70684 moveto
96.017312 110.72378 95.740619 109.93927 95.200264 109.35332 curveto
94.666402 108.7674 93.956767 108.47443 93.071358 108.47442 curveto
92.068748 108.47443 91.264712 108.75763 90.659248 109.32403 curveto
90.060287 109.89044 89.715235 110.68797 89.624092 111.71661 curveto
96.030342 111.70684 lineto
fill
grestore
grestore
gsave [1 0 0 1 87.523682 118.24816] concat
0 0 0 setrgbcolor
[] 0 setdash
1 setlinewidth
0 setlinejoin
0 setlinecap
newpath
53.008372 50.162041 moveto
96.610903 50.162041 lineto
stroke
0 0 0 setrgbcolor
[] 0 setdash
1 setlinewidth
0 setlinejoin
0 setlinecap
newpath
53.008373 54.804314 moveto
96.610901 54.804314 lineto
stroke
0 0 0 setrgbcolor
[] 0 setdash
1 setlinewidth
0 setlinejoin
0 setlinecap
newpath
53.008372 59.446604 moveto
96.610903 59.446604 lineto
stroke
0 0 0 setrgbcolor
[] 0 setdash
1 setlinewidth
0 setlinejoin
0 setlinecap
newpath
53.008373 64.088878 moveto
96.610901 64.088878 lineto
stroke
0 0 0 setrgbcolor
[] 0 setdash
1 setlinewidth
0 setlinejoin
0 setlinecap
newpath
53.008373 68.731158 moveto
96.610901 68.731158 lineto
stroke
0 0 0 setrgbcolor
[] 0 setdash
1 setlinewidth
0 setlinejoin
0 setlinecap
newpath
53.008375 73.373432 moveto
96.6109 73.373432 lineto
stroke
0 0 0 setrgbcolor
[] 0 setdash
1 setlinewidth
0 setlinejoin
0 setlinecap
newpath
53.008372 78.015706 moveto
96.610903 78.015706 lineto
stroke
0 0 0 setrgbcolor
[] 0 setdash
1 setlinewidth
0 setlinejoin
0 setlinecap
newpath
53.008373 82.65798 moveto
96.610901 82.65798 lineto
stroke
0 0 0 setrgbcolor
[] 0 setdash
1 setlinewidth
0 setlinejoin
0 setlinecap
newpath
53.008372 87.300247 moveto
96.610903 87.300247 lineto
stroke
0 0 0 setrgbcolor
[] 0 setdash
1 setlinewidth
0 setlinejoin
0 setlinecap
newpath
53.008373 91.942521 moveto
96.610901 91.942521 lineto
stroke
0 0 0 setrgbcolor
[] 0 setdash
1 setlinewidth
0 setlinejoin
0 setlinecap
newpath
53.008372 96.584795 moveto
96.610903 96.584795 lineto
stroke
0 0 0 setrgbcolor
[] 0 setdash
1 setlinewidth
0 setlinejoin
0 setlinecap
newpath
53.008373 101.22707 moveto
96.610901 101.22707 lineto
stroke
gsave
0 0 0 setrgbcolor
newpath
60.444405 107.63457 moveto
60.444405 109.31426 lineto
59.936583 109.03432 59.425516 108.82599 58.911201 108.68926 curveto
58.403381 108.54604 57.889059 108.47443 57.368233 108.47442 curveto
56.202863 108.47443 55.297916 108.84552 54.653389 109.5877 curveto
54.008854 110.32338 53.686589 111.35854 53.686592 112.69317 curveto
53.686589 114.02781 54.008854 115.06622 54.653389 115.8084 curveto
55.297916 116.54408 56.202863 116.91192 57.368233 116.91192 curveto
57.889059 116.91192 58.403381 116.84356 58.911201 116.70684 curveto
59.425516 116.56361 59.936583 116.35202 60.444405 116.07207 curveto
60.444405 117.73223 lineto
59.943093 117.96661 59.42226 118.14239 58.881905 118.25957 curveto
58.348043 118.37676 57.778382 118.43536 57.17292 118.43536 curveto
55.52578 118.43536 54.217188 117.91778 53.247139 116.88262 curveto
52.277085 115.84747 51.79206 114.45098 51.792061 112.69317 curveto
51.79206 110.90932 52.280341 109.50633 53.256905 108.48418 curveto
54.239974 107.46206 55.584374 106.95099 57.290108 106.95098 curveto
57.843486 106.95099 58.38385 107.00959 58.911201 107.12676 curveto
59.438536 107.23745 59.949604 107.40672 60.444405 107.63457 curveto
fill
grestore
gsave
0 0 0 setrgbcolor
newpath
67.788155 108.47442 moveto
66.824608 108.47443 66.06289 108.85203 65.502998 109.60723 curveto
64.943099 110.35594 64.663152 111.38458 64.663155 112.69317 curveto
64.663152 114.00177 64.939844 115.03367 65.493233 115.78887 curveto
66.053124 116.53757 66.818097 116.91192 67.788155 116.91192 curveto
68.745179 116.91192 69.503642 116.53432 70.063545 115.77911 curveto
70.623432 115.0239 70.90338 113.99526 70.903389 112.69317 curveto
70.90338 111.3976 70.623432 110.37221 70.063545 109.617 curveto
69.503642 108.85529 68.745179 108.47443 67.788155 108.47442 curveto
67.788155 106.95098 moveto
69.350647 106.95099 70.577859 107.4588 71.469795 108.47442 curveto
72.361712 109.49005 72.807675 110.8963 72.807686 112.69317 curveto
72.807675 114.48354 72.361712 115.88979 71.469795 116.91192 curveto
70.577859 117.92754 69.350647 118.43536 67.788155 118.43536 curveto
66.21914 118.43536 64.988672 117.92754 64.096748 116.91192 curveto
63.21133 115.88979 62.768622 114.48354 62.768623 112.69317 curveto
62.768622 110.8963 63.21133 109.49005 64.096748 108.47442 curveto
64.988672 107.4588 66.21914 106.95099 67.788155 106.95098 curveto
fill
grestore
gsave
0 0 0 setrgbcolor
newpath
82.973701 108.87481 moveto
82.973701 102.95684 lineto
84.770576 102.95684 lineto
84.770576 118.15215 lineto
82.973701 118.15215 lineto
82.973701 116.51153 lineto
82.596089 117.16257 82.117573 117.6476 81.538155 117.96661 curveto
80.965231 118.27911 80.275127 118.43536 79.467842 118.43536 curveto
78.146223 118.43536 77.06875 117.90801 76.23542 116.85332 curveto
75.408596 115.79864 74.995185 114.41192 74.995186 112.69317 curveto
74.995185 110.97443 75.408596 109.58771 76.23542 108.53301 curveto
77.06875 107.47834 78.146223 106.95099 79.467842 106.95098 curveto
80.275127 106.95099 80.965231 107.1105 81.538155 107.4295 curveto
82.117573 107.74201 82.596089 108.22378 82.973701 108.87481 curveto
76.850655 112.69317 moveto
76.850652 114.01479 77.120834 115.0532 77.661201 115.8084 curveto
78.208072 116.5571 78.956769 116.93145 79.907295 116.93145 curveto
80.857809 116.93145 81.606506 116.5571 82.153389 115.8084 curveto
82.700255 115.0532 82.973692 114.01479 82.973701 112.69317 curveto
82.973692 111.37156 82.700255 110.33641 82.153389 109.5877 curveto
81.606506 108.8325 80.857809 108.4549 79.907295 108.45489 curveto
78.956769 108.4549 78.208072 108.8325 77.661201 109.5877 curveto
77.120834 110.33641 76.850652 111.37156 76.850655 112.69317 curveto
fill
grestore
gsave
0 0 0 setrgbcolor
newpath
97.827217 112.23418 moveto
97.827217 113.11309 lineto
89.565498 113.11309 lineto
89.64362 114.35007 90.014714 115.29408 90.67878 115.94512 curveto
91.349348 116.58965 92.280336 116.91192 93.471748 116.91192 curveto
94.161845 116.91192 94.829162 116.82728 95.473701 116.65801 curveto
96.124734 116.48874 96.769264 116.23484 97.407295 115.89629 curveto
97.407295 117.59551 lineto
96.762754 117.86895 96.101947 118.07728 95.424873 118.22051 curveto
94.747782 118.36374 94.060934 118.43536 93.364326 118.43536 curveto
91.61953 118.43536 90.236068 117.92754 89.213936 116.91192 curveto
88.198309 115.8963 87.690497 114.5226 87.690498 112.79082 curveto
87.690497 111.00047 88.172268 109.5812 89.135811 108.53301 curveto
90.105859 107.47834 91.411197 106.95099 93.051826 106.95098 curveto
94.523173 106.95099 95.685281 107.42625 96.538155 108.37676 curveto
97.397519 109.32078 97.827206 110.60659 97.827217 112.23418 curveto
96.030342 111.70684 moveto
96.017312 110.72378 95.740619 109.93927 95.200264 109.35332 curveto
94.666402 108.7674 93.956767 108.47443 93.071358 108.47442 curveto
92.068748 108.47443 91.264712 108.75763 90.659248 109.32403 curveto
90.060287 109.89044 89.715235 110.68797 89.624092 111.71661 curveto
96.030342 111.70684 lineto
fill
grestore
grestore
gsave [1 0 0 1 182.90909 118.24816] concat
0 0 0 setrgbcolor
[] 0 setdash
1 setlinewidth
0 setlinejoin
0 setlinecap
newpath
53.008372 50.162041 moveto
96.610903 50.162041 lineto
stroke
0 0 0 setrgbcolor
[] 0 setdash
1 setlinewidth
0 setlinejoin
0 setlinecap
newpath
53.008373 54.804314 moveto
96.610901 54.804314 lineto
stroke
0 0 0 setrgbcolor
[] 0 setdash
1 setlinewidth
0 setlinejoin
0 setlinecap
newpath
53.008372 59.446604 moveto
96.610903 59.446604 lineto
stroke
0 0 0 setrgbcolor
[] 0 setdash
1 setlinewidth
0 setlinejoin
0 setlinecap
newpath
53.008373 64.088878 moveto
96.610901 64.088878 lineto
stroke
0 0 0 setrgbcolor
[] 0 setdash
1 setlinewidth
0 setlinejoin
0 setlinecap
newpath
53.008373 68.731158 moveto
96.610901 68.731158 lineto
stroke
0 0 0 setrgbcolor
[] 0 setdash
1 setlinewidth
0 setlinejoin
0 setlinecap
newpath
53.008375 73.373432 moveto
96.6109 73.373432 lineto
stroke
0 0 0 setrgbcolor
[] 0 setdash
1 setlinewidth
0 setlinejoin
0 setlinecap
newpath
53.008372 78.015706 moveto
96.610903 78.015706 lineto
stroke
0 0 0 setrgbcolor
[] 0 setdash
1 setlinewidth
0 setlinejoin
0 setlinecap
newpath
53.008373 82.65798 moveto
96.610901 82.65798 lineto
stroke
0 0 0 setrgbcolor
[] 0 setdash
1 setlinewidth
0 setlinejoin
0 setlinecap
newpath
53.008372 87.300247 moveto
96.610903 87.300247 lineto
stroke
0 0 0 setrgbcolor
[] 0 setdash
1 setlinewidth
0 setlinejoin
0 setlinecap
newpath
53.008373 91.942521 moveto
96.610901 91.942521 lineto
stroke
0 0 0 setrgbcolor
[] 0 setdash
1 setlinewidth
0 setlinejoin
0 setlinecap
newpath
53.008372 96.584795 moveto
96.610903 96.584795 lineto
stroke
0 0 0 setrgbcolor
[] 0 setdash
1 setlinewidth
0 setlinejoin
0 setlinecap
newpath
53.008373 101.22707 moveto
96.610901 101.22707 lineto
stroke
gsave
0 0 0 setrgbcolor
newpath
60.444405 107.63457 moveto
60.444405 109.31426 lineto
59.936583 109.03432 59.425516 108.82599 58.911201 108.68926 curveto
58.403381 108.54604 57.889059 108.47443 57.368233 108.47442 curveto
56.202863 108.47443 55.297916 108.84552 54.653389 109.5877 curveto
54.008854 110.32338 53.686589 111.35854 53.686592 112.69317 curveto
53.686589 114.02781 54.008854 115.06622 54.653389 115.8084 curveto
55.297916 116.54408 56.202863 116.91192 57.368233 116.91192 curveto
57.889059 116.91192 58.403381 116.84356 58.911201 116.70684 curveto
59.425516 116.56361 59.936583 116.35202 60.444405 116.07207 curveto
60.444405 117.73223 lineto
59.943093 117.96661 59.42226 118.14239 58.881905 118.25957 curveto
58.348043 118.37676 57.778382 118.43536 57.17292 118.43536 curveto
55.52578 118.43536 54.217188 117.91778 53.247139 116.88262 curveto
52.277085 115.84747 51.79206 114.45098 51.792061 112.69317 curveto
51.79206 110.90932 52.280341 109.50633 53.256905 108.48418 curveto
54.239974 107.46206 55.584374 106.95099 57.290108 106.95098 curveto
57.843486 106.95099 58.38385 107.00959 58.911201 107.12676 curveto
59.438536 107.23745 59.949604 107.40672 60.444405 107.63457 curveto
fill
grestore
gsave
0 0 0 setrgbcolor
newpath
67.788155 108.47442 moveto
66.824608 108.47443 66.06289 108.85203 65.502998 109.60723 curveto
64.943099 110.35594 64.663152 111.38458 64.663155 112.69317 curveto
64.663152 114.00177 64.939844 115.03367 65.493233 115.78887 curveto
66.053124 116.53757 66.818097 116.91192 67.788155 116.91192 curveto
68.745179 116.91192 69.503642 116.53432 70.063545 115.77911 curveto
70.623432 115.0239 70.90338 113.99526 70.903389 112.69317 curveto
70.90338 111.3976 70.623432 110.37221 70.063545 109.617 curveto
69.503642 108.85529 68.745179 108.47443 67.788155 108.47442 curveto
67.788155 106.95098 moveto
69.350647 106.95099 70.577859 107.4588 71.469795 108.47442 curveto
72.361712 109.49005 72.807675 110.8963 72.807686 112.69317 curveto
72.807675 114.48354 72.361712 115.88979 71.469795 116.91192 curveto
70.577859 117.92754 69.350647 118.43536 67.788155 118.43536 curveto
66.21914 118.43536 64.988672 117.92754 64.096748 116.91192 curveto
63.21133 115.88979 62.768622 114.48354 62.768623 112.69317 curveto
62.768622 110.8963 63.21133 109.49005 64.096748 108.47442 curveto
64.988672 107.4588 66.21914 106.95099 67.788155 106.95098 curveto
fill
grestore
gsave
0 0 0 setrgbcolor
newpath
82.973701 108.87481 moveto
82.973701 102.95684 lineto
84.770576 102.95684 lineto
84.770576 118.15215 lineto
82.973701 118.15215 lineto
82.973701 116.51153 lineto
82.596089 117.16257 82.117573 117.6476 81.538155 117.96661 curveto
80.965231 118.27911 80.275127 118.43536 79.467842 118.43536 curveto
78.146223 118.43536 77.06875 117.90801 76.23542 116.85332 curveto
75.408596 115.79864 74.995185 114.41192 74.995186 112.69317 curveto
74.995185 110.97443 75.408596 109.58771 76.23542 108.53301 curveto
77.06875 107.47834 78.146223 106.95099 79.467842 106.95098 curveto
80.275127 106.95099 80.965231 107.1105 81.538155 107.4295 curveto
82.117573 107.74201 82.596089 108.22378 82.973701 108.87481 curveto
76.850655 112.69317 moveto
76.850652 114.01479 77.120834 115.0532 77.661201 115.8084 curveto
78.208072 116.5571 78.956769 116.93145 79.907295 116.93145 curveto
80.857809 116.93145 81.606506 116.5571 82.153389 115.8084 curveto
82.700255 115.0532 82.973692 114.01479 82.973701 112.69317 curveto
82.973692 111.37156 82.700255 110.33641 82.153389 109.5877 curveto
81.606506 108.8325 80.857809 108.4549 79.907295 108.45489 curveto
78.956769 108.4549 78.208072 108.8325 77.661201 109.5877 curveto
77.120834 110.33641 76.850652 111.37156 76.850655 112.69317 curveto
fill
grestore
gsave
0 0 0 setrgbcolor
newpath
97.827217 112.23418 moveto
97.827217 113.11309 lineto
89.565498 113.11309 lineto
89.64362 114.35007 90.014714 115.29408 90.67878 115.94512 curveto
91.349348 116.58965 92.280336 116.91192 93.471748 116.91192 curveto
94.161845 116.91192 94.829162 116.82728 95.473701 116.65801 curveto
96.124734 116.48874 96.769264 116.23484 97.407295 115.89629 curveto
97.407295 117.59551 lineto
96.762754 117.86895 96.101947 118.07728 95.424873 118.22051 curveto
94.747782 118.36374 94.060934 118.43536 93.364326 118.43536 curveto
91.61953 118.43536 90.236068 117.92754 89.213936 116.91192 curveto
88.198309 115.8963 87.690497 114.5226 87.690498 112.79082 curveto
87.690497 111.00047 88.172268 109.5812 89.135811 108.53301 curveto
90.105859 107.47834 91.411197 106.95099 93.051826 106.95098 curveto
94.523173 106.95099 95.685281 107.42625 96.538155 108.37676 curveto
97.397519 109.32078 97.827206 110.60659 97.827217 112.23418 curveto
96.030342 111.70684 moveto
96.017312 110.72378 95.740619 109.93927 95.200264 109.35332 curveto
94.666402 108.7674 93.956767 108.47443 93.071358 108.47442 curveto
92.068748 108.47443 91.264712 108.75763 90.659248 109.32403 curveto
90.060287 109.89044 89.715235 110.68797 89.624092 111.71661 curveto
96.030342 111.70684 lineto
fill
grestore
grestore
gsave [0.7361397 0.6768296 -0.6768296 0.7361397 112.09845 2.6514878] concat
gsave
0.06666667 0.39215687 0.054901961 setrgbcolor
newpath
63.6367 48.780945 moveto
69.417633 48.780945 lineto
69.417633 127.14471 lineto
63.6367 127.14471 lineto
63.6367 48.780945 lineto
closepath
fill
grestore
gsave [0.4395904 0.8981983 -0.8981983 0.4395904 135.28728 7.7066615] concat
gsave
0.06666667 0.39215687 0.054901961 setrgbcolor
newpath
95.064238 122.81156 moveto
82.166252 123.83495 lineto
69.268266 124.85835 lineto
74.830971 113.17667 lineto
80.393677 101.49499 lineto
87.728958 112.15327 lineto
95.064238 122.81156 lineto
closepath
fill
grestore
grestore
grestore
gsave [1 0 0 0.6667452 85.850102 62.492375] concat
gsave
0.06666667 0.39215687 0.054901961 setrgbcolor
newpath
63.6367 48.780945 moveto
69.417633 48.780945 lineto
69.417633 127.14471 lineto
63.6367 127.14471 lineto
63.6367 48.780945 lineto
closepath
fill
grestore
gsave [0.4395904 0.8981983 -0.8981983 0.4395904 135.28728 7.7066615] concat
gsave
0.06666667 0.39215687 0.054901961 setrgbcolor
newpath
95.064238 122.81156 moveto
82.166252 123.83495 lineto
69.268266 124.85835 lineto
74.830971 113.17667 lineto
80.393677 101.49499 lineto
87.728958 112.15327 lineto
95.064238 122.81156 lineto
closepath
fill
grestore
grestore
grestore
gsave [0.7892929 -0.6140169 0.6140169 0.7892929 112.96204 86.201416] concat
gsave
0.06666667 0.39215687 0.054901961 setrgbcolor
newpath
63.6367 48.780945 moveto
69.417633 48.780945 lineto
69.417633 127.14471 lineto
63.6367 127.14471 lineto
63.6367 48.780945 lineto
closepath
fill
grestore
gsave [0.4395904 0.8981983 -0.8981983 0.4395904 135.28728 7.7066615] concat
gsave
0.06666667 0.39215687 0.054901961 setrgbcolor
newpath
95.064238 122.81156 moveto
82.166252 123.83495 lineto
69.268266 124.85835 lineto
74.830971 113.17667 lineto
80.393677 101.49499 lineto
87.728958 112.15327 lineto
95.064238 122.81156 lineto
closepath
fill
grestore
grestore
grestore
gsave [1 0 0 -0.6667452 108.3315 193.08171] concat
gsave
0.70588237 0 0.078431375 setrgbcolor
newpath
63.6367 48.780945 moveto
69.417633 48.780945 lineto
69.417633 127.14471 lineto
63.6367 127.14471 lineto
63.6367 48.780945 lineto
closepath
fill
grestore
gsave [0.4395904 0.8981983 -0.8981983 0.4395904 135.28728 7.7066615] concat
gsave
0.70588237 0 0.078431375 setrgbcolor
newpath
95.064238 122.81156 moveto
82.166252 123.83495 lineto
69.268266 124.85835 lineto
74.830971 113.17667 lineto
80.393677 101.49499 lineto
87.728958 112.15327 lineto
95.064238 122.81156 lineto
closepath
fill
grestore
grestore
grestore
gsave [-0.6670942 -0.6359705 0.613347 -0.6917002 97.269502 238.59798] concat
gsave
0.70588237 0 0.078431375 setrgbcolor
newpath
63.6367 48.780945 moveto
69.417633 48.780945 lineto
69.417633 127.14471 lineto
63.6367 127.14471 lineto
63.6367 48.780945 lineto
closepath
fill
grestore
gsave [0.4395904 0.8981983 -0.8981983 0.4395904 135.28728 7.7066615] concat
gsave
0.70588237 0 0.078431375 setrgbcolor
newpath
95.064238 122.81156 moveto
82.166252 123.83495 lineto
69.268266 124.85835 lineto
74.830971 113.17667 lineto
80.393677 101.49499 lineto
87.728958 112.15327 lineto
95.064238 122.81156 lineto
closepath
fill
grestore
grestore
grestore
gsave [0.7017047 -0.7124679 0.7124679 0.7017047 0 0] concat
gsave
0 0 0 setrgbcolor
newpath
-20.323877 175.6404 moveto
-20.323877 176.68629 lineto
-21.527002 176.68629 lineto
-21.978178 176.6863 -22.292631 176.77745 -22.470362 176.95973 curveto
-22.643542 177.14203 -22.73013 177.47016 -22.730127 177.94411 curveto
-22.730127 178.62086 lineto
-20.658838 178.62086 lineto
-20.658838 179.5984 lineto
-22.730127 179.5984 lineto
-22.730127 186.27711 lineto
-23.994776 186.27711 lineto
-23.994776 179.5984 lineto
-25.197901 179.5984 lineto
-25.197901 178.62086 lineto
-23.994776 178.62086 lineto
-23.994776 178.08766 lineto
-23.994777 177.23546 -23.796535 176.61567 -23.400049 176.22829 curveto
-23.003567 175.83637 -22.374662 175.64041 -21.51333 175.6404 curveto
-20.323877 175.6404 lineto
fill
grestore
gsave
0 0 0 setrgbcolor
newpath
-15.771143 182.42848 moveto
-16.787423 182.42849 -17.491524 182.5447 -17.883448 182.77711 curveto
-18.275377 183.00954 -18.47134 183.40602 -18.471338 183.96657 curveto
-18.47134 184.41318 -18.325507 184.76865 -18.033838 185.03297 curveto
-17.737617 185.29274 -17.336576 185.42262 -16.830713 185.42262 curveto
-16.133452 185.42262 -15.575184 185.17653 -15.155909 184.68434 curveto
-14.732086 184.1876 -14.520172 183.52907 -14.520166 182.70876 curveto
-14.520166 182.42848 lineto
-15.771143 182.42848 lineto
-13.262354 181.90895 moveto
-13.262354 186.27711 lineto
-14.520166 186.27711 lineto
-14.520166 185.11501 lineto
-14.807282 185.57985 -15.165029 185.92393 -15.593409 186.14723 curveto
-16.021799 186.36598 -16.545887 186.47536 -17.165674 186.47536 curveto
-17.949531 186.47536 -18.573879 186.25661 -19.038721 185.81911 curveto
-19.499009 185.37705 -19.729152 184.78688 -19.729151 184.0486 curveto
-19.729152 183.18727 -19.442043 182.53786 -18.867823 182.10036 curveto
-18.289049 181.66286 -17.427722 181.44411 -16.283838 181.44411 curveto
-14.520166 181.44411 lineto
-14.520166 181.32106 lineto
-14.520172 180.74229 -14.711579 180.29568 -15.094385 179.98122 curveto
-15.472645 179.66221 -16.005848 179.50271 -16.693995 179.5027 curveto
-17.131498 179.50271 -17.557604 179.55512 -17.972315 179.65993 curveto
-18.387031 179.76475 -18.785793 179.92198 -19.168604 180.13161 curveto
-19.168604 178.9695 lineto
-18.708319 178.79177 -18.261705 178.65961 -17.82876 178.57301 curveto
-17.395821 178.48188 -16.974272 178.4363 -16.564112 178.43629 curveto
-15.456695 178.4363 -14.629547 178.72341 -14.082666 179.29762 curveto
-13.535798 179.87185 -13.262361 180.74229 -13.262354 181.90895 curveto
fill
grestore
gsave
0 0 0 setrgbcolor
newpath
-10.637354 178.62086 moveto
-9.3795414 178.62086 lineto
-9.3795414 186.27711 lineto
-10.637354 186.27711 lineto
-10.637354 178.62086 lineto
-10.637354 175.6404 moveto
-9.3795414 175.6404 lineto
-9.3795414 177.23317 lineto
-10.637354 177.23317 lineto
-10.637354 175.6404 lineto
fill
grestore
gsave
0 0 0 setrgbcolor
newpath
-6.7545414 175.6404 moveto
-5.4967289 175.6404 lineto
-5.4967289 186.27711 lineto
-6.7545414 186.27711 lineto
-6.7545414 175.6404 lineto
fill
grestore
grestore
gsave [0.999971 -0.0076107323 0.0076107323 0.999971 0 0] concat
gsave
0 0 0 setrgbcolor
newpath
183.65799 126.47743 moveto
183.65799 127.52333 lineto
182.45486 127.52333 lineto
182.00369 127.52334 181.68924 127.61449 181.5115 127.79677 curveto
181.33832 127.97907 181.25174 128.30719 181.25174 128.78114 curveto
181.25174 129.4579 lineto
183.32303 129.4579 lineto
183.32303 130.43544 lineto
181.25174 130.43544 lineto
181.25174 137.11415 lineto
179.98709 137.11415 lineto
179.98709 130.43544 lineto
178.78397 130.43544 lineto
178.78397 129.4579 lineto
179.98709 129.4579 lineto
179.98709 128.9247 lineto
179.98709 128.07249 180.18533 127.4527 180.58182 127.06532 curveto
180.9783 126.67341 181.6072 126.47744 182.46854 126.47743 curveto
183.65799 126.47743 lineto
fill
grestore
gsave
0 0 0 setrgbcolor
newpath
188.21072 133.26552 moveto
187.19444 133.26552 186.49034 133.38173 186.09842 133.61415 curveto
185.70649 133.84658 185.51053 134.24306 185.51053 134.8036 curveto
185.51053 135.25022 185.65636 135.60569 185.94803 135.87001 curveto
186.24425 136.12978 186.64529 136.25966 187.15115 136.25966 curveto
187.84841 136.25966 188.40668 136.01357 188.82596 135.52138 curveto
189.24978 135.02464 189.46169 134.36611 189.4617 133.54579 curveto
189.4617 133.26552 lineto
188.21072 133.26552 lineto
190.71951 132.74599 moveto
190.71951 137.11415 lineto
189.4617 137.11415 lineto
189.4617 135.95204 lineto
189.17458 136.41689 188.81684 136.76096 188.38846 136.98427 curveto
187.96007 137.20302 187.43598 137.31239 186.81619 137.31239 curveto
186.03234 137.31239 185.40799 137.09364 184.94315 136.65614 curveto
184.48286 136.21409 184.25271 135.62392 184.25272 134.88564 curveto
184.25271 134.02431 184.53982 133.3749 185.11404 132.93739 curveto
185.69282 132.4999 186.55414 132.28115 187.69803 132.28114 curveto
189.4617 132.28114 lineto
189.4617 132.1581 lineto
189.46169 131.57933 189.27029 131.13271 188.88748 130.81825 curveto
188.50922 130.49925 187.97602 130.33974 187.28787 130.33974 curveto
186.85037 130.33974 186.42426 130.39215 186.00955 130.49696 curveto
185.59484 130.60179 185.19607 130.75901 184.81326 130.96864 curveto
184.81326 129.80653 lineto
185.27355 129.62881 185.72016 129.49665 186.15311 129.41005 curveto
186.58605 129.31891 187.00759 129.27334 187.41775 129.27333 curveto
188.52517 129.27334 189.35232 129.56045 189.8992 130.13466 curveto
190.44607 130.70888 190.7195 131.57933 190.71951 132.74599 curveto
fill
grestore
gsave
0 0 0 setrgbcolor
newpath
193.34451 129.4579 moveto
194.60232 129.4579 lineto
194.60232 137.11415 lineto
193.34451 137.11415 lineto
193.34451 129.4579 lineto
193.34451 126.47743 moveto
194.60232 126.47743 lineto
194.60232 128.07021 lineto
193.34451 128.07021 lineto
193.34451 126.47743 lineto
fill
grestore
gsave
0 0 0 setrgbcolor
newpath
197.22732 126.47743 moveto
198.48514 126.47743 lineto
198.48514 137.11415 lineto
197.22732 137.11415 lineto
197.22732 126.47743 lineto
fill
grestore
grestore
grestore
grestore
showpage
%%EOF
